SampleName,HtseqFile,Sex,Tissue,Source
SRR3111523,/home/ssg29/results/SLX-PRJNA309411.Homo_sapiens.v1/featureCount/SRR3111523/SLX-PRJNA309411.SRR3111523.featureCount.88.collapsed.from.gencode.v26.clean.txt,NA,Placenta.T3.SB,Buckberry
SRR3111524,/home/ssg29/results/SLX-PRJNA309411.Homo_sapiens.v1/featureCount/SRR3111524/SLX-PRJNA309411.SRR3111524.featureCount.88.collapsed.from.gencode.v26.clean.txt,NA,Placenta.T3.SB,Buckberry
SRR3111525,/home/ssg29/results/SLX-PRJNA309411.Homo_sapiens.v1/featureCount/SRR3111525/SLX-PRJNA309411.SRR3111525.featureCount.88.collapsed.from.gencode.v26.clean.txt,NA,Placenta.T3.SB,Buckberry
SRR3111526,/home/ssg29/results/SLX-PRJNA309411.Homo_sapiens.v1/featureCount/SRR3111526/SLX-PRJNA309411.SRR3111526.featureCount.88.collapsed.from.gencode.v26.clean.txt,NA,Placenta.T3.SB,Buckberry
SRR3111527,/home/ssg29/results/SLX-PRJNA309411.Homo_sapiens.v1/featureCount/SRR3111527/SLX-PRJNA309411.SRR3111527.featureCount.88.collapsed.from.gencode.v26.clean.txt,NA,Placenta.T3.SB,Buckberry
SRR3111528,/home/ssg29/results/SLX-PRJNA309411.Homo_sapiens.v1/featureCount/SRR3111528/SLX-PRJNA309411.SRR3111528.featureCount.88.collapsed.from.gencode.v26.clean.txt,NA,Placenta.T3.SB,Buckberry
SRR3111529,/home/ssg29/results/SLX-PRJNA309411.Homo_sapiens.v1/featureCount/SRR3111529/SLX-PRJNA309411.SRR3111529.featureCount.88.collapsed.from.gencode.v26.clean.txt,NA,Placenta.T3.SB,Buckberry
SRR3111530,/home/ssg29/results/SLX-PRJNA309411.Homo_sapiens.v1/featureCount/SRR3111530/SLX-PRJNA309411.SRR3111530.featureCount.88.collapsed.from.gencode.v26.clean.txt,NA,Placenta.T3.SB,Buckberry
SRR3111531,/home/ssg29/results/SLX-PRJNA309411.Homo_sapiens.v1/featureCount/SRR3111531/SLX-PRJNA309411.SRR3111531.featureCount.88.collapsed.from.gencode.v26.clean.txt,NA,Placenta.T3.SB,Buckberry
SRR3111532,/home/ssg29/results/SLX-PRJNA309411.Homo_sapiens.v1/featureCount/SRR3111532/SLX-PRJNA309411.SRR3111532.featureCount.88.collapsed.from.gencode.v26.clean.txt,NA,Placenta.T3.SB,Buckberry
SRR3111533,/home/ssg29/results/SLX-PRJNA309411.Homo_sapiens.v1/featureCount/SRR3111533/SLX-PRJNA309411.SRR3111533.featureCount.88.collapsed.from.gencode.v26.clean.txt,NA,Placenta.T3.SB,Buckberry
SRR3111534,/home/ssg29/results/SLX-PRJNA309411.Homo_sapiens.v1/featureCount/SRR3111534/SLX-PRJNA309411.SRR3111534.featureCount.88.collapsed.from.gencode.v26.clean.txt,NA,Placenta.T3.SB,Buckberry
SRR3111535,/home/ssg29/results/SLX-PRJNA309411.Homo_sapiens.v1/featureCount/SRR3111535/SLX-PRJNA309411.SRR3111535.featureCount.88.collapsed.from.gencode.v26.clean.txt,NA,Placenta.T3.SB,Buckberry
SRR3111536,/home/ssg29/results/SLX-PRJNA309411.Homo_sapiens.v1/featureCount/SRR3111536/SLX-PRJNA309411.SRR3111536.featureCount.88.collapsed.from.gencode.v26.clean.txt,NA,Placenta.T3.SB,Buckberry
SRR3111537,/home/ssg29/results/SLX-PRJNA309411.Homo_sapiens.v1/featureCount/SRR3111537/SLX-PRJNA309411.SRR3111537.featureCount.88.collapsed.from.gencode.v26.clean.txt,NA,Placenta.T3.SB,Buckberry
SRR3111538,/home/ssg29/results/SLX-PRJNA309411.Homo_sapiens.v1/featureCount/SRR3111538/SLX-PRJNA309411.SRR3111538.featureCount.88.collapsed.from.gencode.v26.clean.txt,NA,Placenta.T3.SB,Buckberry
