Method,Gene,Placenta.T1.pA.8wk,Placenta.T1.pA.14wk,Placenta.T3.pA
TMM,ST3GAL3,5.72355208736627,6.85071960213758,7.75873940401803
TMM,ST6GAL2,1.75160945078447,2.88963118371584,2.20177083499591
TMM,ST3GAL6,46.4717547118251,43.8233970866558,97.4059662132006
TMM,ST6GAL1,8.64340409883482,15.1655096769319,22.6323716437365
TMM,ST8SIA4,33.7083642998301,29.1437270441905,43.8733558311106
TMM,ST3GAL1,370.755026937907,140.662970613204,458.077471640923
TMM,ST3GAL4,209.10881963,125.401532469405,246.970585829812
TMM,ST8SIA2,0.545755133672942,0.13915106363383,0
TMM,ST8SIA3,0,0.00670707744127976,0.000782339274451695
TMM,PSG5,4006.02780320264,952.477327509309,3330.14524347082
DESeq,ST3GAL3,6.0311958086487,7.22391851789856,8.32613558507428
DESeq,ST6GAL2,1.9131930960774,2.95294605300433,2.37184514545864
DESeq,ST3GAL6,48.7828713924685,46.0251572228282,104.583448895793
DESeq,ST6GAL1,9.07015516541986,15.9724923281504,24.2380718953065
DESeq,ST8SIA4,35.2298809345234,30.648007235558,47.088289956254
DESeq,ST3GAL1,390.302863545414,148.271418072879,491.952694453566
DESeq,ST3GAL4,219.805037526277,132.126942873255,265.0663239061
DESeq,ST8SIA2,0.538932889004361,0.133404266199594,0
DESeq,ST8SIA3,0,0.00628116968662971,0.00102181742047153
DESeq,PSG5,4222.70277083854,1003.32621921484,3579.63053627107
