Tissue,1,2,3,4,5,6,7,8,9,10,11,12,13,14,15,16,17,18,19,20,21,22,X,MT
Placenta.T1.YL,9.09,8.33,8.33,6.06,3.03,6.82,5.3,2.27,3.79,4.55,3.03,3.79,1.52,3.79,4.55,6.06,4.55,0.76,3.03,0.76,0.76,1.52,8.33,
Placenta.T1.ZH,9.09,7.27,7.27,1.82,3.64,3.64,7.27,3.64,,3.64,3.64,7.27,5.45,5.45,1.82,1.82,7.27,,7.27,,,1.82,10.91,
Placenta.T1.pA.14wk,10.71,4.46,9.82,6.25,3.57,2.68,7.14,2.68,4.46,2.68,1.79,2.68,1.79,3.57,4.46,2.68,4.46,0.89,5.36,0.89,0.89,3.57,12.5,
Placenta.T1.pA.8wk,8.37,7.91,6.98,4.65,3.26,5.12,4.65,1.86,5.12,4.65,4.65,5.58,2.33,2.79,3.72,2.79,5.58,1.86,5.12,0.93,0.93,2.33,8.84,
Placenta.T3.BA,6.47,5.59,4.12,2.35,0.59,2.06,7.35,5.59,4.71,2.35,5.29,2.65,0.29,1.47,2.65,12.65,3.82,0.59,18.53,3.53,0.88,2.35,3.82,0.29
Placenta.T3.MV,9.28,5.49,2.95,2.53,2.53,2.11,4.22,3.8,4.64,6.75,1.69,4.22,1.27,1.69,5.49,5.06,16.88,0.84,6.33,1.69,2.11,1.27,6.75,0.42
Placenta.T3.ZA,8.13,6.5,5.69,6.5,3.25,2.44,7.32,1.63,3.25,6.5,3.25,4.07,1.63,2.44,4.07,7.32,4.07,0.81,4.07,1.63,3.25,2.44,8.94,0.81
Placenta.T3.pA,7.87,3.81,3.94,2.62,1.18,2.1,4.46,4.46,5.64,3.15,4.72,3.67,0.26,2.1,2.1,11.02,8.01,0.39,17.72,3.02,0.79,3.94,2.89,0.13
