GA,source,term_id,term_name,term_size,query_size,intersection_size,precision,recall,p_value,intersection,depth
8wk,GO:BP,GO:0042448,progesterone metabolic process,18,215,5,0.0232558139534884,0.277777777777778,0.00496861170492982,"ENSG00000196139,ENSG00000187134,ENSG00000151632,ENSG00000109819,ENSG00000120738",5
8wk,GO:BP,GO:0009753,response to jasmonic acid,4,215,3,0.013953488372093,0.75,0.00708518933714025,"ENSG00000196139,ENSG00000187134,ENSG00000151632",5
8wk,GO:BP,GO:0071395,cellular response to jasmonic acid stimulus,4,215,3,0.013953488372093,0.75,0.00708518933714025,"ENSG00000196139,ENSG00000187134,ENSG00000151632",6
8wk,GO:BP,GO:0032501,multicellular organismal process,7632,215,117,0.544186046511628,0.0153301886792453,0.00937922165564109,"ENSG00000275896,ENSG00000131095,ENSG00000204983,ENSG00000122679,ENSG00000109906,ENSG00000123560,ENSG00000134121,ENSG00000176463,ENSG00000164197,ENSG00000168309,ENSG00000130558,ENSG00000131831,ENSG00000135424,ENSG00000186462,ENSG00000101938,ENSG00000196139,ENSG00000165092,ENSG00000137941,ENSG00000198125,ENSG00000170477,ENSG00000160307,ENSG00000277494,ENSG00000122574,ENSG00000171401,ENSG00000165810,ENSG00000186642,ENSG00000155962,ENSG00000135744,ENSG00000158050,ENSG00000133392,ENSG00000009694,ENSG00000166780,ENSG00000081052,ENSG00000164035,ENSG00000196136,ENSG00000092054,ENSG00000148053,ENSG00000126368,ENSG00000132970,ENSG00000134769,ENSG00000157103,ENSG00000153291,ENSG00000181722,ENSG00000162599,ENSG00000169031,ENSG00000187134,ENSG00000151632,ENSG00000109819,ENSG00000013619,ENSG00000163083,ENSG00000160460,ENSG00000204642,ENSG00000132329,ENSG00000163631,ENSG00000167768,ENSG00000188906,ENSG00000072954,ENSG00000078687,ENSG00000141232,ENSG00000171385,ENSG00000099998,ENSG00000139910,ENSG00000118263,ENSG00000185010,ENSG00000135144,ENSG00000105516,ENSG00000197971,ENSG00000239474,ENSG00000105792,ENSG00000006210,ENSG00000109472,ENSG00000171533,ENSG00000177464,ENSG00000130988,ENSG00000122367,ENSG00000099204,ENSG00000042832,ENSG00000067141,ENSG00000157150,ENSG00000120327,ENSG00000078018,ENSG00000153234,ENSG00000113248,ENSG00000177706,ENSG00000231389,ENSG00000114378,ENSG00000107742,ENSG00000144283,ENSG00000049540,ENSG00000165795,ENSG00000002933,ENSG00000163815,ENSG00000118596,ENSG00000143632,ENSG00000120738,ENSG00000162409,ENSG00000223865,ENSG00000072210,ENSG00000131018,ENSG00000071575,ENSG00000149489,ENSG00000206503,ENSG00000077943,ENSG00000184113,ENSG00000203883,ENSG00000163884,ENSG00000135503,ENSG00000105711,ENSG00000069667,ENSG00000001561,ENSG00000198753,ENSG00000124788,ENSG00000272573,ENSG00000184226,ENSG00000105737,ENSG00000091831,ENSG00000145349",2
8wk,GO:BP,GO:0044598,doxorubicin metabolic process,9,215,3,0.013953488372093,0.333333333333333,0.0428173979691475,"ENSG00000196139,ENSG00000187134,ENSG00000151632",5
8wk,GO:BP,GO:0006766,vitamin metabolic process,130,215,8,0.0372093023255814,0.0615384615384615,0.0428173979691475,"ENSG00000204983,ENSG00000196139,ENSG00000144908,ENSG00000130988,ENSG00000138356,ENSG00000135929,ENSG00000186104,ENSG00000185339",4
8wk,GO:BP,GO:0008207,C21-steroid hormone metabolic process,42,215,5,0.0232558139534884,0.119047619047619,0.0428173979691475,"ENSG00000196139,ENSG00000187134,ENSG00000151632,ENSG00000109819,ENSG00000120738",5
8wk,GO:BP,GO:0030638,polyketide metabolic process,9,215,3,0.013953488372093,0.333333333333333,0.0428173979691475,"ENSG00000196139,ENSG00000187134,ENSG00000151632",4
8wk,GO:BP,GO:0044597,daunorubicin metabolic process,9,215,3,0.013953488372093,0.333333333333333,0.0428173979691475,"ENSG00000196139,ENSG00000187134,ENSG00000151632",5
8wk,GO:BP,GO:0051239,regulation of multicellular organismal process,2637,215,50,0.232558139534884,0.0189609404626469,0.0428173979691475,"ENSG00000131095,ENSG00000109906,ENSG00000130558,ENSG00000165092,ENSG00000277494,ENSG00000165810,ENSG00000155962,ENSG00000135744,ENSG00000092054,ENSG00000148053,ENSG00000126368,ENSG00000132970,ENSG00000181722,ENSG00000169031,ENSG00000109819,ENSG00000163083,ENSG00000160460,ENSG00000204642,ENSG00000167768,ENSG00000188906,ENSG00000072954,ENSG00000078687,ENSG00000171385,ENSG00000139910,ENSG00000118263,ENSG00000135144,ENSG00000197971,ENSG00000006210,ENSG00000171533,ENSG00000177464,ENSG00000130988,ENSG00000042832,ENSG00000078018,ENSG00000153234,ENSG00000231389,ENSG00000114378,ENSG00000165795,ENSG00000002933,ENSG00000120738,ENSG00000223865,ENSG00000071575,ENSG00000206503,ENSG00000184113,ENSG00000135503,ENSG00000105711,ENSG00000069667,ENSG00000001561,ENSG00000198753,ENSG00000091831,ENSG00000145349",3
8wk,GO:BP,GO:0006941,striated muscle contraction,173,215,9,0.0418604651162791,0.0520231213872832,0.0466627369657055,"ENSG00000198125,ENSG00000155962,ENSG00000092054,ENSG00000134769,ENSG00000072954,ENSG00000171385,ENSG00000239474,ENSG00000105711,ENSG00000145349",6
8wk,GO:BP,GO:0030647,aminoglycoside antibiotic metabolic process,10,215,3,0.013953488372093,0.3,0.0466627369657055,"ENSG00000196139,ENSG00000187134,ENSG00000151632",6
8wk,GO:BP,GO:0048731,system development,4862,215,79,0.367441860465116,0.016248457424928,0.0466627369657055,"ENSG00000131095,ENSG00000122679,ENSG00000109906,ENSG00000123560,ENSG00000134121,ENSG00000130558,ENSG00000135424,ENSG00000186462,ENSG00000101938,ENSG00000196139,ENSG00000137941,ENSG00000170477,ENSG00000160307,ENSG00000171401,ENSG00000186642,ENSG00000135744,ENSG00000133392,ENSG00000009694,ENSG00000166780,ENSG00000081052,ENSG00000164035,ENSG00000092054,ENSG00000148053,ENSG00000126368,ENSG00000132970,ENSG00000153291,ENSG00000162599,ENSG00000169031,ENSG00000109819,ENSG00000013619,ENSG00000163083,ENSG00000160460,ENSG00000132329,ENSG00000167768,ENSG00000188906,ENSG00000078687,ENSG00000118263,ENSG00000135144,ENSG00000105516,ENSG00000197971,ENSG00000239474,ENSG00000006210,ENSG00000109472,ENSG00000171533,ENSG00000177464,ENSG00000130988,ENSG00000122367,ENSG00000099204,ENSG00000042832,ENSG00000067141,ENSG00000157150,ENSG00000120327,ENSG00000078018,ENSG00000153234,ENSG00000113248,ENSG00000177706,ENSG00000114378,ENSG00000107742,ENSG00000144283,ENSG00000049540,ENSG00000165795,ENSG00000002933,ENSG00000163815,ENSG00000143632,ENSG00000120738,ENSG00000072210,ENSG00000149489,ENSG00000077943,ENSG00000184113,ENSG00000203883,ENSG00000163884,ENSG00000135503,ENSG00000105711,ENSG00000069667,ENSG00000198753,ENSG00000124788,ENSG00000272573,ENSG00000184226,ENSG00000091831",4
8wk,GO:CC,GO:0044297,cell body,589,215,20,0.0930232558139535,0.033955857385399,0.00507364696021266,"ENSG00000131095,ENSG00000130558,ENSG00000137941,ENSG00000157103,ENSG00000153291,ENSG00000163864,ENSG00000166405,ENSG00000109819,ENSG00000160460,ENSG00000188906,ENSG00000171385,ENSG00000197971,ENSG00000006210,ENSG00000078018,ENSG00000143632,ENSG00000162409,ENSG00000077943,ENSG00000105711,ENSG00000111674,ENSG00000105737",3
8wk,GO:CC,GO:0043025,neuronal cell body,516,215,18,0.0837209302325582,0.0348837209302326,0.00507364696021266,"ENSG00000130558,ENSG00000137941,ENSG00000157103,ENSG00000153291,ENSG00000163864,ENSG00000166405,ENSG00000109819,ENSG00000160460,ENSG00000188906,ENSG00000171385,ENSG00000197971,ENSG00000006210,ENSG00000078018,ENSG00000162409,ENSG00000077943,ENSG00000105711,ENSG00000111674,ENSG00000105737",4
8wk,GO:CC,GO:0043005,neuron projection,1371,215,32,0.148837209302326,0.0233406272793581,0.00951743867815598,"ENSG00000168309,ENSG00000130558,ENSG00000170011,ENSG00000137941,ENSG00000009694,ENSG00000148053,ENSG00000126368,ENSG00000134769,ENSG00000157103,ENSG00000163864,ENSG00000166405,ENSG00000109819,ENSG00000160460,ENSG00000188906,ENSG00000171385,ENSG00000197971,ENSG00000006210,ENSG00000171533,ENSG00000078018,ENSG00000113248,ENSG00000165795,ENSG00000162409,ENSG00000137449,ENSG00000149489,ENSG00000077943,ENSG00000184113,ENSG00000105711,ENSG00000139190,ENSG00000184226,ENSG00000105737,ENSG00000180155,ENSG00000145349",4
8wk,GO:CC,GO:0042611,MHC protein complex,22,215,4,0.0186046511627907,0.181818181818182,0.0109031946067211,"ENSG00000204642,ENSG00000231389,ENSG00000223865,ENSG00000206503",5
8wk,GO:CC,GO:0071556,integral component of lumenal side of endoplasmic reticulum membrane,25,215,4,0.0186046511627907,0.16,0.0122427597640442,"ENSG00000204642,ENSG00000231389,ENSG00000223865,ENSG00000206503",5
8wk,GO:CC,GO:0098553,lumenal side of endoplasmic reticulum membrane,25,215,4,0.0186046511627907,0.16,0.0122427597640442,"ENSG00000204642,ENSG00000231389,ENSG00000223865,ENSG00000206503",4
8wk,GO:CC,GO:0072562,blood microparticle,109,215,7,0.0325581395348837,0.0642201834862385,0.0148902240813783,"ENSG00000204983,ENSG00000000971,ENSG00000135744,ENSG00000196136,ENSG00000163631,ENSG00000167768,ENSG00000143632",3
8wk,GO:CC,GO:0036477,somatodendritic compartment,868,215,22,0.102325581395349,0.0253456221198157,0.0180480255326505,"ENSG00000130558,ENSG00000137941,ENSG00000148053,ENSG00000126368,ENSG00000157103,ENSG00000153291,ENSG00000163864,ENSG00000166405,ENSG00000109819,ENSG00000160460,ENSG00000188906,ENSG00000171385,ENSG00000197971,ENSG00000006210,ENSG00000171533,ENSG00000078018,ENSG00000162409,ENSG00000077943,ENSG00000105711,ENSG00000111674,ENSG00000105737,ENSG00000180155",4
8wk,GO:CC,GO:0008305,integrin complex,31,215,4,0.0186046511627907,0.129032258064516,0.0192593829050763,"ENSG00000123560,ENSG00000135424,ENSG00000143127,ENSG00000077943",4
8wk,GO:CC,GO:0098576,lumenal side of membrane,33,215,4,0.0186046511627907,0.121212121212121,0.0221501074497568,"ENSG00000204642,ENSG00000231389,ENSG00000223865,ENSG00000206503",3
8wk,GO:CC,GO:0098636,protein complex involved in cell adhesion,36,215,4,0.0186046511627907,0.111111111111111,0.0258238439608533,"ENSG00000123560,ENSG00000135424,ENSG00000143127,ENSG00000077943",3
8wk,GO:CC,GO:0098797,plasma membrane protein complex,566,215,16,0.0744186046511628,0.0282685512367491,0.0258238439608533,"ENSG00000122679,ENSG00000123560,ENSG00000135424,ENSG00000143127,ENSG00000204642,ENSG00000132329,ENSG00000171385,ENSG00000067141,ENSG00000231389,ENSG00000223865,ENSG00000206503,ENSG00000077943,ENSG00000188747,ENSG00000135503,ENSG00000105711,ENSG00000105737",4
8wk,GO:CC,GO:1903440,amylin receptor complex,4,215,2,0.00930232558139535,0.5,0.0258238439608533,"ENSG00000122679,ENSG00000132329",7
8wk,GO:CC,GO:0001725,stress fiber,68,215,5,0.0232558139534884,0.0735294117647059,0.026587266935804,"ENSG00000168309,ENSG00000092054,ENSG00000122367,ENSG00000099204,ENSG00000143632",6
8wk,GO:CC,GO:0098802,plasma membrane signaling receptor complex,180,215,8,0.0372093023255814,0.0444444444444444,0.026587266935804,"ENSG00000122679,ENSG00000123560,ENSG00000135424,ENSG00000143127,ENSG00000132329,ENSG00000077943,ENSG00000135503,ENSG00000105737",4
8wk,GO:CC,GO:0044304,main axon,66,215,5,0.0232558139534884,0.0757575757575758,0.026587266935804,"ENSG00000160460,ENSG00000197971,ENSG00000078018,ENSG00000184113,ENSG00000105711",5
8wk,GO:CC,GO:0097517,contractile actin filament bundle,68,215,5,0.0232558139534884,0.0735294117647059,0.026587266935804,"ENSG00000168309,ENSG00000092054,ENSG00000122367,ENSG00000099204,ENSG00000143632",6
8wk,GO:CC,GO:1903439,calcitonin family receptor complex,5,215,2,0.00930232558139535,0.4,0.0308542471776205,"ENSG00000122679,ENSG00000132329",6
8wk,GO:CC,GO:0120025,plasma membrane bounded cell projection,2214,215,40,0.186046511627907,0.01806684733514,0.0372604507102854,"ENSG00000131095,ENSG00000168309,ENSG00000130558,ENSG00000170011,ENSG00000137941,ENSG00000160307,ENSG00000009694,ENSG00000148053,ENSG00000126368,ENSG00000132970,ENSG00000134769,ENSG00000157103,ENSG00000163864,ENSG00000166405,ENSG00000109819,ENSG00000160460,ENSG00000188906,ENSG00000171385,ENSG00000197971,ENSG00000239474,ENSG00000105792,ENSG00000006210,ENSG00000171533,ENSG00000122367,ENSG00000099204,ENSG00000078018,ENSG00000113248,ENSG00000165795,ENSG00000143632,ENSG00000162409,ENSG00000137449,ENSG00000149489,ENSG00000077943,ENSG00000184113,ENSG00000105711,ENSG00000139190,ENSG00000184226,ENSG00000105737,ENSG00000180155,ENSG00000145349",4
8wk,GO:CC,GO:0032432,actin filament bundle,76,215,5,0.0232558139534884,0.0657894736842105,0.0372604507102854,"ENSG00000168309,ENSG00000092054,ENSG00000122367,ENSG00000099204,ENSG00000143632",5
8wk,GO:CC,GO:0042641,actomyosin,77,215,5,0.0232558139534884,0.0649350649350649,0.0376095808260181,"ENSG00000168309,ENSG00000092054,ENSG00000122367,ENSG00000099204,ENSG00000143632",5
8wk,GO:CC,GO:0043204,perikaryon,160,215,7,0.0325581395348837,0.04375,0.0459114682474955,"ENSG00000130558,ENSG00000137941,ENSG00000188906,ENSG00000077943,ENSG00000105711,ENSG00000111674,ENSG00000105737",4
8wk,GO:CC,GO:0030658,transport vesicle membrane,207,215,8,0.0372093023255814,0.0386473429951691,0.0472385903182452,"ENSG00000204642,ENSG00000188906,ENSG00000109472,ENSG00000171533,ENSG00000231389,ENSG00000223865,ENSG00000206503,ENSG00000139190",4
8wk,GO:CC,GO:0005587,collagen type IV trimer,7,215,2,0.00930232558139535,0.285714285714286,0.0478798949414452,"ENSG00000081052,ENSG00000169031",5
8wk,GO:CC,GO:0098645,collagen network,8,215,2,0.00930232558139535,0.25,0.0493348419937447,"ENSG00000081052,ENSG00000169031",4
8wk,GO:CC,GO:0030424,axon,655,215,16,0.0744186046511628,0.0244274809160305,0.0493348419937447,"ENSG00000130558,ENSG00000148053,ENSG00000134769,ENSG00000157103,ENSG00000163864,ENSG00000160460,ENSG00000188906,ENSG00000197971,ENSG00000171533,ENSG00000078018,ENSG00000165795,ENSG00000162409,ENSG00000184113,ENSG00000105711,ENSG00000184226,ENSG00000105737",5
8wk,GO:CC,GO:0042612,MHC class I protein complex,8,215,2,0.00930232558139535,0.25,0.0493348419937447,"ENSG00000204642,ENSG00000206503",6
8wk,GO:CC,GO:0042995,cell projection,2314,215,40,0.186046511627907,0.017286084701815,0.0493348419937447,"ENSG00000131095,ENSG00000168309,ENSG00000130558,ENSG00000170011,ENSG00000137941,ENSG00000160307,ENSG00000009694,ENSG00000148053,ENSG00000126368,ENSG00000132970,ENSG00000134769,ENSG00000157103,ENSG00000163864,ENSG00000166405,ENSG00000109819,ENSG00000160460,ENSG00000188906,ENSG00000171385,ENSG00000197971,ENSG00000239474,ENSG00000105792,ENSG00000006210,ENSG00000171533,ENSG00000122367,ENSG00000099204,ENSG00000078018,ENSG00000113248,ENSG00000165795,ENSG00000143632,ENSG00000162409,ENSG00000137449,ENSG00000149489,ENSG00000077943,ENSG00000184113,ENSG00000105711,ENSG00000139190,ENSG00000184226,ENSG00000105737,ENSG00000180155,ENSG00000145349",3
8wk,GO:CC,GO:0043203,axon hillock,8,215,2,0.00930232558139535,0.25,0.0493348419937447,"ENSG00000160460,ENSG00000078018",5
8wk,GO:CC,GO:0071944,cell periphery,5794,215,84,0.390697674418605,0.0144977562996203,0.0493348419937447,"ENSG00000275896,ENSG00000204983,ENSG00000122679,ENSG00000109906,ENSG00000123560,ENSG00000134121,ENSG00000176463,ENSG00000119138,ENSG00000196616,ENSG00000168309,ENSG00000108551,ENSG00000135424,ENSG00000147027,ENSG00000170011,ENSG00000277494,ENSG00000165810,ENSG00000186642,ENSG00000155962,ENSG00000135744,ENSG00000009694,ENSG00000154262,ENSG00000081052,ENSG00000164035,ENSG00000196136,ENSG00000143248,ENSG00000148053,ENSG00000134769,ENSG00000157103,ENSG00000090104,ENSG00000169031,ENSG00000198598,ENSG00000163083,ENSG00000143127,ENSG00000160460,ENSG00000204642,ENSG00000132329,ENSG00000167768,ENSG00000188906,ENSG00000171385,ENSG00000099998,ENSG00000185010,ENSG00000067840,ENSG00000197971,ENSG00000239474,ENSG00000006210,ENSG00000109472,ENSG00000177464,ENSG00000166073,ENSG00000067141,ENSG00000157150,ENSG00000120327,ENSG00000204116,ENSG00000113248,ENSG00000231389,ENSG00000107742,ENSG00000144283,ENSG00000049540,ENSG00000163815,ENSG00000118596,ENSG00000223865,ENSG00000131018,ENSG00000149489,ENSG00000206503,ENSG00000077943,ENSG00000152583,ENSG00000184113,ENSG00000188747,ENSG00000126217,ENSG00000135503,ENSG00000175806,ENSG00000065054,ENSG00000122547,ENSG00000105711,ENSG00000001561,ENSG00000198753,ENSG00000156298,ENSG00000139190,ENSG00000184226,ENSG00000111674,ENSG00000141338,ENSG00000105737,ENSG00000091831,ENSG00000180155,ENSG00000145349",3
8wk,GO:CC,GO:0030134,COPII-coated ER to Golgi transport vesicle,89,215,5,0.0232558139534884,0.0561797752808989,0.0493348419937447,"ENSG00000204642,ENSG00000185010,ENSG00000231389,ENSG00000223865,ENSG00000206503",7
8wk,GO:CC,GO:0098642,network-forming collagen trimer,8,215,2,0.00930232558139535,0.25,0.0493348419937447,"ENSG00000081052,ENSG00000169031",4
8wk,GO:MF,GO:0018636,"phenanthrene 9,10-monooxygenase activity",3,215,3,0.013953488372093,1,0.000943708808761288,"ENSG00000196139,ENSG00000187134,ENSG00000151632",6
8wk,GO:MF,GO:0047115,"trans-1,2-dihydrobenzene-1,2-diol dehydrogenase activity",4,215,3,0.013953488372093,0.75,0.00187175072108895,"ENSG00000196139,ENSG00000187134,ENSG00000151632",6
8wk,GO:MF,GO:0047086,ketosteroid monooxygenase activity,5,215,3,0.013953488372093,0.6,0.00232027736697075,"ENSG00000196139,ENSG00000187134,ENSG00000151632",6
8wk,GO:MF,GO:0046914,transition metal ion binding,1084,215,29,0.134883720930233,0.0267527675276753,0.00232027736697075,"ENSG00000196616,ENSG00000166432,ENSG00000170011,ENSG00000160307,ENSG00000186642,ENSG00000126368,ENSG00000134769,ENSG00000198598,ENSG00000065833,ENSG00000163631,ENSG00000132481,ENSG00000118263,ENSG00000185010,ENSG00000135144,ENSG00000132840,ENSG00000169918,ENSG00000109472,ENSG00000130988,ENSG00000080561,ENSG00000138356,ENSG00000153234,ENSG00000177706,ENSG00000135929,ENSG00000172671,ENSG00000186104,ENSG00000120738,ENSG00000069667,ENSG00000078043,ENSG00000091831",6
8wk,GO:MF,GO:0046872,metal ion binding,4177,215,72,0.334883720930233,0.0172372516159923,0.00543168234785937,"ENSG00000275896,ENSG00000204983,ENSG00000109906,ENSG00000119138,ENSG00000196616,ENSG00000164197,ENSG00000135424,ENSG00000166432,ENSG00000131386,ENSG00000170011,ENSG00000198125,ENSG00000160307,ENSG00000159733,ENSG00000186642,ENSG00000118922,ENSG00000126368,ENSG00000134769,ENSG00000157103,ENSG00000181722,ENSG00000151376,ENSG00000198598,ENSG00000065833,ENSG00000143127,ENSG00000163631,ENSG00000188906,ENSG00000212864,ENSG00000171385,ENSG00000132481,ENSG00000118263,ENSG00000185010,ENSG00000135144,ENSG00000132840,ENSG00000170153,ENSG00000169918,ENSG00000109472,ENSG00000130988,ENSG00000122367,ENSG00000099204,ENSG00000080561,ENSG00000138356,ENSG00000157150,ENSG00000120327,ENSG00000153234,ENSG00000113248,ENSG00000177706,ENSG00000135929,ENSG00000172671,ENSG00000107742,ENSG00000186104,ENSG00000163815,ENSG00000120738,ENSG00000162409,ENSG00000100626,ENSG00000218891,ENSG00000151689,ENSG00000240038,ENSG00000077943,ENSG00000152583,ENSG00000162804,ENSG00000163884,ENSG00000135503,ENSG00000106772,ENSG00000069667,ENSG00000001561,ENSG00000081803,ENSG00000078043,ENSG00000185339,ENSG00000180881,ENSG00000188868,ENSG00000184226,ENSG00000111674,ENSG00000091831",5
8wk,GO:MF,GO:0008270,zinc ion binding,816,215,23,0.106976744186047,0.0281862745098039,0.00543168234785937,"ENSG00000196616,ENSG00000166432,ENSG00000170011,ENSG00000160307,ENSG00000186642,ENSG00000126368,ENSG00000134769,ENSG00000198598,ENSG00000163631,ENSG00000132481,ENSG00000118263,ENSG00000135144,ENSG00000132840,ENSG00000169918,ENSG00000109472,ENSG00000130988,ENSG00000080561,ENSG00000153234,ENSG00000172671,ENSG00000120738,ENSG00000069667,ENSG00000078043,ENSG00000091831",7
8wk,GO:MF,GO:0047023,androsterone dehydrogenase activity,8,215,3,0.013953488372093,0.375,0.00724180507266807,"ENSG00000196139,ENSG00000187134,ENSG00000151632",6
8wk,GO:MF,GO:0043169,cation binding,4266,215,72,0.334883720930233,0.0168776371308017,0.00823089218858774,"ENSG00000275896,ENSG00000204983,ENSG00000109906,ENSG00000119138,ENSG00000196616,ENSG00000164197,ENSG00000135424,ENSG00000166432,ENSG00000131386,ENSG00000170011,ENSG00000198125,ENSG00000160307,ENSG00000159733,ENSG00000186642,ENSG00000118922,ENSG00000126368,ENSG00000134769,ENSG00000157103,ENSG00000181722,ENSG00000151376,ENSG00000198598,ENSG00000065833,ENSG00000143127,ENSG00000163631,ENSG00000188906,ENSG00000212864,ENSG00000171385,ENSG00000132481,ENSG00000118263,ENSG00000185010,ENSG00000135144,ENSG00000132840,ENSG00000170153,ENSG00000169918,ENSG00000109472,ENSG00000130988,ENSG00000122367,ENSG00000099204,ENSG00000080561,ENSG00000138356,ENSG00000157150,ENSG00000120327,ENSG00000153234,ENSG00000113248,ENSG00000177706,ENSG00000135929,ENSG00000172671,ENSG00000107742,ENSG00000186104,ENSG00000163815,ENSG00000120738,ENSG00000162409,ENSG00000100626,ENSG00000218891,ENSG00000151689,ENSG00000240038,ENSG00000077943,ENSG00000152583,ENSG00000162804,ENSG00000163884,ENSG00000135503,ENSG00000106772,ENSG00000069667,ENSG00000001561,ENSG00000081803,ENSG00000078043,ENSG00000185339,ENSG00000180881,ENSG00000188868,ENSG00000184226,ENSG00000111674,ENSG00000091831",4
8wk,GO:MF,GO:0042605,peptide antigen binding,23,215,4,0.0186046511627907,0.173913043478261,0.00868990117953066,"ENSG00000204642,ENSG00000231389,ENSG00000223865,ENSG00000206503",4
8wk,GO:MF,GO:0016903,"oxidoreductase activity, acting on the aldehyde or oxo group of donors",44,215,5,0.0232558139534884,0.113636363636364,0.0087488072283888,"ENSG00000196139,ENSG00000165092,ENSG00000144908,ENSG00000138356,ENSG00000072210",4
8wk,GO:MF,GO:0032052,bile acid binding,11,215,3,0.013953488372093,0.272727272727273,0.013244089124904,"ENSG00000196139,ENSG00000187134,ENSG00000151632",7
8wk,GO:MF,GO:0004032,alditol:NADP+ 1-oxidoreductase activity,12,215,3,0.013953488372093,0.25,0.0148185360664692,"ENSG00000196139,ENSG00000187134,ENSG00000151632",8
8wk,GO:MF,GO:0043167,ion binding,5938,215,91,0.423255813953488,0.0153250252610307,0.0148185360664692,"ENSG00000275896,ENSG00000204983,ENSG00000109906,ENSG00000119138,ENSG00000196616,ENSG00000164197,ENSG00000108551,ENSG00000135424,ENSG00000166432,ENSG00000131386,ENSG00000196139,ENSG00000170011,ENSG00000137941,ENSG00000198125,ENSG00000160307,ENSG00000159733,ENSG00000186642,ENSG00000133392,ENSG00000154258,ENSG00000154262,ENSG00000092054,ENSG00000148053,ENSG00000118922,ENSG00000126368,ENSG00000104879,ENSG00000134769,ENSG00000157103,ENSG00000181722,ENSG00000151376,ENSG00000163864,ENSG00000187134,ENSG00000151632,ENSG00000198598,ENSG00000065833,ENSG00000143127,ENSG00000163631,ENSG00000188906,ENSG00000212864,ENSG00000171385,ENSG00000132481,ENSG00000118263,ENSG00000185010,ENSG00000135144,ENSG00000132840,ENSG00000170153,ENSG00000169918,ENSG00000109472,ENSG00000130988,ENSG00000122367,ENSG00000099204,ENSG00000080561,ENSG00000138356,ENSG00000157150,ENSG00000120327,ENSG00000153234,ENSG00000113248,ENSG00000177706,ENSG00000135929,ENSG00000172671,ENSG00000107742,ENSG00000186104,ENSG00000035664,ENSG00000163815,ENSG00000143632,ENSG00000120738,ENSG00000162409,ENSG00000100626,ENSG00000071575,ENSG00000218891,ENSG00000151689,ENSG00000240038,ENSG00000077943,ENSG00000165868,ENSG00000152583,ENSG00000162804,ENSG00000163884,ENSG00000135503,ENSG00000106772,ENSG00000069667,ENSG00000154263,ENSG00000001561,ENSG00000081803,ENSG00000078043,ENSG00000185339,ENSG00000180881,ENSG00000188868,ENSG00000184226,ENSG00000111674,ENSG00000141338,ENSG00000091831,ENSG00000145349",3
8wk,GO:MF,GO:0047718,indanol dehydrogenase activity,3,215,2,0.00930232558139535,0.666666666666667,0.0148663457247615,"ENSG00000196139,ENSG00000187134",6
8wk,GO:MF,GO:0004471,malate dehydrogenase (decarboxylating) (NAD+) activity,3,215,2,0.00930232558139535,0.666666666666667,0.0148663457247615,"ENSG00000151376,ENSG00000065833",6
8wk,GO:MF,GO:0004473,malate dehydrogenase (decarboxylating) (NADP+) activity,3,215,2,0.00930232558139535,0.666666666666667,0.0148663457247615,"ENSG00000151376,ENSG00000065833",6
8wk,GO:MF,GO:0030343,vitamin D3 25-hydroxylase activity,3,215,2,0.00930232558139535,0.666666666666667,0.0148663457247615,"ENSG00000135929,ENSG00000186104",5
8wk,GO:MF,GO:0070643,vitamin D 25-hydroxylase activity,4,215,2,0.00930232558139535,0.5,0.0206354037125952,"ENSG00000135929,ENSG00000186104",4
8wk,GO:MF,GO:0004029,aldehyde dehydrogenase (NAD+) activity,15,215,3,0.013953488372093,0.2,0.0206354037125952,"ENSG00000165092,ENSG00000144908,ENSG00000072210",6
8wk,GO:MF,GO:0097643,amylin receptor activity,4,215,2,0.00930232558139535,0.5,0.0206354037125952,"ENSG00000122679,ENSG00000132329",7
8wk,GO:MF,GO:0004030,aldehyde dehydrogenase [NAD(P)+] activity,16,215,3,0.013953488372093,0.1875,0.0206354037125952,"ENSG00000165092,ENSG00000144908,ENSG00000072210",6
8wk,GO:MF,GO:0016620,"oxidoreductase activity, acting on the aldehyde or oxo group of donors, NAD or NADP as acceptor",37,215,4,0.0186046511627907,0.108108108108108,0.0206354037125952,"ENSG00000196139,ENSG00000165092,ENSG00000144908,ENSG00000072210",5
8wk,GO:MF,GO:0016614,"oxidoreductase activity, acting on CH-OH group of donors",131,215,7,0.0325581395348837,0.0534351145038168,0.0206354037125952,"ENSG00000196616,ENSG00000196139,ENSG00000151376,ENSG00000187134,ENSG00000151632,ENSG00000065833,ENSG00000072210",4
8wk,GO:MF,GO:0004470,malic enzyme activity,4,215,2,0.00930232558139535,0.5,0.0206354037125952,"ENSG00000151376,ENSG00000065833",6
8wk,GO:MF,GO:0008948,oxaloacetate decarboxylase activity,4,215,2,0.00930232558139535,0.5,0.0206354037125952,"ENSG00000151376,ENSG00000065833",6
8wk,GO:MF,GO:0008200,ion channel inhibitor activity,38,215,4,0.0186046511627907,0.105263157894737,0.0211686361687481,"ENSG00000174501,ENSG00000105711,ENSG00000180155,ENSG00000145349",5
8wk,GO:MF,GO:0008191,metalloendopeptidase inhibitor activity,17,215,3,0.013953488372093,0.176470588235294,0.0211686361687481,"ENSG00000169031,ENSG00000157150,ENSG00000107742",7
8wk,GO:MF,GO:0016248,channel inhibitor activity,39,215,4,0.0186046511627907,0.102564102564103,0.0225473508869365,"ENSG00000174501,ENSG00000105711,ENSG00000180155,ENSG00000145349",4
8wk,GO:MF,GO:0008106,alcohol dehydrogenase (NADP+) activity,21,215,3,0.013953488372093,0.142857142857143,0.037275400611486,"ENSG00000196139,ENSG00000187134,ENSG00000151632",7
8wk,GO:MF,GO:0097642,calcitonin family receptor activity,6,215,2,0.00930232558139535,0.333333333333333,0.0411931791388039,"ENSG00000122679,ENSG00000132329",6
8wk,GO:MF,GO:0043495,protein-membrane adaptor activity,23,215,3,0.013953488372093,0.130434782608696,0.0429046247380883,"ENSG00000160460,ENSG00000131018,ENSG00000065054",4
8wk,GO:MF,GO:0016709,"oxidoreductase activity, acting on paired donors, with incorporation or reduction of molecular oxygen, NAD(P)H as one donor, and incorporation of one atom of oxygen",48,215,4,0.0186046511627907,0.0833333333333333,0.0429046247380883,"ENSG00000196139,ENSG00000187134,ENSG00000151632,ENSG00000135929",5
8wk,GO:MF,GO:0005516,calmodulin binding,201,215,8,0.0372093023255814,0.0398009950248756,0.0429046247380883,"ENSG00000133392,ENSG00000092054,ENSG00000090104,ENSG00000197971,ENSG00000171533,ENSG00000078018,ENSG00000035664,ENSG00000145349",4
8wk,GO:MF,GO:0003823,antigen binding,52,215,4,0.0186046511627907,0.0769230769230769,0.0475670575700885,"ENSG00000204642,ENSG00000231389,ENSG00000223865,ENSG00000206503",3
8wk,GO:MF,GO:0004879,nuclear receptor activity,52,215,4,0.0186046511627907,0.0769230769230769,0.0475670575700885,"ENSG00000126368,ENSG00000153234,ENSG00000069667,ENSG00000091831",5
8wk,GO:MF,GO:0016616,"oxidoreductase activity, acting on the CH-OH group of donors, NAD or NADP as acceptor",121,215,6,0.027906976744186,0.0495867768595041,0.0475670575700885,"ENSG00000196616,ENSG00000196139,ENSG00000151376,ENSG00000187134,ENSG00000151632,ENSG00000065833",5
8wk,GO:MF,GO:0019871,sodium channel inhibitor activity,7,215,2,0.00930232558139535,0.285714285714286,0.0475670575700885,"ENSG00000105711,ENSG00000145349",5
8wk,GO:MF,GO:0030881,beta-2-microglobulin binding,7,215,2,0.00930232558139535,0.285714285714286,0.0475670575700885,"ENSG00000204642,ENSG00000206503",4
8wk,GO:MF,GO:0098531,ligand-activated transcription factor activity,52,215,4,0.0186046511627907,0.0769230769230769,0.0475670575700885,"ENSG00000126368,ENSG00000153234,ENSG00000069667,ENSG00000091831",4
8wk,KEGG,KEGG:04940,Type I diabetes mellitus,40,215,5,0.0232558139534884,0.125,0.0160781216553223,"ENSG00000204642,ENSG00000109472,ENSG00000231389,ENSG00000223865,ENSG00000206503",100
8wk,KEGG,KEGG:05320,Autoimmune thyroid disease,49,215,5,0.0232558139534884,0.102040816326531,0.0214656247480926,"ENSG00000204642,ENSG00000042832,ENSG00000231389,ENSG00000223865,ENSG00000206503",100
8wk,KEGG,KEGG:05416,Viral myocarditis,56,215,5,0.0232558139534884,0.0892857142857143,0.0217532444917987,"ENSG00000092054,ENSG00000204642,ENSG00000231389,ENSG00000223865,ENSG00000206503",100
8wk,KEGG,KEGG:05330,Allograft rejection,34,215,4,0.0186046511627907,0.117647058823529,0.0217532444917987,"ENSG00000204642,ENSG00000231389,ENSG00000223865,ENSG00000206503",100
8wk,KEGG,KEGG:05410,Hypertrophic cardiomyopathy,90,215,6,0.027906976744186,0.0666666666666667,0.0217532444917987,"ENSG00000135424,ENSG00000135744,ENSG00000092054,ENSG00000143127,ENSG00000162409,ENSG00000077943",100
8wk,KEGG,KEGG:05332,Graft-versus-host disease,37,215,4,0.0186046511627907,0.108108108108108,0.0251465407132807,"ENSG00000204642,ENSG00000231389,ENSG00000223865,ENSG00000206503",100
8wk,KEGG,KEGG:04514,Cell adhesion molecules,144,215,7,0.0325581395348837,0.0486111111111111,0.0345227867453171,"ENSG00000204642,ENSG00000067141,ENSG00000231389,ENSG00000223865,ENSG00000206503,ENSG00000077943,ENSG00000184113",100
8wk,KEGG,KEGG:02010,ABC transporters,45,215,4,0.0186046511627907,0.0888888888888889,0.039673592453628,"ENSG00000154258,ENSG00000154262,ENSG00000154263,ENSG00000141338",100
8wk,KEGG,KEGG:00620,Pyruvate metabolism,47,215,4,0.0186046511627907,0.0851063829787234,0.0414866454327612,"ENSG00000196616,ENSG00000151376,ENSG00000065833,ENSG00000072210",100
8wk,REAC,REAC:R-HSA-193775,Synthesis of bile acids and bile salts via 24-hydroxycholesterol,14,215,4,0.0186046511627907,0.285714285714286,0.00481524980761639,"ENSG00000196139,ENSG00000187134,ENSG00000151632,ENSG00000135929",100
8wk,REAC,REAC:R-HSA-193807,Synthesis of bile acids and bile salts via 27-hydroxycholesterol,15,215,4,0.0186046511627907,0.266666666666667,0.00481524980761639,"ENSG00000196139,ENSG00000187134,ENSG00000151632,ENSG00000135929",100
8wk,REAC,REAC:R-HSA-193368,Synthesis of bile acids and bile salts via 7alpha-hydroxycholesterol,23,215,4,0.0186046511627907,0.173913043478261,0.0145559053730986,"ENSG00000196139,ENSG00000187134,ENSG00000151632,ENSG00000135929",100
8wk,REAC,REAC:R-HSA-194068,Bile acid and bile salt metabolism,42,215,5,0.0232558139534884,0.119047619047619,0.0145559053730986,"ENSG00000196139,ENSG00000187134,ENSG00000151632,ENSG00000163631,ENSG00000135929",100
8wk,REAC,REAC:R-HSA-192105,Synthesis of bile acids and bile salts,33,215,4,0.0186046511627907,0.121212121212121,0.0492876563120415,"ENSG00000196139,ENSG00000187134,ENSG00000151632,ENSG00000135929",100
8wk,WP,WP:WP696,Benzo(a)pyrene metabolism,9,215,3,0.013953488372093,0.333333333333333,0.0222775223564763,"ENSG00000196139,ENSG00000187134,ENSG00000151632",100
8wk,WP,WP:WP2328,Allograft Rejection,88,215,6,0.027906976744186,0.0681818181818182,0.0469657992913275,"ENSG00000204642,ENSG00000188906,ENSG00000132840,ENSG00000231389,ENSG00000223865,ENSG00000206503",100
14wk,GO:BP,GO:0032501,multicellular organismal process,7632,112,71,0.633928571428571,0.00930293501048218,0.00105355816282682,"ENSG00000204983,ENSG00000275896,ENSG00000186462,ENSG00000009694,ENSG00000092054,ENSG00000198125,ENSG00000123560,ENSG00000186081,ENSG00000160307,ENSG00000131095,ENSG00000077943,ENSG00000176463,ENSG00000184226,ENSG00000130558,ENSG00000134121,ENSG00000164197,ENSG00000166780,ENSG00000165810,ENSG00000135424,ENSG00000139910,ENSG00000006210,ENSG00000189056,ENSG00000109906,ENSG00000164035,ENSG00000163631,ENSG00000171401,ENSG00000109472,ENSG00000122574,ENSG00000137941,ENSG00000132970,ENSG00000277494,ENSG00000109819,ENSG00000163884,ENSG00000158050,ENSG00000196136,ENSG00000171385,ENSG00000143632,ENSG00000105737,ENSG00000136842,ENSG00000126368,ENSG00000072954,ENSG00000157103,ENSG00000136999,ENSG00000135744,ENSG00000160460,ENSG00000106236,ENSG00000131831,ENSG00000181722,ENSG00000170477,ENSG00000196139,ENSG00000165795,ENSG00000155962,ENSG00000067141,ENSG00000078018,ENSG00000186340,ENSG00000122679,ENSG00000036448,ENSG00000140538,ENSG00000128606,ENSG00000164742,ENSG00000157150,ENSG00000221890,ENSG00000099998,ENSG00000101938,ENSG00000081052,ENSG00000169031,ENSG00000113248,ENSG00000165197,ENSG00000185010,ENSG00000168309,ENSG00000151892",2
14wk,GO:BP,GO:0007399,nervous system development,2411,112,31,0.276785714285714,0.0128577353795106,0.0192182086949923,"ENSG00000186462,ENSG00000009694,ENSG00000123560,ENSG00000160307,ENSG00000131095,ENSG00000077943,ENSG00000184226,ENSG00000130558,ENSG00000134121,ENSG00000166780,ENSG00000006210,ENSG00000189056,ENSG00000109906,ENSG00000137941,ENSG00000132970,ENSG00000109819,ENSG00000163884,ENSG00000126368,ENSG00000135744,ENSG00000160460,ENSG00000165795,ENSG00000067141,ENSG00000078018,ENSG00000186340,ENSG00000140538,ENSG00000164742,ENSG00000157150,ENSG00000101938,ENSG00000113248,ENSG00000165197,ENSG00000151892",5
14wk,GO:BP,GO:0003008,system process,2203,112,27,0.241071428571429,0.0122560145256468,0.035674613272297,"ENSG00000092054,ENSG00000198125,ENSG00000160307,ENSG00000176463,ENSG00000189056,ENSG00000132970,ENSG00000109819,ENSG00000163884,ENSG00000196136,ENSG00000171385,ENSG00000143632,ENSG00000105737,ENSG00000136842,ENSG00000072954,ENSG00000157103,ENSG00000136999,ENSG00000135744,ENSG00000160460,ENSG00000106236,ENSG00000196139,ENSG00000155962,ENSG00000122679,ENSG00000036448,ENSG00000164742,ENSG00000221890,ENSG00000169031,ENSG00000168309",3
14wk,GO:BP,GO:0099177,regulation of trans-synaptic signaling,428,112,10,0.0892857142857143,0.0233644859813084,0.035674613272297,"ENSG00000131095,ENSG00000006210,ENSG00000189056,ENSG00000105737,ENSG00000157103,ENSG00000135744,ENSG00000106236,ENSG00000164742,ENSG00000221890,ENSG00000168309",4
14wk,GO:BP,GO:0098916,anterograde trans-synaptic signaling,702,112,13,0.116071428571429,0.0185185185185185,0.035674613272297,"ENSG00000123560,ENSG00000131095,ENSG00000139910,ENSG00000006210,ENSG00000189056,ENSG00000105737,ENSG00000166405,ENSG00000157103,ENSG00000135744,ENSG00000106236,ENSG00000164742,ENSG00000221890,ENSG00000168309",6
14wk,GO:BP,GO:0065008,regulation of biological quality,4013,112,40,0.357142857142857,0.0099676052828308,0.035674613272297,"ENSG00000009694,ENSG00000092054,ENSG00000089472,ENSG00000131095,ENSG00000130558,ENSG00000196616,ENSG00000170011,ENSG00000135424,ENSG00000139910,ENSG00000006210,ENSG00000189056,ENSG00000164035,ENSG00000163631,ENSG00000132970,ENSG00000277494,ENSG00000109819,ENSG00000163884,ENSG00000196136,ENSG00000171385,ENSG00000105737,ENSG00000136842,ENSG00000126368,ENSG00000072954,ENSG00000166405,ENSG00000157103,ENSG00000136999,ENSG00000135744,ENSG00000160460,ENSG00000181722,ENSG00000196139,ENSG00000155962,ENSG00000067141,ENSG00000078018,ENSG00000186340,ENSG00000122679,ENSG00000140538,ENSG00000172346,ENSG00000164742,ENSG00000185010,ENSG00000168309",3
14wk,GO:BP,GO:0050804,modulation of chemical synaptic transmission,427,112,10,0.0892857142857143,0.0234192037470726,0.035674613272297,"ENSG00000131095,ENSG00000006210,ENSG00000189056,ENSG00000105737,ENSG00000157103,ENSG00000135744,ENSG00000106236,ENSG00000164742,ENSG00000221890,ENSG00000168309",5
14wk,GO:BP,GO:0048731,system development,4862,112,47,0.419642857142857,0.00966680378445084,0.035674613272297,"ENSG00000186462,ENSG00000009694,ENSG00000092054,ENSG00000123560,ENSG00000186081,ENSG00000160307,ENSG00000131095,ENSG00000077943,ENSG00000184226,ENSG00000130558,ENSG00000134121,ENSG00000166780,ENSG00000135424,ENSG00000006210,ENSG00000189056,ENSG00000109906,ENSG00000164035,ENSG00000171401,ENSG00000109472,ENSG00000137941,ENSG00000132970,ENSG00000109819,ENSG00000163884,ENSG00000143632,ENSG00000136842,ENSG00000126368,ENSG00000136999,ENSG00000135744,ENSG00000160460,ENSG00000170477,ENSG00000196139,ENSG00000165795,ENSG00000067141,ENSG00000078018,ENSG00000186340,ENSG00000122679,ENSG00000036448,ENSG00000140538,ENSG00000128606,ENSG00000164742,ENSG00000157150,ENSG00000101938,ENSG00000081052,ENSG00000169031,ENSG00000113248,ENSG00000165197,ENSG00000151892",4
14wk,GO:BP,GO:0042063,gliogenesis,294,112,9,0.0803571428571429,0.0306122448979592,0.035674613272297,"ENSG00000123560,ENSG00000131095,ENSG00000166780,ENSG00000006210,ENSG00000189056,ENSG00000132970,ENSG00000163884,ENSG00000126368,ENSG00000140538",6
14wk,GO:BP,GO:0031644,regulation of nervous system process,145,112,6,0.0535714285714286,0.0413793103448276,0.035674613272297,"ENSG00000189056,ENSG00000132970,ENSG00000136999,ENSG00000135744,ENSG00000106236,ENSG00000221890",5
14wk,GO:BP,GO:0031444,slow-twitch skeletal muscle fiber contraction,4,112,2,0.0178571428571429,0.5,0.035674613272297,"ENSG00000092054,ENSG00000198125",8
14wk,GO:BP,GO:0044057,regulation of system process,590,112,12,0.107142857142857,0.0203389830508475,0.035674613272297,"ENSG00000092054,ENSG00000189056,ENSG00000132970,ENSG00000109819,ENSG00000171385,ENSG00000072954,ENSG00000136999,ENSG00000135744,ENSG00000160460,ENSG00000106236,ENSG00000155962,ENSG00000221890",4
14wk,GO:BP,GO:0003012,muscle system process,437,112,11,0.0982142857142857,0.0251716247139588,0.035674613272297,"ENSG00000092054,ENSG00000198125,ENSG00000109819,ENSG00000163884,ENSG00000171385,ENSG00000143632,ENSG00000136842,ENSG00000072954,ENSG00000135744,ENSG00000155962,ENSG00000036448",4
14wk,GO:BP,GO:0007417,central nervous system development,1018,112,17,0.151785714285714,0.0166994106090373,0.035674613272297,"ENSG00000123560,ENSG00000160307,ENSG00000131095,ENSG00000077943,ENSG00000184226,ENSG00000166780,ENSG00000189056,ENSG00000109906,ENSG00000132970,ENSG00000109819,ENSG00000126368,ENSG00000160460,ENSG00000165795,ENSG00000078018,ENSG00000140538,ENSG00000164742,ENSG00000157150",5
14wk,GO:BP,GO:0014888,striated muscle adaptation,44,112,4,0.0357142857142857,0.0909090909090909,0.035674613272297,"ENSG00000092054,ENSG00000109819,ENSG00000163884,ENSG00000143632",4
14wk,GO:BP,GO:0006936,muscle contraction,352,112,9,0.0803571428571429,0.0255681818181818,0.035674613272297,"ENSG00000092054,ENSG00000198125,ENSG00000171385,ENSG00000143632,ENSG00000136842,ENSG00000072954,ENSG00000135744,ENSG00000155962,ENSG00000036448",5
14wk,GO:BP,GO:0007268,chemical synaptic transmission,702,112,13,0.116071428571429,0.0185185185185185,0.035674613272297,"ENSG00000123560,ENSG00000131095,ENSG00000139910,ENSG00000006210,ENSG00000189056,ENSG00000105737,ENSG00000166405,ENSG00000157103,ENSG00000135744,ENSG00000106236,ENSG00000164742,ENSG00000221890,ENSG00000168309",7
14wk,GO:BP,GO:0007275,multicellular organism development,5412,112,50,0.446428571428571,0.00923872875092387,0.035674613272297,"ENSG00000186462,ENSG00000009694,ENSG00000092054,ENSG00000123560,ENSG00000186081,ENSG00000160307,ENSG00000131095,ENSG00000077943,ENSG00000184226,ENSG00000130558,ENSG00000134121,ENSG00000166780,ENSG00000135424,ENSG00000006210,ENSG00000189056,ENSG00000109906,ENSG00000164035,ENSG00000171401,ENSG00000109472,ENSG00000122574,ENSG00000137941,ENSG00000132970,ENSG00000109819,ENSG00000163884,ENSG00000158050,ENSG00000143632,ENSG00000136842,ENSG00000126368,ENSG00000136999,ENSG00000135744,ENSG00000160460,ENSG00000131831,ENSG00000170477,ENSG00000196139,ENSG00000165795,ENSG00000067141,ENSG00000078018,ENSG00000186340,ENSG00000122679,ENSG00000036448,ENSG00000140538,ENSG00000128606,ENSG00000164742,ENSG00000157150,ENSG00000101938,ENSG00000081052,ENSG00000169031,ENSG00000113248,ENSG00000165197,ENSG00000151892",3
14wk,GO:BP,GO:0099537,trans-synaptic signaling,710,112,13,0.116071428571429,0.0183098591549296,0.0377126009127651,"ENSG00000123560,ENSG00000131095,ENSG00000139910,ENSG00000006210,ENSG00000189056,ENSG00000105737,ENSG00000166405,ENSG00000157103,ENSG00000135744,ENSG00000106236,ENSG00000164742,ENSG00000221890,ENSG00000168309",5
14wk,GO:BP,GO:0010001,glial cell differentiation,217,112,7,0.0625,0.032258064516129,0.039741651601136,"ENSG00000123560,ENSG00000131095,ENSG00000189056,ENSG00000132970,ENSG00000163884,ENSG00000126368,ENSG00000140538",5
14wk,GO:BP,GO:0099536,synaptic signaling,734,112,13,0.116071428571429,0.0177111716621253,0.0469385382577654,"ENSG00000123560,ENSG00000131095,ENSG00000139910,ENSG00000006210,ENSG00000189056,ENSG00000105737,ENSG00000166405,ENSG00000157103,ENSG00000135744,ENSG00000106236,ENSG00000164742,ENSG00000221890,ENSG00000168309",4
14wk,GO:BP,GO:0043500,muscle adaptation,105,112,5,0.0446428571428571,0.0476190476190476,0.0475670179555026,"ENSG00000092054,ENSG00000109819,ENSG00000163884,ENSG00000143632,ENSG00000135744",3
14wk,GO:BP,GO:0043501,skeletal muscle adaptation,25,112,3,0.0267857142857143,0.12,0.0489298558361251,"ENSG00000092054,ENSG00000109819,ENSG00000143632",5
14wk,GO:CC,GO:0044297,cell body,589,112,16,0.142857142857143,0.0271646859083192,0.000104424428989709,"ENSG00000131095,ENSG00000077943,ENSG00000130558,ENSG00000006210,ENSG00000137941,ENSG00000109819,ENSG00000171385,ENSG00000143632,ENSG00000105737,ENSG00000166405,ENSG00000157103,ENSG00000136999,ENSG00000160460,ENSG00000163864,ENSG00000143603,ENSG00000078018",3
14wk,GO:CC,GO:0043025,neuronal cell body,516,112,14,0.125,0.0271317829457364,0.000307935453346588,"ENSG00000077943,ENSG00000130558,ENSG00000006210,ENSG00000137941,ENSG00000109819,ENSG00000171385,ENSG00000105737,ENSG00000166405,ENSG00000157103,ENSG00000136999,ENSG00000160460,ENSG00000163864,ENSG00000143603,ENSG00000078018",4
14wk,GO:CC,GO:0043005,neuron projection,1371,112,23,0.205357142857143,0.0167760758570387,0.000391060829775388,"ENSG00000009694,ENSG00000077943,ENSG00000184226,ENSG00000130558,ENSG00000170011,ENSG00000006210,ENSG00000189056,ENSG00000137941,ENSG00000109819,ENSG00000171385,ENSG00000105737,ENSG00000126368,ENSG00000166405,ENSG00000157103,ENSG00000136999,ENSG00000160460,ENSG00000163864,ENSG00000165795,ENSG00000143603,ENSG00000078018,ENSG00000140538,ENSG00000113248,ENSG00000168309",4
14wk,GO:CC,GO:0120025,plasma membrane bounded cell projection,2214,112,29,0.258928571428571,0.0130984643179765,0.00165107941807507,"ENSG00000009694,ENSG00000160307,ENSG00000131095,ENSG00000077943,ENSG00000184226,ENSG00000130558,ENSG00000170011,ENSG00000006210,ENSG00000189056,ENSG00000137941,ENSG00000132970,ENSG00000109819,ENSG00000183833,ENSG00000171385,ENSG00000143632,ENSG00000105737,ENSG00000126368,ENSG00000166405,ENSG00000157103,ENSG00000136999,ENSG00000160460,ENSG00000163864,ENSG00000165795,ENSG00000143603,ENSG00000205795,ENSG00000078018,ENSG00000140538,ENSG00000113248,ENSG00000168309",4
14wk,GO:CC,GO:0036477,somatodendritic compartment,868,112,16,0.142857142857143,0.0184331797235023,0.00188207497100165,"ENSG00000077943,ENSG00000130558,ENSG00000006210,ENSG00000189056,ENSG00000137941,ENSG00000109819,ENSG00000171385,ENSG00000105737,ENSG00000126368,ENSG00000166405,ENSG00000157103,ENSG00000136999,ENSG00000160460,ENSG00000163864,ENSG00000143603,ENSG00000078018",4
14wk,GO:CC,GO:0042995,cell projection,2314,112,29,0.258928571428571,0.0125324114088159,0.00188207497100165,"ENSG00000009694,ENSG00000160307,ENSG00000131095,ENSG00000077943,ENSG00000184226,ENSG00000130558,ENSG00000170011,ENSG00000006210,ENSG00000189056,ENSG00000137941,ENSG00000132970,ENSG00000109819,ENSG00000183833,ENSG00000171385,ENSG00000143632,ENSG00000105737,ENSG00000126368,ENSG00000166405,ENSG00000157103,ENSG00000136999,ENSG00000160460,ENSG00000163864,ENSG00000165795,ENSG00000143603,ENSG00000205795,ENSG00000078018,ENSG00000140538,ENSG00000113248,ENSG00000168309",3
14wk,GO:CC,GO:0008305,integrin complex,31,112,4,0.0357142857142857,0.129032258064516,0.00188207497100165,"ENSG00000123560,ENSG00000077943,ENSG00000135424,ENSG00000143127",4
14wk,GO:CC,GO:0072562,blood microparticle,109,112,6,0.0535714285714286,0.055045871559633,0.00188207497100165,"ENSG00000204983,ENSG00000163631,ENSG00000196136,ENSG00000143632,ENSG00000135744,ENSG00000000971",3
14wk,GO:CC,GO:0098636,protein complex involved in cell adhesion,36,112,4,0.0357142857142857,0.111111111111111,0.00203171983258073,"ENSG00000123560,ENSG00000077943,ENSG00000135424,ENSG00000143127",3
14wk,GO:CC,GO:0031091,platelet alpha granule,90,112,5,0.0446428571428571,0.0555555555555556,0.00598650741051498,"ENSG00000163631,ENSG00000196136,ENSG00000186340,ENSG00000165197,ENSG00000185010",5
14wk,GO:CC,GO:0030312,external encapsulating structure,562,112,11,0.0982142857142857,0.0195729537366548,0.0113146449237165,"ENSG00000204983,ENSG00000275896,ENSG00000189056,ENSG00000196136,ENSG00000136999,ENSG00000135744,ENSG00000186340,ENSG00000128606,ENSG00000157150,ENSG00000081052,ENSG00000169031",3
14wk,GO:CC,GO:0031012,extracellular matrix,561,112,11,0.0982142857142857,0.0196078431372549,0.0113146449237165,"ENSG00000204983,ENSG00000275896,ENSG00000189056,ENSG00000196136,ENSG00000136999,ENSG00000135744,ENSG00000186340,ENSG00000128606,ENSG00000157150,ENSG00000081052,ENSG00000169031",3
14wk,GO:CC,GO:0071944,cell periphery,5794,112,51,0.455357142857143,0.00880220918191233,0.0113146449237165,"ENSG00000204983,ENSG00000275896,ENSG00000009694,ENSG00000123560,ENSG00000089472,ENSG00000077943,ENSG00000176463,ENSG00000108551,ENSG00000184226,ENSG00000196616,ENSG00000134121,ENSG00000119138,ENSG00000165810,ENSG00000170011,ENSG00000135424,ENSG00000006210,ENSG00000189056,ENSG00000109906,ENSG00000164035,ENSG00000109472,ENSG00000277494,ENSG00000147027,ENSG00000067840,ENSG00000196136,ENSG00000171385,ENSG00000105737,ENSG00000136842,ENSG00000157103,ENSG00000136999,ENSG00000135744,ENSG00000160460,ENSG00000143127,ENSG00000155962,ENSG00000143603,ENSG00000067141,ENSG00000205795,ENSG00000186340,ENSG00000122679,ENSG00000140538,ENSG00000143248,ENSG00000128606,ENSG00000164742,ENSG00000157150,ENSG00000099998,ENSG00000081052,ENSG00000169031,ENSG00000113248,ENSG00000185010,ENSG00000168309,ENSG00000167676,ENSG00000151892",3
14wk,GO:CC,GO:0099081,supramolecular polymer,983,112,15,0.133928571428571,0.0152594099694812,0.0115022237220046,"ENSG00000092054,ENSG00000186081,ENSG00000131095,ENSG00000171401,ENSG00000122574,ENSG00000137941,ENSG00000143632,ENSG00000136842,ENSG00000160460,ENSG00000170477,ENSG00000078018,ENSG00000036448,ENSG00000157150,ENSG00000081052,ENSG00000169031",3
14wk,GO:CC,GO:0099055,integral component of postsynaptic membrane,116,112,5,0.0446428571428571,0.0431034482758621,0.0115022237220046,"ENSG00000171385,ENSG00000105737,ENSG00000157103,ENSG00000140538,ENSG00000164742",5
14wk,GO:CC,GO:0005576,extracellular region,4032,112,39,0.348214285714286,0.00967261904761905,0.0115022237220046,"ENSG00000204983,ENSG00000275896,ENSG00000009694,ENSG00000198125,ENSG00000186081,ENSG00000144908,ENSG00000160307,ENSG00000130558,ENSG00000134201,ENSG00000134121,ENSG00000006210,ENSG00000189056,ENSG00000164035,ENSG00000163631,ENSG00000171401,ENSG00000104879,ENSG00000109472,ENSG00000132970,ENSG00000277494,ENSG00000196136,ENSG00000143632,ENSG00000072954,ENSG00000136999,ENSG00000135744,ENSG00000160460,ENSG00000106236,ENSG00000000971,ENSG00000196139,ENSG00000165795,ENSG00000186340,ENSG00000128606,ENSG00000164742,ENSG00000157150,ENSG00000101938,ENSG00000081052,ENSG00000169031,ENSG00000165197,ENSG00000185010,ENSG00000151892",2
14wk,GO:CC,GO:0031093,platelet alpha granule lumen,66,112,4,0.0357142857142857,0.0606060606060606,0.0115022237220046,"ENSG00000163631,ENSG00000196136,ENSG00000165197,ENSG00000185010",6
14wk,GO:CC,GO:0098802,plasma membrane signaling receptor complex,180,112,6,0.0535714285714286,0.0333333333333333,0.0119001541948874,"ENSG00000123560,ENSG00000077943,ENSG00000135424,ENSG00000105737,ENSG00000143127,ENSG00000122679",4
14wk,GO:CC,GO:0005587,collagen type IV trimer,7,112,2,0.0178571428571429,0.285714285714286,0.0119001541948874,"ENSG00000081052,ENSG00000169031",5
14wk,GO:CC,GO:0098936,intrinsic component of postsynaptic membrane,122,112,5,0.0446428571428571,0.040983606557377,0.0121772195187633,"ENSG00000171385,ENSG00000105737,ENSG00000157103,ENSG00000140538,ENSG00000164742",4
14wk,GO:CC,GO:0043203,axon hillock,8,112,2,0.0178571428571429,0.25,0.0130573491177584,"ENSG00000160460,ENSG00000078018",5
14wk,GO:CC,GO:0098642,network-forming collagen trimer,8,112,2,0.0178571428571429,0.25,0.0130573491177584,"ENSG00000081052,ENSG00000169031",4
14wk,GO:CC,GO:0098645,collagen network,8,112,2,0.0178571428571429,0.25,0.0130573491177584,"ENSG00000081052,ENSG00000169031",4
14wk,GO:CC,GO:0098651,basement membrane collagen trimer,9,112,2,0.0178571428571429,0.222222222222222,0.0160270925914668,"ENSG00000081052,ENSG00000169031",4
14wk,GO:CC,GO:0005615,extracellular space,3109,112,31,0.276785714285714,0.00997105178513992,0.0192304752250324,"ENSG00000204983,ENSG00000275896,ENSG00000198125,ENSG00000186081,ENSG00000144908,ENSG00000160307,ENSG00000130558,ENSG00000134121,ENSG00000006210,ENSG00000189056,ENSG00000163631,ENSG00000171401,ENSG00000104879,ENSG00000109472,ENSG00000132970,ENSG00000196136,ENSG00000143632,ENSG00000072954,ENSG00000135744,ENSG00000160460,ENSG00000000971,ENSG00000196139,ENSG00000165795,ENSG00000128606,ENSG00000164742,ENSG00000157150,ENSG00000081052,ENSG00000169031,ENSG00000165197,ENSG00000185010,ENSG00000151892",3
14wk,GO:CC,GO:0099699,integral component of synaptic membrane,147,112,5,0.0446428571428571,0.0340136054421769,0.0215065650720957,"ENSG00000171385,ENSG00000105737,ENSG00000157103,ENSG00000140538,ENSG00000164742",4
14wk,GO:CC,GO:0043235,receptor complex,400,112,8,0.0714285714285714,0.02,0.0290930462068968,"ENSG00000123560,ENSG00000077943,ENSG00000135424,ENSG00000105737,ENSG00000143127,ENSG00000122679,ENSG00000140538,ENSG00000151892",3
14wk,GO:CC,GO:0099240,intrinsic component of synaptic membrane,161,112,5,0.0446428571428571,0.031055900621118,0.0296894854107794,"ENSG00000171385,ENSG00000105737,ENSG00000157103,ENSG00000140538,ENSG00000164742",3
14wk,GO:CC,GO:0043194,axon initial segment,16,112,2,0.0178571428571429,0.125,0.0430465339579954,"ENSG00000160460,ENSG00000078018",5
14wk,GO:CC,GO:0099512,supramolecular fiber,975,112,13,0.116071428571429,0.0133333333333333,0.048146359672735,"ENSG00000092054,ENSG00000186081,ENSG00000131095,ENSG00000171401,ENSG00000122574,ENSG00000137941,ENSG00000143632,ENSG00000136842,ENSG00000160460,ENSG00000170477,ENSG00000078018,ENSG00000036448,ENSG00000157150",4
14wk,GO:CC,GO:0030424,axon,655,112,10,0.0892857142857143,0.0152671755725191,0.048146359672735,"ENSG00000184226,ENSG00000130558,ENSG00000105737,ENSG00000157103,ENSG00000136999,ENSG00000160460,ENSG00000163864,ENSG00000165795,ENSG00000078018,ENSG00000140538",5
14wk,GO:CC,GO:0005884,actin filament,117,112,4,0.0357142857142857,0.0341880341880342,0.048146359672735,"ENSG00000122574,ENSG00000143632,ENSG00000136842,ENSG00000160460",6
14wk,GO:CC,GO:0097440,apical dendrite,18,112,2,0.0178571428571429,0.111111111111111,0.048146359672735,"ENSG00000109819,ENSG00000078018",6
14wk,GO:CC,GO:0045202,synapse,1343,112,16,0.142857142857143,0.0119136262099777,0.048146359672735,"ENSG00000123560,ENSG00000077943,ENSG00000130558,ENSG00000170011,ENSG00000139910,ENSG00000132970,ENSG00000171385,ENSG00000105737,ENSG00000126368,ENSG00000166405,ENSG00000157103,ENSG00000106236,ENSG00000140538,ENSG00000164742,ENSG00000221890,ENSG00000168309",2
14wk,GO:CC,GO:1990844,interfibrillar mitochondrion,1,112,1,0.00892857142857143,1,0.0498458799676911,ENSG00000109819,6
14wk,GO:CC,GO:0150014,apical distal dendrite,1,112,1,0.00892857142857143,1,0.0498458799676911,ENSG00000078018,7
14wk,GO:CC,GO:0034423,autophagosome lumen,1,112,1,0.00892857142857143,1,0.0498458799676911,ENSG00000035664,6
14wk,GO:CC,GO:1990843,subsarcolemmal mitochondrion,1,112,1,0.00892857142857143,1,0.0498458799676911,ENSG00000109819,6
14wk,KEGG,KEGG:04512,ECM-receptor interaction,87,112,7,0.0625,0.0804597701149425,0.000109039139911677,"ENSG00000077943,ENSG00000135424,ENSG00000189056,ENSG00000143127,ENSG00000186340,ENSG00000081052,ENSG00000169031",100
14wk,KEGG,KEGG:05414,Dilated cardiomyopathy,95,112,6,0.0535714285714286,0.0631578947368421,0.00109139093650854,"ENSG00000092054,ENSG00000077943,ENSG00000135424,ENSG00000135744,ENSG00000143127,ENSG00000164742",100
14wk,KEGG,KEGG:04510,Focal adhesion,200,112,8,0.0714285714285714,0.04,0.00109139093650854,"ENSG00000077943,ENSG00000135424,ENSG00000189056,ENSG00000143127,ENSG00000186340,ENSG00000081052,ENSG00000169031,ENSG00000165197",100
14wk,KEGG,KEGG:05410,Hypertrophic cardiomyopathy,90,112,5,0.0446428571428571,0.0555555555555556,0.00655929052695314,"ENSG00000092054,ENSG00000077943,ENSG00000135424,ENSG00000135744,ENSG00000143127",100
14wk,KEGG,KEGG:04151,PI3K-Akt signaling pathway,352,112,8,0.0714285714285714,0.0227272727272727,0.0308673734297933,"ENSG00000077943,ENSG00000135424,ENSG00000189056,ENSG00000143127,ENSG00000186340,ENSG00000081052,ENSG00000169031,ENSG00000165197",100
14wk,REAC,REAC:R-HSA-216083,Integrin cell surface interactions,83,112,5,0.0446428571428571,0.0602409638554217,0.0400952745557238,"ENSG00000077943,ENSG00000135424,ENSG00000143127,ENSG00000081052,ENSG00000169031",100
14wk,WP,WP:WP306,Focal Adhesion,197,112,7,0.0625,0.0355329949238579,0.0179932182202657,"ENSG00000077943,ENSG00000135424,ENSG00000189056,ENSG00000143127,ENSG00000186340,ENSG00000081052,ENSG00000165197",100
14wk,WP,WP:WP3932,Focal Adhesion-PI3K-Akt-mTOR-signaling pathway,303,112,8,0.0714285714285714,0.0264026402640264,0.0231174570898522,"ENSG00000077943,ENSG00000135424,ENSG00000189056,ENSG00000109819,ENSG00000143127,ENSG00000186340,ENSG00000081052,ENSG00000165197",100
14wk,WP,WP:WP4172,PI3K-Akt Signaling Pathway,339,112,8,0.0714285714285714,0.0235988200589971,0.0321471822261099,"ENSG00000077943,ENSG00000135424,ENSG00000189056,ENSG00000143127,ENSG00000186340,ENSG00000081052,ENSG00000169031,ENSG00000165197",100
term,GO:BP,GO:0070125,mitochondrial translational elongation,87,760,14,0.0184210526315789,0.160919540229885,0.0253228174034431,"ENSG00000182154,ENSG00000179271,ENSG00000204316,ENSG00000105364,ENSG00000175756,ENSG00000074071,ENSG00000162910,ENSG00000062582,ENSG00000086504,ENSG00000125901,ENSG00000262814,ENSG00000172590,ENSG00000130312,ENSG00000128626",7
term,GO:BP,GO:0070126,mitochondrial translational termination,88,760,14,0.0184210526315789,0.159090909090909,0.0253228174034431,"ENSG00000182154,ENSG00000179271,ENSG00000204316,ENSG00000105364,ENSG00000175756,ENSG00000074071,ENSG00000162910,ENSG00000062582,ENSG00000086504,ENSG00000125901,ENSG00000262814,ENSG00000172590,ENSG00000130312,ENSG00000128626",8
term,GO:CC,GO:0005622,intracellular anatomical structure,14404,760,623,0.819736842105263,0.0432518744793113,0.0012222275867398,"ENSG00000275896,ENSG00000172346,ENSG00000092054,ENSG00000141933,ENSG00000139910,ENSG00000175602,ENSG00000186462,ENSG00000089472,ENSG00000104879,ENSG00000198125,ENSG00000173272,ENSG00000186081,ENSG00000203772,ENSG00000103056,ENSG00000188747,ENSG00000107872,ENSG00000182195,ENSG00000152082,ENSG00000108551,ENSG00000212864,ENSG00000009950,ENSG00000067840,ENSG00000205795,ENSG00000179588,ENSG00000166780,ENSG00000105737,ENSG00000182154,ENSG00000103254,ENSG00000160460,ENSG00000003249,ENSG00000129968,ENSG00000169203,ENSG00000144908,ENSG00000167676,ENSG00000131095,ENSG00000115138,ENSG00000128185,ENSG00000218891,ENSG00000151892,ENSG00000134201,ENSG00000168993,ENSG00000167779,ENSG00000143632,ENSG00000130558,ENSG00000167136,ENSG00000167701,ENSG00000125652,ENSG00000103024,ENSG00000188290,ENSG00000163959,ENSG00000158050,ENSG00000127415,ENSG00000099624,ENSG00000163631,ENSG00000161677,ENSG00000163864,ENSG00000144485,ENSG00000063241,ENSG00000183793,ENSG00000008710,ENSG00000159733,ENSG00000127418,ENSG00000250571,ENSG00000101938,ENSG00000170477,ENSG00000184343,ENSG00000183426,ENSG00000004777,ENSG00000175264,ENSG00000160307,ENSG00000105649,ENSG00000165802,ENSG00000166165,ENSG00000165804,ENSG00000130653,ENSG00000177374,ENSG00000101460,ENSG00000115286,ENSG00000101400,ENSG00000172348,ENSG00000125648,ENSG00000148832,ENSG00000280071,ENSG00000174917,ENSG00000187193,ENSG00000106330,ENSG00000181029,ENSG00000213221,ENSG00000130758,ENSG00000176978,ENSG00000177706,ENSG00000198064,ENSG00000132970,ENSG00000173581,ENSG00000197530,ENSG00000221843,ENSG00000171401,ENSG00000171045,ENSG00000149294,ENSG00000198832,ENSG00000242612,ENSG00000162572,ENSG00000171222,ENSG00000261221,ENSG00000087258,ENSG00000132840,ENSG00000229809,ENSG00000070423,ENSG00000132879,ENSG00000198816,ENSG00000132481,ENSG00000169733,ENSG00000167508,ENSG00000189056,ENSG00000233954,ENSG00000073169,ENSG00000103266,ENSG00000142409,ENSG00000125656,ENSG00000009694,ENSG00000165152,ENSG00000109819,ENSG00000243477,ENSG00000130005,ENSG00000166819,ENSG00000109736,ENSG00000163995,ENSG00000135744,ENSG00000135929,ENSG00000177595,ENSG00000145214,ENSG00000158106,ENSG00000183889,ENSG00000196136,ENSG00000106009,ENSG00000109107,ENSG00000261236,ENSG00000164877,ENSG00000115226,ENSG00000133265,ENSG00000162585,ENSG00000158716,ENSG00000078814,ENSG00000136999,ENSG00000183655,ENSG00000105516,ENSG00000277972,ENSG00000205309,ENSG00000160221,ENSG00000167526,ENSG00000099821,ENSG00000111275,ENSG00000215375,ENSG00000125520,ENSG00000005379,ENSG00000112667,ENSG00000197483,ENSG00000126215,ENSG00000178814,ENSG00000187051,ENSG00000095906,ENSG00000181638,ENSG00000116649,ENSG00000104524,ENSG00000203883,ENSG00000214456,ENSG00000179526,ENSG00000180113,ENSG00000122490,ENSG00000088826,ENSG00000103227,ENSG00000204172,ENSG00000254206,ENSG00000108557,ENSG00000128298,ENSG00000007541,ENSG00000149922,ENSG00000130511,ENSG00000184967,ENSG00000135144,ENSG00000228300,ENSG00000065268,ENSG00000099904,ENSG00000170011,ENSG00000159069,ENSG00000101439,ENSG00000243708,ENSG00000108479,ENSG00000058453,ENSG00000145945,ENSG00000107331,ENSG00000099840,ENSG00000160226,ENSG00000131730,ENSG00000166166,ENSG00000160323,ENSG00000090097,ENSG00000110717,ENSG00000179271,ENSG00000248487,ENSG00000100258,ENSG00000184897,ENSG00000187961,ENSG00000107404,ENSG00000141577,ENSG00000154277,ENSG00000141905,ENSG00000187134,ENSG00000126368,ENSG00000105245,ENSG00000100726,ENSG00000144712,ENSG00000132819,ENSG00000185189,ENSG00000213339,ENSG00000171962,ENSG00000151632,ENSG00000105426,ENSG00000204536,ENSG00000129932,ENSG00000174516,ENSG00000105701,ENSG00000122574,ENSG00000144647,ENSG00000174177,ENSG00000178026,ENSG00000106992,ENSG00000167967,ENSG00000133250,ENSG00000167996,ENSG00000099795,ENSG00000148384,ENSG00000179085,ENSG00000158717,ENSG00000185504,ENSG00000103152,ENSG00000091656,ENSG00000242802,ENSG00000121653,ENSG00000168096,ENSG00000007520,ENSG00000168765,ENSG00000140263,ENSG00000125458,ENSG00000127586,ENSG00000103326,ENSG00000105404,ENSG00000181035,ENSG00000085644,ENSG00000133275,ENSG00000102981,ENSG00000141504,ENSG00000127445,ENSG00000133243,ENSG00000239474,ENSG00000131697,ENSG00000162526,ENSG00000170604,ENSG00000148343,ENSG00000111674,ENSG00000139190,ENSG00000103202,ENSG00000183751,ENSG00000174791,ENSG00000165197,ENSG00000063245,ENSG00000103145,ENSG00000132382,ENSG00000167671,ENSG00000134780,ENSG00000126934,ENSG00000172508,ENSG00000079432,ENSG00000169660,ENSG00000125912,ENSG00000172663,ENSG00000074855,ENSG00000205138,ENSG00000179965,ENSG00000124074,ENSG00000184436,ENSG00000184985,ENSG00000108106,ENSG00000138834,ENSG00000004776,ENSG00000215440,ENSG00000140691,ENSG00000169918,ENSG00000083807,ENSG00000197785,ENSG00000167969,ENSG00000184205,ENSG00000176715,ENSG00000132330,ENSG00000160326,ENSG00000133315,ENSG00000065057,ENSG00000213999,ENSG00000171130,ENSG00000130304,ENSG00000204316,ENSG00000112139,ENSG00000065054,ENSG00000169031,ENSG00000099326,ENSG00000204149,ENSG00000169738,ENSG00000179954,ENSG00000198720,ENSG00000233276,ENSG00000142920,ENSG00000161036,ENSG00000213347,ENSG00000105364,ENSG00000089486,ENSG00000178057,ENSG00000127419,ENSG00000175756,ENSG00000136840,ENSG00000141971,ENSG00000258315,ENSG00000133027,ENSG00000068137,ENSG00000115268,ENSG00000072954,ENSG00000122515,ENSG00000077943,ENSG00000187954,ENSG00000149823,ENSG00000179364,ENSG00000178605,ENSG00000143412,ENSG00000100304,ENSG00000181409,ENSG00000161914,ENSG00000175221,ENSG00000107130,ENSG00000224877,ENSG00000160072,ENSG00000123360,ENSG00000198546,ENSG00000011451,ENSG00000164077,ENSG00000074071,ENSG00000162910,ENSG00000169972,ENSG00000185507,ENSG00000115556,ENSG00000092529,ENSG00000162413,ENSG00000204498,ENSG00000157214,ENSG00000156990,ENSG00000100300,ENSG00000005075,ENSG00000136877,ENSG00000163884,ENSG00000114631,ENSG00000203950,ENSG00000185163,ENSG00000128602,ENSG00000062582,ENSG00000180900,ENSG00000247596,ENSG00000185883,ENSG00000215252,ENSG00000104976,ENSG00000102878,ENSG00000224051,ENSG00000186340,ENSG00000196498,ENSG00000149328,ENSG00000182325,ENSG00000069424,ENSG00000130159,ENSG00000139405,ENSG00000172922,ENSG00000007047,ENSG00000105373,ENSG00000165233,ENSG00000185122,ENSG00000123815,ENSG00000185340,ENSG00000130649,ENSG00000186364,ENSG00000167397,ENSG00000267673,ENSG00000184990,ENSG00000143774,ENSG00000205593,ENSG00000220201,ENSG00000124104,ENSG00000005206,ENSG00000205364,ENSG00000139637,ENSG00000205307,ENSG00000123358,ENSG00000167074,ENSG00000140474,ENSG00000179094,ENSG00000105738,ENSG00000185000,ENSG00000169727,ENSG00000148357,ENSG00000159335,ENSG00000167733,ENSG00000123933,ENSG00000167685,ENSG00000121410,ENSG00000168159,ENSG00000179886,ENSG00000168874,ENSG00000129158,ENSG00000198931,ENSG00000180089,ENSG00000122386,ENSG00000143819,ENSG00000176182,ENSG00000126249,ENSG00000105298,ENSG00000161544,ENSG00000103148,ENSG00000129946,ENSG00000100626,ENSG00000160256,ENSG00000149260,ENSG00000126464,ENSG00000099785,ENSG00000196976,ENSG00000169683,ENSG00000137877,ENSG00000161558,ENSG00000115694,ENSG00000108773,ENSG00000132361,ENSG00000188157,ENSG00000196372,ENSG00000083838,ENSG00000059915,ENSG00000119574,ENSG00000244731,ENSG00000021300,ENSG00000141258,ENSG00000011132,ENSG00000142330,ENSG00000148291,ENSG00000127580,ENSG00000160948,ENSG00000108641,ENSG00000086504,ENSG00000196456,ENSG00000099814,ENSG00000102977,ENSG00000211450,ENSG00000170917,ENSG00000167674,ENSG00000125901,ENSG00000123689,ENSG00000104886,ENSG00000272573,ENSG00000184271,ENSG00000262814,ENSG00000158887,ENSG00000128311,ENSG00000099284,ENSG00000092758,ENSG00000105204,ENSG00000269190,ENSG00000158792,ENSG00000060491,ENSG00000116663,ENSG00000086289,ENSG00000170412,ENSG00000116857,ENSG00000099889,ENSG00000132004,ENSG00000183207,ENSG00000164742,ENSG00000163975,ENSG00000173991,ENSG00000160408,ENSG00000007080,ENSG00000105220,ENSG00000140983,ENSG00000166925,ENSG00000100908,ENSG00000116809,ENSG00000161010,ENSG00000197562,ENSG00000101473,ENSG00000100294,ENSG00000167965,ENSG00000162032,ENSG00000188878,ENSG00000177685,ENSG00000183963,ENSG00000068438,ENSG00000169696,ENSG00000114023,ENSG00000172590,ENSG00000142544,ENSG00000167702,ENSG00000176248,ENSG00000175265,ENSG00000185049,ENSG00000185024,ENSG00000183048,ENSG00000180035,ENSG00000113758,ENSG00000167566,ENSG00000171443,ENSG00000143793,ENSG00000134461,ENSG00000105662,ENSG00000188986,ENSG00000139579,ENSG00000170835,ENSG00000178896,ENSG00000061938,ENSG00000242252,ENSG00000160953,ENSG00000134072,ENSG00000171823,ENSG00000102312,ENSG00000138030,ENSG00000188807,ENSG00000114853,ENSG00000160360,ENSG00000213672,ENSG00000175701,ENSG00000130956,ENSG00000134030,ENSG00000103245,ENSG00000099977,ENSG00000132024,ENSG00000078687,ENSG00000185567,ENSG00000103126,ENSG00000164896,ENSG00000197766,ENSG00000135469,ENSG00000182196,ENSG00000178685,ENSG00000082014,ENSG00000106628,ENSG00000160959,ENSG00000003096,ENSG00000020129,ENSG00000145912,ENSG00000130312,ENSG00000173992,ENSG00000137166,ENSG00000105677,ENSG00000206077,ENSG00000182173,ENSG00000161981,ENSG00000141542,ENSG00000072210,ENSG00000072818,ENSG00000130479,ENSG00000171853,ENSG00000140398,ENSG00000179091,ENSG00000171574,ENSG00000106538,ENSG00000069998,ENSG00000196544,ENSG00000107902,ENSG00000156968,ENSG00000008441,ENSG00000136878,ENSG00000197858,ENSG00000183087,ENSG00000126970,ENSG00000013619,ENSG00000105792,ENSG00000059122,ENSG00000110811,ENSG00000198838,ENSG00000153291,ENSG00000241370,ENSG00000104679,ENSG00000053702,ENSG00000136842,ENSG00000104973,ENSG00000164197,ENSG00000133612,ENSG00000099377,ENSG00000154146,ENSG00000164880,ENSG00000197380,ENSG00000184702,ENSG00000006062,ENSG00000185813,ENSG00000239697,ENSG00000130810,ENSG00000198853,ENSG00000032444,ENSG00000128626,ENSG00000143603,ENSG00000125967,ENSG00000182087,ENSG00000135940,ENSG00000153234,ENSG00000169692,ENSG00000141569,ENSG00000169093,ENSG00000148411,ENSG00000165684,ENSG00000198695,ENSG00000204642,ENSG00000118894,ENSG00000160213,ENSG00000100241,ENSG00000204681,ENSG00000147804,ENSG00000170430,ENSG00000051128,ENSG00000152284,ENSG00000168936,ENSG00000179532,ENSG00000176894,ENSG00000133874",3
term,GO:CC,GO:0005739,mitochondrion,1628,760,102,0.134210526315789,0.0626535626535627,0.0012222275867398,"ENSG00000182154,ENSG00000103254,ENSG00000167136,ENSG00000125652,ENSG00000099624,ENSG00000163864,ENSG00000115286,ENSG00000125648,ENSG00000280071,ENSG00000174917,ENSG00000213221,ENSG00000233954,ENSG00000073169,ENSG00000125656,ENSG00000109819,ENSG00000135929,ENSG00000277972,ENSG00000205309,ENSG00000160221,ENSG00000099821,ENSG00000111275,ENSG00000005379,ENSG00000126215,ENSG00000214456,ENSG00000099904,ENSG00000243708,ENSG00000160226,ENSG00000131730,ENSG00000110717,ENSG00000179271,ENSG00000213339,ENSG00000105701,ENSG00000099795,ENSG00000103152,ENSG00000121653,ENSG00000140263,ENSG00000181035,ENSG00000127445,ENSG00000148343,ENSG00000139190,ENSG00000103202,ENSG00000126934,ENSG00000205138,ENSG00000197785,ENSG00000167969,ENSG00000176715,ENSG00000065057,ENSG00000130304,ENSG00000204316,ENSG00000233276,ENSG00000142920,ENSG00000105364,ENSG00000178057,ENSG00000175756,ENSG00000133027,ENSG00000122515,ENSG00000179364,ENSG00000224877,ENSG00000160072,ENSG00000074071,ENSG00000162910,ENSG00000156990,ENSG00000100300,ENSG00000136877,ENSG00000062582,ENSG00000130159,ENSG00000165233,ENSG00000123815,ENSG00000130649,ENSG00000267673,ENSG00000184990,ENSG00000139637,ENSG00000123358,ENSG00000122386,ENSG00000161558,ENSG00000142330,ENSG00000086504,ENSG00000170917,ENSG00000125901,ENSG00000123689,ENSG00000262814,ENSG00000128311,ENSG00000140983,ENSG00000100294,ENSG00000114023,ENSG00000172590,ENSG00000183048,ENSG00000175701,ENSG00000164896,ENSG00000135469,ENSG00000130312,ENSG00000179091,ENSG00000069998,ENSG00000156968,ENSG00000197858,ENSG00000153291,ENSG00000154146,ENSG00000128626,ENSG00000135940,ENSG00000148411,ENSG00000198695,ENSG00000176894",5
term,GO:CC,GO:0005743,mitochondrial inner membrane,489,760,41,0.0539473684210526,0.0838445807770961,0.00145862395607481,"ENSG00000182154,ENSG00000167136,ENSG00000099624,ENSG00000115286,ENSG00000125648,ENSG00000174917,ENSG00000233954,ENSG00000135929,ENSG00000243708,ENSG00000131730,ENSG00000110717,ENSG00000099795,ENSG00000181035,ENSG00000103202,ENSG00000197785,ENSG00000130304,ENSG00000204316,ENSG00000105364,ENSG00000178057,ENSG00000175756,ENSG00000160072,ENSG00000074071,ENSG00000162910,ENSG00000136877,ENSG00000062582,ENSG00000130159,ENSG00000123815,ENSG00000130649,ENSG00000086504,ENSG00000125901,ENSG00000262814,ENSG00000172590,ENSG00000183048,ENSG00000175701,ENSG00000135469,ENSG00000130312,ENSG00000179091,ENSG00000153291,ENSG00000128626,ENSG00000135940,ENSG00000198695",5
term,GO:CC,GO:0031966,mitochondrial membrane,727,760,54,0.0710526315789474,0.0742778541953233,0.00145862395607481,"ENSG00000182154,ENSG00000103254,ENSG00000167136,ENSG00000099624,ENSG00000115286,ENSG00000125648,ENSG00000174917,ENSG00000233954,ENSG00000135929,ENSG00000099904,ENSG00000243708,ENSG00000131730,ENSG00000110717,ENSG00000213339,ENSG00000105701,ENSG00000099795,ENSG00000121653,ENSG00000140263,ENSG00000181035,ENSG00000148343,ENSG00000139190,ENSG00000103202,ENSG00000197785,ENSG00000130304,ENSG00000204316,ENSG00000105364,ENSG00000178057,ENSG00000175756,ENSG00000133027,ENSG00000160072,ENSG00000074071,ENSG00000162910,ENSG00000100300,ENSG00000136877,ENSG00000062582,ENSG00000130159,ENSG00000165233,ENSG00000123815,ENSG00000130649,ENSG00000086504,ENSG00000125901,ENSG00000262814,ENSG00000140983,ENSG00000172590,ENSG00000183048,ENSG00000175701,ENSG00000135469,ENSG00000130312,ENSG00000179091,ENSG00000153291,ENSG00000154146,ENSG00000128626,ENSG00000135940,ENSG00000198695",4
term,GO:CC,GO:0019866,organelle inner membrane,549,760,43,0.0565789473684211,0.0783242258652095,0.00286646044844852,"ENSG00000182154,ENSG00000167136,ENSG00000099624,ENSG00000115286,ENSG00000125648,ENSG00000174917,ENSG00000233954,ENSG00000109736,ENSG00000135929,ENSG00000243708,ENSG00000131730,ENSG00000110717,ENSG00000099795,ENSG00000181035,ENSG00000103202,ENSG00000197785,ENSG00000130304,ENSG00000204316,ENSG00000105364,ENSG00000178057,ENSG00000175756,ENSG00000160072,ENSG00000074071,ENSG00000162910,ENSG00000136877,ENSG00000062582,ENSG00000130159,ENSG00000123815,ENSG00000130649,ENSG00000086504,ENSG00000125901,ENSG00000262814,ENSG00000172590,ENSG00000183048,ENSG00000188807,ENSG00000175701,ENSG00000135469,ENSG00000130312,ENSG00000179091,ENSG00000153291,ENSG00000128626,ENSG00000135940,ENSG00000198695",4
term,GO:CC,GO:0005737,cytoplasm,11673,760,515,0.677631578947369,0.0441189068791228,0.0049004175024846,"ENSG00000275896,ENSG00000172346,ENSG00000092054,ENSG00000141933,ENSG00000139910,ENSG00000175602,ENSG00000089472,ENSG00000104879,ENSG00000198125,ENSG00000173272,ENSG00000186081,ENSG00000203772,ENSG00000103056,ENSG00000188747,ENSG00000107872,ENSG00000152082,ENSG00000108551,ENSG00000212864,ENSG00000009950,ENSG00000067840,ENSG00000205795,ENSG00000105737,ENSG00000182154,ENSG00000103254,ENSG00000160460,ENSG00000003249,ENSG00000129968,ENSG00000144908,ENSG00000167676,ENSG00000131095,ENSG00000115138,ENSG00000151892,ENSG00000134201,ENSG00000168993,ENSG00000167779,ENSG00000143632,ENSG00000130558,ENSG00000167136,ENSG00000167701,ENSG00000125652,ENSG00000103024,ENSG00000163959,ENSG00000158050,ENSG00000127415,ENSG00000099624,ENSG00000163631,ENSG00000161677,ENSG00000163864,ENSG00000063241,ENSG00000008710,ENSG00000159733,ENSG00000127418,ENSG00000101938,ENSG00000170477,ENSG00000184343,ENSG00000004777,ENSG00000175264,ENSG00000160307,ENSG00000105649,ENSG00000165802,ENSG00000166165,ENSG00000130653,ENSG00000101460,ENSG00000115286,ENSG00000101400,ENSG00000172348,ENSG00000125648,ENSG00000148832,ENSG00000280071,ENSG00000174917,ENSG00000187193,ENSG00000106330,ENSG00000181029,ENSG00000213221,ENSG00000130758,ENSG00000176978,ENSG00000177706,ENSG00000132970,ENSG00000173581,ENSG00000197530,ENSG00000171401,ENSG00000171045,ENSG00000149294,ENSG00000198832,ENSG00000242612,ENSG00000132840,ENSG00000070423,ENSG00000132879,ENSG00000132481,ENSG00000169733,ENSG00000167508,ENSG00000189056,ENSG00000233954,ENSG00000073169,ENSG00000103266,ENSG00000125656,ENSG00000009694,ENSG00000165152,ENSG00000109819,ENSG00000243477,ENSG00000130005,ENSG00000166819,ENSG00000109736,ENSG00000163995,ENSG00000135744,ENSG00000135929,ENSG00000177595,ENSG00000145214,ENSG00000158106,ENSG00000196136,ENSG00000106009,ENSG00000109107,ENSG00000164877,ENSG00000115226,ENSG00000133265,ENSG00000158716,ENSG00000078814,ENSG00000136999,ENSG00000183655,ENSG00000277972,ENSG00000205309,ENSG00000160221,ENSG00000167526,ENSG00000099821,ENSG00000111275,ENSG00000215375,ENSG00000125520,ENSG00000005379,ENSG00000112667,ENSG00000126215,ENSG00000178814,ENSG00000187051,ENSG00000095906,ENSG00000116649,ENSG00000104524,ENSG00000214456,ENSG00000179526,ENSG00000180113,ENSG00000122490,ENSG00000088826,ENSG00000103227,ENSG00000108557,ENSG00000128298,ENSG00000007541,ENSG00000135144,ENSG00000228300,ENSG00000065268,ENSG00000099904,ENSG00000170011,ENSG00000159069,ENSG00000101439,ENSG00000243708,ENSG00000108479,ENSG00000058453,ENSG00000107331,ENSG00000160226,ENSG00000131730,ENSG00000160323,ENSG00000090097,ENSG00000110717,ENSG00000179271,ENSG00000248487,ENSG00000100258,ENSG00000187961,ENSG00000107404,ENSG00000141577,ENSG00000154277,ENSG00000187134,ENSG00000126368,ENSG00000105245,ENSG00000100726,ENSG00000144712,ENSG00000132819,ENSG00000185189,ENSG00000213339,ENSG00000171962,ENSG00000151632,ENSG00000105426,ENSG00000204536,ENSG00000129932,ENSG00000174516,ENSG00000105701,ENSG00000122574,ENSG00000144647,ENSG00000174177,ENSG00000178026,ENSG00000106992,ENSG00000167967,ENSG00000167996,ENSG00000099795,ENSG00000148384,ENSG00000179085,ENSG00000158717,ENSG00000185504,ENSG00000103152,ENSG00000242802,ENSG00000121653,ENSG00000168096,ENSG00000007520,ENSG00000168765,ENSG00000140263,ENSG00000125458,ENSG00000127586,ENSG00000103326,ENSG00000105404,ENSG00000181035,ENSG00000133275,ENSG00000102981,ENSG00000141504,ENSG00000127445,ENSG00000133243,ENSG00000239474,ENSG00000131697,ENSG00000162526,ENSG00000148343,ENSG00000111674,ENSG00000139190,ENSG00000103202,ENSG00000174791,ENSG00000165197,ENSG00000063245,ENSG00000103145,ENSG00000132382,ENSG00000167671,ENSG00000134780,ENSG00000126934,ENSG00000172508,ENSG00000169660,ENSG00000125912,ENSG00000172663,ENSG00000074855,ENSG00000205138,ENSG00000124074,ENSG00000184985,ENSG00000108106,ENSG00000138834,ENSG00000004776,ENSG00000215440,ENSG00000140691,ENSG00000169918,ENSG00000083807,ENSG00000197785,ENSG00000167969,ENSG00000184205,ENSG00000176715,ENSG00000132330,ENSG00000160326,ENSG00000065057,ENSG00000213999,ENSG00000171130,ENSG00000130304,ENSG00000204316,ENSG00000112139,ENSG00000169031,ENSG00000169738,ENSG00000179954,ENSG00000198720,ENSG00000233276,ENSG00000142920,ENSG00000161036,ENSG00000105364,ENSG00000089486,ENSG00000178057,ENSG00000127419,ENSG00000175756,ENSG00000136840,ENSG00000141971,ENSG00000258315,ENSG00000133027,ENSG00000115268,ENSG00000072954,ENSG00000122515,ENSG00000077943,ENSG00000187954,ENSG00000149823,ENSG00000179364,ENSG00000178605,ENSG00000143412,ENSG00000100304,ENSG00000181409,ENSG00000107130,ENSG00000224877,ENSG00000160072,ENSG00000123360,ENSG00000164077,ENSG00000074071,ENSG00000162910,ENSG00000185507,ENSG00000115556,ENSG00000092529,ENSG00000162413,ENSG00000204498,ENSG00000157214,ENSG00000156990,ENSG00000100300,ENSG00000136877,ENSG00000114631,ENSG00000128602,ENSG00000062582,ENSG00000180900,ENSG00000247596,ENSG00000185883,ENSG00000215252,ENSG00000104976,ENSG00000224051,ENSG00000186340,ENSG00000149328,ENSG00000182325,ENSG00000069424,ENSG00000130159,ENSG00000139405,ENSG00000007047,ENSG00000105373,ENSG00000165233,ENSG00000185122,ENSG00000123815,ENSG00000185340,ENSG00000130649,ENSG00000186364,ENSG00000167397,ENSG00000267673,ENSG00000184990,ENSG00000143774,ENSG00000205593,ENSG00000124104,ENSG00000005206,ENSG00000205364,ENSG00000139637,ENSG00000205307,ENSG00000123358,ENSG00000140474,ENSG00000179094,ENSG00000105738,ENSG00000185000,ENSG00000169727,ENSG00000148357,ENSG00000121410,ENSG00000168159,ENSG00000168874,ENSG00000129158,ENSG00000198931,ENSG00000180089,ENSG00000122386,ENSG00000143819,ENSG00000126249,ENSG00000105298,ENSG00000161544,ENSG00000103148,ENSG00000129946,ENSG00000100626,ENSG00000149260,ENSG00000099785,ENSG00000196976,ENSG00000169683,ENSG00000137877,ENSG00000161558,ENSG00000115694,ENSG00000108773,ENSG00000132361,ENSG00000188157,ENSG00000196372,ENSG00000059915,ENSG00000244731,ENSG00000021300,ENSG00000141258,ENSG00000011132,ENSG00000142330,ENSG00000127580,ENSG00000160948,ENSG00000108641,ENSG00000086504,ENSG00000099814,ENSG00000211450,ENSG00000170917,ENSG00000125901,ENSG00000123689,ENSG00000104886,ENSG00000262814,ENSG00000158887,ENSG00000128311,ENSG00000092758,ENSG00000269190,ENSG00000158792,ENSG00000060491,ENSG00000116663,ENSG00000086289,ENSG00000170412,ENSG00000116857,ENSG00000099889,ENSG00000132004,ENSG00000183207,ENSG00000164742,ENSG00000163975,ENSG00000173991,ENSG00000160408,ENSG00000007080,ENSG00000105220,ENSG00000140983,ENSG00000100908,ENSG00000197562,ENSG00000101473,ENSG00000100294,ENSG00000167965,ENSG00000162032,ENSG00000188878,ENSG00000177685,ENSG00000183963,ENSG00000068438,ENSG00000169696,ENSG00000114023,ENSG00000172590,ENSG00000142544,ENSG00000167702,ENSG00000176248,ENSG00000175265,ENSG00000185049,ENSG00000183048,ENSG00000113758,ENSG00000167566,ENSG00000143793,ENSG00000134461,ENSG00000105662,ENSG00000139579,ENSG00000170835,ENSG00000178896,ENSG00000061938,ENSG00000242252,ENSG00000160953,ENSG00000134072,ENSG00000171823,ENSG00000102312,ENSG00000138030,ENSG00000188807,ENSG00000160360,ENSG00000213672,ENSG00000175701,ENSG00000130956,ENSG00000134030,ENSG00000103245,ENSG00000099977,ENSG00000132024,ENSG00000078687,ENSG00000185567,ENSG00000103126,ENSG00000164896,ENSG00000197766,ENSG00000135469,ENSG00000178685,ENSG00000082014,ENSG00000160959,ENSG00000003096,ENSG00000020129,ENSG00000130312,ENSG00000173992,ENSG00000105677,ENSG00000206077,ENSG00000161981,ENSG00000141542,ENSG00000072210,ENSG00000072818,ENSG00000130479,ENSG00000171853,ENSG00000140398,ENSG00000179091,ENSG00000106538,ENSG00000069998,ENSG00000196544,ENSG00000107902,ENSG00000156968,ENSG00000136878,ENSG00000197858,ENSG00000183087,ENSG00000126970,ENSG00000013619,ENSG00000105792,ENSG00000059122,ENSG00000110811,ENSG00000198838,ENSG00000153291,ENSG00000053702,ENSG00000136842,ENSG00000164197,ENSG00000133612,ENSG00000099377,ENSG00000154146,ENSG00000197380,ENSG00000184702,ENSG00000006062,ENSG00000185813,ENSG00000239697,ENSG00000198853,ENSG00000032444,ENSG00000128626,ENSG00000143603,ENSG00000125967,ENSG00000182087,ENSG00000135940,ENSG00000153234,ENSG00000169692,ENSG00000141569,ENSG00000169093,ENSG00000148411,ENSG00000198695,ENSG00000204642,ENSG00000118894,ENSG00000160213,ENSG00000100241,ENSG00000204681,ENSG00000147804,ENSG00000051128,ENSG00000152284,ENSG00000168936,ENSG00000179532,ENSG00000176894,ENSG00000133874",4
term,GO:CC,GO:0005740,mitochondrial envelope,775,760,54,0.0710526315789474,0.0696774193548387,0.0049004175024846,"ENSG00000182154,ENSG00000103254,ENSG00000167136,ENSG00000099624,ENSG00000115286,ENSG00000125648,ENSG00000174917,ENSG00000233954,ENSG00000135929,ENSG00000099904,ENSG00000243708,ENSG00000131730,ENSG00000110717,ENSG00000213339,ENSG00000105701,ENSG00000099795,ENSG00000121653,ENSG00000140263,ENSG00000181035,ENSG00000148343,ENSG00000139190,ENSG00000103202,ENSG00000197785,ENSG00000130304,ENSG00000204316,ENSG00000105364,ENSG00000178057,ENSG00000175756,ENSG00000133027,ENSG00000160072,ENSG00000074071,ENSG00000162910,ENSG00000100300,ENSG00000136877,ENSG00000062582,ENSG00000130159,ENSG00000165233,ENSG00000123815,ENSG00000130649,ENSG00000086504,ENSG00000125901,ENSG00000262814,ENSG00000140983,ENSG00000172590,ENSG00000183048,ENSG00000175701,ENSG00000135469,ENSG00000130312,ENSG00000179091,ENSG00000153291,ENSG00000154146,ENSG00000128626,ENSG00000135940,ENSG00000198695",5
term,GO:CC,GO:0005759,mitochondrial matrix,477,760,37,0.0486842105263158,0.0775681341719078,0.00831248835681701,"ENSG00000182154,ENSG00000125652,ENSG00000099624,ENSG00000163864,ENSG00000115286,ENSG00000125656,ENSG00000135929,ENSG00000205309,ENSG00000099821,ENSG00000111275,ENSG00000110717,ENSG00000179271,ENSG00000103152,ENSG00000103202,ENSG00000205138,ENSG00000197785,ENSG00000167969,ENSG00000176715,ENSG00000204316,ENSG00000233276,ENSG00000105364,ENSG00000074071,ENSG00000162910,ENSG00000156990,ENSG00000136877,ENSG00000062582,ENSG00000267673,ENSG00000139637,ENSG00000086504,ENSG00000125901,ENSG00000262814,ENSG00000128311,ENSG00000100294,ENSG00000172590,ENSG00000164896,ENSG00000130312,ENSG00000128626",5
term,GO:CC,GO:0000313,organellar ribosome,86,760,12,0.0157894736842105,0.13953488372093,0.0113396384418395,"ENSG00000182154,ENSG00000204316,ENSG00000105364,ENSG00000074071,ENSG00000162910,ENSG00000062582,ENSG00000086504,ENSG00000125901,ENSG00000262814,ENSG00000172590,ENSG00000130312,ENSG00000128626",3
term,GO:CC,GO:0005761,mitochondrial ribosome,86,760,12,0.0157894736842105,0.13953488372093,0.0113396384418395,"ENSG00000182154,ENSG00000204316,ENSG00000105364,ENSG00000074071,ENSG00000162910,ENSG00000062582,ENSG00000086504,ENSG00000125901,ENSG00000262814,ENSG00000172590,ENSG00000130312,ENSG00000128626",4
term,KEGG,KEGG:00330,Arginine and proline metabolism,50,760,12,0.0157894736842105,0.24,0.000123238498911705,"ENSG00000104879,ENSG00000166165,ENSG00000130005,ENSG00000111275,ENSG00000116649,ENSG00000104524,ENSG00000088826,ENSG00000131730,ENSG00000141504,ENSG00000172508,ENSG00000142920,ENSG00000072210",100
term,REAC,REAC:R-HSA-5419276,Mitochondrial translation termination,87,760,14,0.0184210526315789,0.160919540229885,0.00258060255028864,"ENSG00000182154,ENSG00000179271,ENSG00000204316,ENSG00000105364,ENSG00000175756,ENSG00000074071,ENSG00000162910,ENSG00000062582,ENSG00000086504,ENSG00000125901,ENSG00000262814,ENSG00000172590,ENSG00000130312,ENSG00000128626",100
term,REAC,REAC:R-HSA-5368286,Mitochondrial translation initiation,87,760,14,0.0184210526315789,0.160919540229885,0.00258060255028864,"ENSG00000182154,ENSG00000179271,ENSG00000204316,ENSG00000105364,ENSG00000175756,ENSG00000074071,ENSG00000162910,ENSG00000062582,ENSG00000086504,ENSG00000125901,ENSG00000262814,ENSG00000172590,ENSG00000130312,ENSG00000128626",100
term,REAC,REAC:R-HSA-5389840,Mitochondrial translation elongation,87,760,14,0.0184210526315789,0.160919540229885,0.00258060255028864,"ENSG00000182154,ENSG00000179271,ENSG00000204316,ENSG00000105364,ENSG00000175756,ENSG00000074071,ENSG00000162910,ENSG00000062582,ENSG00000086504,ENSG00000125901,ENSG00000262814,ENSG00000172590,ENSG00000130312,ENSG00000128626",100
term,REAC,REAC:R-HSA-5368287,Mitochondrial translation,93,760,14,0.0184210526315789,0.150537634408602,0.00426064295871732,"ENSG00000182154,ENSG00000179271,ENSG00000204316,ENSG00000105364,ENSG00000175756,ENSG00000074071,ENSG00000162910,ENSG00000062582,ENSG00000086504,ENSG00000125901,ENSG00000262814,ENSG00000172590,ENSG00000130312,ENSG00000128626",100
term,REAC,REAC:R-HSA-193775,Synthesis of bile acids and bile salts via 24-hydroxycholesterol,14,760,5,0.00657894736842105,0.357142857142857,0.0285320166551868,"ENSG00000135929,ENSG00000187134,ENSG00000151632,ENSG00000083807,ENSG00000099377",100
term,REAC,REAC:R-HSA-193368,Synthesis of bile acids and bile salts via 7alpha-hydroxycholesterol,23,760,6,0.00789473684210526,0.260869565217391,0.0356912119701825,"ENSG00000135929,ENSG00000187134,ENSG00000151632,ENSG00000083807,ENSG00000101473,ENSG00000099377",100
term,REAC,REAC:R-HSA-71288,Creatine metabolism,9,760,4,0.00526315789473684,0.444444444444444,0.0373609652531208,"ENSG00000104879,ENSG00000166165,ENSG00000130005,ENSG00000131730",100
term,REAC,REAC:R-HSA-1430728,Metabolism,2066,760,112,0.147368421052632,0.0542110358180058,0.0442688791818466,"ENSG00000204983,ENSG00000104879,ENSG00000103056,ENSG00000145217,ENSG00000009950,ENSG00000144908,ENSG00000115138,ENSG00000134201,ENSG00000167701,ENSG00000103024,ENSG00000127415,ENSG00000099624,ENSG00000163631,ENSG00000163864,ENSG00000175264,ENSG00000166165,ENSG00000130653,ENSG00000115286,ENSG00000148832,ENSG00000242612,ENSG00000165995,ENSG00000132840,ENSG00000167508,ENSG00000109819,ENSG00000130005,ENSG00000166819,ENSG00000135744,ENSG00000135929,ENSG00000109107,ENSG00000205309,ENSG00000167526,ENSG00000111275,ENSG00000005379,ENSG00000112667,ENSG00000178814,ENSG00000095906,ENSG00000116649,ENSG00000104524,ENSG00000243708,ENSG00000108479,ENSG00000131730,ENSG00000110717,ENSG00000187134,ENSG00000126368,ENSG00000151632,ENSG00000106992,ENSG00000099795,ENSG00000148384,ENSG00000168765,ENSG00000140263,ENSG00000125458,ENSG00000133275,ENSG00000148343,ENSG00000111674,ENSG00000103202,ENSG00000172508,ENSG00000083807,ENSG00000167969,ENSG00000176715,ENSG00000132330,ENSG00000130304,ENSG00000169738,ENSG00000233276,ENSG00000185803,ENSG00000142920,ENSG00000178057,ENSG00000133027,ENSG00000115268,ENSG00000175221,ENSG00000115556,ENSG00000100300,ENSG00000114631,ENSG00000224051,ENSG00000196498,ENSG00000130159,ENSG00000130649,ENSG00000167397,ENSG00000267673,ENSG00000143774,ENSG00000185000,ENSG00000198931,ENSG00000180089,ENSG00000143819,ENSG00000161544,ENSG00000099998,ENSG00000188157,ENSG00000123689,ENSG00000128311,ENSG00000164742,ENSG00000160408,ENSG00000105220,ENSG00000101473,ENSG00000100294,ENSG00000183048,ENSG00000138030,ENSG00000103245,ENSG00000135469,ENSG00000178685,ENSG00000082014,ENSG00000179091,ENSG00000107902,ENSG00000158445,ENSG00000153291,ENSG00000104973,ENSG00000099377,ENSG00000185813,ENSG00000032444,ENSG00000135940,ENSG00000169692,ENSG00000198695,ENSG00000100241,ENSG00000176894",100
