ensembl_gene_id,hgnc_symbol,Placenta,Other_meanTPM,Tau
ENSG00000213218,CSH2,37052.3012141048,0.0805519640948765,0.999997825992949
ENSG00000136488,CSH1,22083.9597696484,0.661963878110218,0.999970025127513
ENSG00000105825,TFPI2,18110.6043193732,12.7865227421106,0.999293975920592
ENSG00000135346,CGA,16975.1971447582,84.6445419671553,0.995013634230853
ENSG00000170498,KISS1,7544.44658716754,0.711328462553179,0.999905714958104
ENSG00000221826,PSG3,6692.28750939261,0.0332577022510338,0.999995030443297
ENSG00000231924,PSG1,6659.10397025362,0.0325385633124463,0.999995113672431
ENSG00000243137,PSG4,6482.17825265532,0.489355655017691,0.999924507528805
ENSG00000182752,PAPPA,6267.49733770079,2.95015279704207,0.999529293330642
ENSG00000137869,CYP19A1,5626.66837676247,0.966535644953001,0.99982822239019
ENSG00000242221,PSG2,5115.00005216926,0.0085162711340604,0.999998335039873
ENSG00000148848,ADAM12,3970.38298049573,1.93121667883145,0.999513594358953
ENSG00000203857,HSD3B1,3781.46502876409,0.462718335882181,0.999877635167227
ENSG00000183668,PSG9,3272.52272413952,0.0186103429502223,0.999994313150887
ENSG00000147257,GPC3,2890.31218343712,25.3877425681393,0.991216262826686
ENSG00000204941,PSG5,2461.9781000715,0.575133466541401,0.99976639375203
ENSG00000116183,PAPPA2,2290.74479161429,0.757059618790485,0.999669513766194
ENSG00000136487,GH2,2265.9821205641,1.3674138927659,0.999396546918726
ENSG00000243130,PSG11,2190.27535289547,0.00390823389438313,0.999998215642664
ENSG00000204414,CSHL1,1788.29214672022,0.317510627146283,0.999822450359843
ENSG00000147571,CRH,1769.56389295086,2.25088980143541,0.998727997440272
ENSG00000221878,PSG7,1741.13670570521,0.0152060003192107,0.999991266624689
ENSG00000170848,PSG6,1534.65564614274,0.00533730582512929,0.999996522147598
ENSG00000165124,SVEP1,1512.15834995135,13.2905513529038,0.991210873283653
ENSG00000077274,CAPN6,1487.5627459577,2.86466492353744,0.998074256073351
ENSG00000206538,VGLL3,1303.31693672564,8.46811649207095,0.993502642179004
ENSG00000006659,LGALS14,1109.4152368331,0.437235311941434,0.999605886689289
ENSG00000197632,SERPINB2,1108.11177502962,8.03733483054904,0.992746819398852
ENSG00000101951,PAGE4,930.081960102696,1.5195204707494,0.998366251001598
ENSG00000163283,ALPP,907.573846356666,0.267604545355742,0.999705142951805
ENSG00000122641,INHBA,804.713169720575,3.77981128120423,0.995302908634493
ENSG00000170965,PLAC1,744.909088290387,0.0992088151261773,0.99986681755306
ENSG00000171402,XAGE3,695.58892983595,0.101873435244266,0.999853543621995
ENSG00000155622,XAGE2,674.376110716108,0.198598166230304,0.999705508301563
ENSG00000242950,ERVW-1,659.815390905052,0.345557534172708,0.999476281488829
ENSG00000138829,FBN2,658.006287313047,4.47128958311043,0.993204792006823
ENSG00000124467,PSG8,643.465543104928,0.0178402636824759,0.999972274717934
ENSG00000169550,MUC15,623.128740172995,4.66431878367372,0.992514678776686
ENSG00000168679,SLC16A4,610.192011712071,5.81666668308086,0.990467481429721
ENSG00000112414,ADGRG6,519.039740255271,4.36901125606423,0.991582511092666
ENSG00000186652,PRG2,515.272799550257,4.41249133287429,0.991436591769009
ENSG00000105198,LGALS13,506.179857389629,0.0430194026033495,0.999915011626845
ENSG00000172296,SPTLC3,457.42827491774,2.99162267668658,0.993459908709787
ENSG00000076770,MBNL3,382.609533617748,3.45714217676714,0.990964307281948
ENSG00000137270,GCM1,361.101217385598,0.115295158489351,0.999680712351722
ENSG00000198759,EGFL6,355.555762116297,2.46574145400516,0.993065106189451
ENSG00000108786,HSD17B1,333.218044398047,2.08510455378222,0.993742522084754
ENSG00000105492,SIGLEC6,307.202570045485,0.461671940874672,0.998497174223489
ENSG00000102243,VGLL1,286.172813786446,0.359997524168606,0.998742027520346
ENSG00000035499,DEPDC1B,283.090004445333,1.68367263637626,0.994052518245301
ENSG00000120211,INSL4,274.356090175158,0.0107527834514394,0.999960807199707
ENSG00000136231,IGF2BP3,196.593449360946,1.02189146201836,0.99480200655037
ENSG00000204614,TRIM40,171.159060288017,0.279747279032007,0.998365571307991
ENSG00000244476,ERVFRD-1,166.312347391899,0.283419483538096,0.998295860241391
ENSG00000169495,HTRA4,155.571352665111,0.425931638741611,0.997262146073522
ENSG00000187772,LIN28B,149.976207089246,0.135035505360249,0.999099620479934
ENSG00000124260,MAGEA10,131.116902096138,0.10548049100397,0.999195523313031
ENSG00000213030,CGB8,116.811270232487,0.0266522109264095,0.999771835278622
ENSG00000100593,ISM2,113.130029047693,0.55291481256148,0.995112572521939
ENSG00000268964,ERVV-2,108.479622397908,0.00664678288225638,0.999938727820623
ENSG00000189052,CGB5,96.2716792194853,0.0250397056153376,0.999739905797652
ENSG00000104827,CGB3,89.3379053406683,0.0656277953144561,0.999265398096539
ENSG00000249861,LGALS16,74.9610806611546,0.0497348404008148,0.999336524500952
ENSG00000103546,SLC6A2,72.2854775841437,0.364391910367781,0.99495898868561
ENSG00000269526,ERVV-1,71.2952185385681,0.0863171483246394,0.998789299617927
ENSG00000156009,MAGEA8,69.427748940486,0.157398562812155,0.997732915653839
ENSG00000127928,GNGT1,42.7145128918588,0.0145343834199558,0.999659731963776
ENSG00000155269,GPR78,40.8400150284652,0.278438476774292,0.993182214145117
ENSG00000056291,NPFFR2,38.2064183137578,0.127731895272866,0.996656794828976
ENSG00000174792,C4orf26,21.8078469554829,0.171759627936352,0.992123952984127
ENSG00000167612,ANKRD33,20.0627026518086,0.0949563552396221,0.995267020755498
ENSG00000142684,ZNF593,14.2392884282966,0.0383529788975981,0.997306538238148
ENSG00000164485,IL22RA2,12.7141794438231,0.0485008848723534,0.996185291777055
ENSG00000258436,RNASE12,12.2609384505668,0.0185431299049103,0.998487625561479
ENSG00000184029,DSCR4,11.7744653902256,0.0177790621950944,0.998490032319441
ENSG00000214336,FOXI3,6.30744839767725,0.0391006707178785,0.993800873466951
ENSG00000186329,TMEM212,5.8314735314129,0.0535675171080061,0.99081406837921
ENSG00000163286,ALPPL2,5.30385290810904,0.0415511934383192,0.992165847326801
ENSG00000134640,MTNR1B,4.15662329001544,0.0225931995260064,0.994564530401329
ENSG00000213588,ZBTB9,2.11241699208829,0,1
ENSG00000283247,RP11-638I8.1,1.76798172964586,0.00635411750476187,0.996406004995292
ENSG00000176020,AMIGO3,1.4791471496504,0,1
ENSG00000188394,GPR21,1.271193763866,0.000953767155370994,0.999249707493474
