gene_id,BG_min,BG_max,BG_median,BG_mean,My_mean,method,hgnc_symbol,chromosome_name,description,FC,depleted_in_8wk,depleted_in_14wk,Placenta.T3.pA,Placenta.T1.pA.8wk,Placenta.T1.pA.14wk
ENSG00000275896,1.50402157785113,87771.4906426581,4.29673286680871,1801.72655853496,0,TMM,PRSS2,7,serine protease 2,Inf,Yes,Yes,0,0.00604082102165579,0
ENSG00000204983,1.25055816586937,76026.9194871124,3.6059297704303,1557.67734855805,0.00152554572270427,TMM,PRSS1,7,serine protease 1,819.74,Yes,Yes,0.00152554572270427,0.00601746985392062,0
ENSG00000092054,1.78383546922925,27358.8752957237,7.48557732052744,1110.64296351217,0.00457814434067238,TMM,MYH7,14,myosin heavy chain 7,389.64,Yes,Yes,0.00457814434067238,0.209517190424056,0.0129571374910199
ENSG00000009724,1.70948247458878,272.253175602016,3.26465083364274,9.18428727586651,0.0167945441118813,TMM,MASP2,1,mannan binding lectin serine peptidase 2,101.79,No,No,0.0167945441118813,2.46619662169453,2.82490150825862
ENSG00000141933,2.78162450775219,11.0466931187229,5.86823335830497,6.07019907386577,0.0274818851689519,TMM,TPGS1,19,tubulin polyglutamylase complex subunit 1,101.22,No,No,0.0274818851689519,3.31286158398315,3.92047926881252
ENSG00000175602,15.7528297672757,213.488197074488,45.1592979765225,62.147325314269,0.179002090102501,TMM,CCDC85B,11,coiled-coil domain containing 85B,88,Yes,No,0.179002090102501,4.85627530091406,8.04065195617363
ENSG00000104879,1.5299561190648,35123.8311133633,5.33441130729756,896.811098339307,0.0221135354110319,TMM,CKM,19,"creatine kinase, M-type",69.19,Yes,Yes,0.0221135354110319,0.178569006079024,0.174605458464221
ENSG00000198598,1.4718286505134,83.7183321791612,5.74097305695535,15.8046720425701,0.0221457635684682,TMM,MMP17,12,matrix metallopeptidase 17,66.46,Yes,No,0.0221457635684682,0.20330049709486,0.508612101967705
ENSG00000198125,1.18452621655482,15771.0699872197,3.66827522439968,655.942534045158,0.0182953658768499,TMM,MB,22,myoglobin,64.74,Yes,Yes,0.0182953658768499,0.0843512922381282,0.0193161749539472
ENSG00000186081,1.45870354745437,9607.22376676721,4.81853630952017,578.52965825331,0.0228871356292785,TMM,KRT5,12,keratin 5,63.73,No,Yes,0.0228871356292785,0.758542975703186,0.0515179111777119
ENSG00000173272,9.07438553630424,72.1221669442667,19.819053305526,23.937879480433,0.146233412780097,TMM,MZT2A,2,mitotic spindle organizing protein 2A,62.05,No,No,0.146233412780097,6.6500181170399,4.63699175954594
ENSG00000203772,2.0011791748743,58.3334841250379,7.09250617871188,12.5429938919928,0.0342778149679456,TMM,SPRN,10,shadow of prion protein,58.38,No,No,0.0342778149679456,8.06225455361208,8.66924446338021
ENSG00000152082,19.2571694591157,83.3282481324934,34.7018117830223,38.4637268017806,0.388186425624312,TMM,MZT2B,2,mitotic spindle organizing protein 2B,49.61,No,No,0.388186425624312,15.5416775484275,15.6331969923856
ENSG00000107872,9.88273611818006,43.3921817080025,20.9501505055858,22.8488588763899,0.215472455299339,TMM,FBXL15,10,F-box and leucine rich repeat protein 15,45.87,No,No,0.215472455299339,6.26981525805799,6.30098667987622
ENSG00000130748,3.08092768807644,35.5576238035149,5.98151774388429,9.47128914873791,0.0796702556166176,TMM,TMEM160,19,transmembrane protein 160,38.67,No,No,0.0796702556166176,2.70340527490259,3.48549472712279
ENSG00000179588,4.20868787056997,35.646654475169,7.26516161436786,9.5594916741503,0.10907967235956,TMM,ZFPM1,16,"zinc finger protein, FOG family member 1",38.58,No,No,0.10907967235956,2.69120752549824,2.72542840878636
ENSG00000182154,26.4056455079548,240.919170342651,45.8515890942634,70.0326739520671,0.74293547781757,TMM,MRPL41,9,mitochondrial ribosomal protein L41,35.54,No,No,0.74293547781757,12.1097642505983,13.48585664876
ENSG00000103254,5.32970524212244,28.5734310608918,11.2543276261624,12.6031369425883,0.152318456121196,TMM,FAM173A,16,adenine nucleotide translocase lysine methyltransferase,34.99,No,No,0.152318456121196,5.64975388408228,5.93428434090014
ENSG00000125534,37.9223228441612,348.286636788499,134.541624185183,156.828482954667,1.13533296091771,TMM,PPDPF,20,pancreatic progenitor cell differentiation and proliferation factor,33.4,No,No,1.13533296091771,39.4099467009799,38.3993684989856
ENSG00000129968,33.5543263741377,233.908478196508,50.3877868991099,72.2440958479734,1.05609741135523,TMM,ABHD17A,19,"abhydrolase domain containing 17A, depalmitoylase",31.77,No,No,1.05609741135523,46.566638979171,51.5984881090382
ENSG00000159884,2.74361267321603,24.1979566234814,5.91378624147526,7.78547118201828,0.0864024655001913,TMM,CCDC107,9,coiled-coil domain containing 107,31.75,No,No,0.0864024655001913,2.47030618269873,1.49131055254622
ENSG00000169203,1.42945474945317,4.05359127135621,2.11028426618973,2.21023493661584,0.0457937514750547,TMM,NPIPB12,16,nuclear pore complex interacting protein family member B12,31.22,No,No,0.0457937514750547,2.59133953416052,2.00454930857304
ENSG00000131095,1.36379667856833,34578.0013460977,3.92427880336884,2414.52884503093,0.0495261007633884,TMM,GFAP,17,glial fibrillary acidic protein,27.54,Yes,Yes,0.0495261007633884,0.00601746985392062,0.0581517369422153
ENSG00000218891,5.32863743432371,52.3745348278314,12.97974069206,15.1037464125473,0.199042889524731,TMM,ZNF579,19,zinc finger protein 579,26.77,Yes,No,0.199042889524731,1.46690226762573,2.60678562709961
ENSG00000212864,1.41095488702447,91.5490836904498,8.19898911073128,19.3392350757173,0.059443996963575,TMM,RNF208,9,ring finger protein 208,23.74,No,No,0.059443996963575,0.472850322919896,0.568998922053259
ENSG00000143632,2.38807697877148,45992.4650842682,6.25908815713927,1129.56635741658,0.107875504982413,TMM,ACTA1,1,"actin alpha 1, skeletal muscle",22.14,Yes,Yes,0.107875504982413,0.626258206602141,0.443659165567365
ENSG00000103056,1.29101334078971,108.928608169238,12.6525509247683,22.2972584956184,0.0585240308072481,TMM,SMPD3,16,sphingomyelin phosphodiesterase 3,22.06,No,No,0.0585240308072481,2.68463198546301,2.61531355301788
ENSG00000167136,1.75499164806239,30.3284174748134,3.65843337446472,4.88896514926582,0.0828022711455962,TMM,ENDOG,9,endonuclease G,21.19,No,No,0.0828022711455962,2.43912630364552,3.06621489360257
ENSG00000171159,17.9139373775219,241.131419782573,33.6270818978792,49.5289023687829,0.879399732287705,TMM,C9orf16,9,chromosome 9 open reading frame 16,20.37,No,No,0.879399732287705,9.58368471612964,9.12250003935536
ENSG00000125652,22.5610644018611,219.616604237705,32.8235140307494,39.6326283693962,1.13599706303912,TMM,ALKBH7,19,alkB homolog 7,19.86,No,No,1.13599706303912,23.8552091808698,18.2347969971055
ENSG00000103024,17.3761241704143,76.6398960881341,38.4184258844519,41.2020366567521,0.879132896742518,TMM,NME3,16,NME/NM23 nucleoside diphosphate kinase 3,19.77,No,No,0.879132896742518,16.191508654059,13.344890563522
ENSG00000128185,13.4818726871704,85.1362060798665,27.7994807016708,32.1896009189976,0.688757236586132,TMM,DGCR6L,22,DiGeorge syndrome critical region gene 6 like,19.57,No,No,0.688757236586132,10.8164287080609,12.6986332812442
ENSG00000006015,8.36428785826434,55.7550170418112,26.5589345234277,30.7772011164504,0.43892291964418,TMM,C19orf60,19,required for excision 1-B domain containing,19.06,No,No,0.43892291964418,16.1956671097106,16.474532329245
ENSG00000173621,2.82358416652088,42.0390734099937,10.1296683640026,13.4686607680645,0.151777220970081,TMM,LRFN4,11,leucine rich repeat and fibronectin type III domain containing 4,18.6,No,No,0.151777220970081,3.18647165535118,4.78624729840127
ENSG00000158050,1.71959976080465,316.932798038532,7.36801283095955,20.4342156999501,0.0930118066625795,TMM,DUSP2,2,dual specificity phosphatase 2,18.49,Yes,Yes,0.0930118066625795,0.162228336471021,0.249543215698718
ENSG00000099624,27.4034926901727,328.174955244964,77.3239730891808,86.1024645085882,1.48695475760113,TMM,ATP5D,19,ATP synthase F1 subunit delta,18.43,No,No,1.48695475760113,25.3237475063034,24.9804270994669
ENSG00000101220,13.948713776823,246.64005026944,30.7409176629939,46.9965189147427,0.779548511105991,TMM,C20orf27,20,chromosome 20 open reading frame 27,17.89,No,No,0.779548511105991,6.67027230406144,7.80999476289821
ENSG00000161677,11.0019379542367,44.1449641019148,18.7069356651127,19.4928975033915,0.617378575323773,TMM,JOSD2,19,Josephin domain containing 2,17.82,No,No,0.617378575323773,8.0090523458225,8.4987933785198
ENSG00000063241,14.451741439968,178.329032540489,29.5277522162671,32.9061328136133,0.829588592396761,TMM,ISOC2,19,isochorismatase domain containing 2,17.42,No,No,0.829588592396761,11.8290814413758,9.32852580524769
ENSG00000250571,11.0357754325096,28.7014926010877,18.255154296938,19.1328577890663,0.686182444759677,TMM,GLI4,8,GLI family zinc finger 4,16.08,No,No,0.686182444759677,5.49518601658,7.01296491138254
ENSG00000130731,20.9856311421677,66.0781421708521,29.8866970681716,34.5296873781683,1.31107650810056,TMM,METTL26,16,methyltransferase like 26,16.01,No,No,1.31107650810056,15.4563918861446,17.3043765765041
ENSG00000174276,3.81644777860367,29.8087639314921,5.50949010707785,6.44121566585916,0.24042574247642,TMM,ZNHIT2,11,zinc finger HIT-type containing 2,15.87,No,No,0.24042574247642,4.58009107110167,3.58789350459408
ENSG00000170477,1.15559734907916,26356.0490285355,2.91987497486949,741.696148635849,0.0746355957243151,TMM,KRT4,12,keratin 4,15.48,Yes,Yes,0.0746355957243151,0.083737559003625,0.273357574148853
ENSG00000004777,8.37187695197829,114.013404210146,27.5024522752573,43.7495111776213,0.585524916015788,TMM,ARHGAP33,19,Rho GTPase activating protein 33,14.3,No,No,0.585524916015788,10.9872560084236,14.4212605556496
ENSG00000127418,10.2835605498808,149.662138706847,44.7192727217744,51.278835668983,0.729189697253655,TMM,FGFRL1,4,fibroblast growth factor receptor like 1,14.1,No,No,0.729189697253655,30.1327237404612,16.8445314123396
ENSG00000203896,6.12524806407959,206.826684939242,13.1774142329044,21.8993585027052,0.435330030068951,TMM,LIME1,20,Lck interacting transmembrane adaptor 1,14.07,No,No,0.435330030068951,6.7058509960419,8.18648977990998
ENSG00000165802,25.5878725316541,1396.64601488282,71.4802229523153,185.492758061762,1.8629697263815,TMM,NSMF,9,NMDA receptor synaptonuclear signaling and neuronal migration factor,13.73,No,No,1.8629697263815,11.0448516592193,16.4153406033637
ENSG00000177374,5.311069161493,59.0270678963913,16.5286925499902,21.1727066521664,0.40336133570116,TMM,HIC1,17,HIC ZBTB transcriptional repressor 1,13.17,No,No,0.40336133570116,3.62205030803681,4.55545454934571
ENSG00000127415,4.58226520038249,48.7625236404967,18.8395045029415,19.5949401013153,0.354978668927127,TMM,IDUA,4,alpha-L-iduronidase,12.91,No,No,0.354978668927127,3.53427115998381,6.27143267739356
ENSG00000174917,18.5700351718388,86.9942966409323,30.579684731753,35.0954294322782,1.51735794297853,TMM,C19orf70,19,mitochondrial contact site and cristae organizing system subunit 13,12.24,No,No,1.51735794297853,18.1789638329533,15.8142441808416
ENSG00000115286,17.04522603352,126.135771372872,26.6283643829725,32.6466778730132,1.39303286779816,TMM,NDUFS7,19,NADH:ubiquinone oxidoreductase core subunit S7,12.24,No,No,1.39303286779816,25.2364614289348,22.653186138153
ENSG00000148832,2.55536635775844,55.2352135807203,5.17071454482863,6.79884211431366,0.209605836596975,TMM,PAOX,10,polyamine oxidase,12.19,No,No,0.209605836596975,1.11584607418604,1.77437216608718
ENSG00000280071,5.05810223890779,30.2646794430888,7.2098429340548,9.00660609310434,0.416337511037633,TMM,CH507-9B2.3,21,glutamine amidotransferase like class 1 domain containing 3B,12.15,No,No,0.416337511037633,3.92805027371973,5.76648610009003
ENSG00000221821,2.77763494616173,8.24505938536314,4.4135041854943,4.63562214694239,0.23681397114794,TMM,C6orf226,6,chromosome 6 open reading frame 226,11.73,No,No,0.23681397114794,1.6958984716122,1.61253487217867
ENSG00000213221,3.90872237212342,14.1085408640331,6.67583943600368,6.91020077981816,0.338891342545919,TMM,DNLZ,9,DNL-type zinc finger,11.53,No,No,0.338891342545919,3.8960804579365,3.26215638229445
ENSG00000181029,18.3779990495434,170.878801311494,29.1139359366065,33.0164812409605,1.60523209586834,TMM,TRAPPC5,19,trafficking protein particle complex 5,11.45,No,No,1.60523209586834,19.3474565302533,18.0406397934226
ENSG00000007376,8.81125576035111,43.1143744717784,16.4304981587895,17.7781685068293,0.775242643675363,TMM,RPUSD1,16,RNA pseudouridine synthase domain containing 1,11.37,No,No,0.775242643675363,11.4378442728682,12.0794400340829
ENSG00000176978,48.1803116393121,169.670435969162,98.5885991415963,102.080255635006,4.31024676680615,TMM,DPP7,9,dipeptidyl peptidase 7,11.18,No,No,4.31024676680615,34.3287575000182,42.3838770230972
ENSG00000106330,7.1801544715487,38.7053713164726,13.3563257350012,15.1621470324856,0.646411653531838,TMM,MOSPD3,7,motile sperm domain containing 3,11.11,No,No,0.646411653531838,3.67681744917625,4.20665560452983
ENSG00000171401,1.52696019135682,30630.5824262956,4.32748758765852,1010.25489944242,0.140428364870795,TMM,KRT13,17,keratin 13,10.87,Yes,Yes,0.140428364870795,0.120850892236497,0.171444638831091
ENSG00000105649,1.42140449218068,364.601865055481,4.3890538344428,55.4729874985306,0.134404216786869,TMM,RAB3A,19,"RAB3A, member RAS oncogene family",10.58,No,No,0.134404216786869,0.775411833596118,0.944330536911344
ENSG00000171222,20.843676797519,87.7706448171724,36.1339782784731,37.8253133249768,2.00162985485486,TMM,SCAND1,20,SCAN domain containing 1,10.41,No,No,2.00162985485486,20.2418836218095,19.0049259035811
ENSG00000159761,2.14225414956348,28.6741233338997,4.38777035181145,5.97851951736779,0.205993819631919,TMM,C16orf86,16,chromosome 16 open reading frame 86,10.4,No,No,0.205993819631919,1.84394423670549,2.60055550564302
ENSG00000261221,11.9032512273841,89.0428106492257,24.9690132031181,28.0471160012187,1.15877161725371,TMM,ZNF865,19,zinc finger protein 865,10.27,No,No,1.15877161725371,8.7513590836787,10.0566027068568
ENSG00000064545,10.2194885893759,59.3145053195727,19.9021049836065,21.4455981186781,1.00787693584175,TMM,TMEM161A,19,transmembrane protein 161A,10.14,No,No,1.00787693584175,8.16338105447037,8.51926970448186
ENSG00000167676,1.73139762522534,2523.33396524809,36.5267814195465,217.233831923701,0.171099971796164,TMM,PLIN4,19,perilipin 4,10.12,No,No,0.171099971796164,3.39577289017583,1.54341179559176
ENSG00000070423,22.3160649134954,77.3904209747566,31.2807744549716,35.9873239794557,2.21810501123615,TMM,RNF126,19,ring finger protein 126,10.06,No,No,2.21810501123615,30.1105875879824,27.2953860365804
ENSG00000183793,2.0183804824905,36.2027271428763,5.18321784222785,6.96448595748865,0.201986256151262,TMM,NPIPA5,16,nuclear pore complex interacting protein family member A5,9.99,No,No,0.201986256151262,1.1304245899938,1.15022954186253
ENSG00000167508,22.5541464620508,102.091185021371,39.9453738412864,44.9777982714055,2.26389311637644,TMM,MVD,16,mevalonate diphosphate decarboxylase,9.96,No,No,2.26389311637644,18.3696916039184,23.7748776485341
ENSG00000132879,11.9284773721465,299.686420052291,39.7929429413825,71.9648502433834,1.2015606646042,TMM,FBXO44,1,F-box protein 44,9.93,Yes,No,1.2015606646042,2.61723207122835,4.85113335370356
ENSG00000233954,2.64125065230235,22.5473990302856,4.4374588734252,5.86295213355698,0.266134863760347,TMM,UQCRHL,1,ubiquinol-cytochrome c reductase hinge protein like,9.92,Yes,Yes,0.266134863760347,0.345772021204272,0.341962603927394
ENSG00000142409,15.5559541816039,117.852403748089,20.6341801277505,24.9684264808023,1.57183821578544,TMM,ZNF787,19,zinc finger protein 787,9.9,No,No,1.57183821578544,10.0565218861925,11.6853928926983
ENSG00000103266,16.3151728907131,65.4828591311287,31.2484920582225,32.667602739237,1.68339818492187,TMM,STUB1,16,STIP1 homology and U-box containing protein 1,9.69,No,No,1.68339818492187,17.7142396795541,14.9504661037041
ENSG00000125656,21.461358711366,73.6797382053535,28.3058437094107,31.6379834913268,2.22034768558191,TMM,CLPP,19,caseinolytic mitochondrial matrix peptidase proteolytic subunit,9.67,No,No,2.22034768558191,26.2069453122547,18.7458262710405
ENSG00000183426,4.61803391627054,61.8831803002529,11.1756868588964,13.8410688869262,0.495371733730035,TMM,NPIPA1,16,nuclear pore complex interacting protein family member A1,9.32,No,No,0.495371733730035,7.55071772529425,10.9850601858371
ENSG00000109736,24.0011024170735,166.648572078779,54.1227568181717,57.9827977856125,2.62180965852321,TMM,MFSD10,4,major facilitator superfamily domain containing 10,9.15,No,No,2.62180965852321,41.0957050297992,40.0485980752942
ENSG00000274512,1.81740825026269,15.1520938322059,4.58710177734176,5.19778771725598,0.1985483975885,TMM,TBC1D3L,17,TBC1 domain family member 3L,9.15,No,No,0.1985483975885,7.23536663600406,2.81214220792014
ENSG00000073169,19.7717744658981,171.394202266715,28.2644246073672,36.4562274335782,2.17200571335387,TMM,SELENOO,22,selenoprotein O,9.1,No,No,2.17200571335387,19.9478981558747,21.6610405597533
ENSG00000243477,7.7851346424092,36.8247269183224,10.5503845474559,11.6836675969133,0.855622189578374,TMM,NAT6,3,"N-alpha-acetyltransferase 80, NatH catalytic subunit",9.1,No,No,0.855622189578374,4.97256903909797,4.97574165851412
ENSG00000130005,4.01821326460183,480.006989899709,21.0726200166355,43.8335096937367,0.447318140318784,TMM,GAMT,19,guanidinoacetate N-methyltransferase,8.98,No,No,0.447318140318784,5.56199018913361,8.20700652405671
ENSG00000162076,6.45676354636234,26.2827197479119,15.1003030879914,15.6984608237973,0.740106714844742,TMM,FLYWCH2,16,FLYWCH family member 2,8.72,No,No,0.740106714844742,5.11488062901982,7.3802447195028
ENSG00000106009,29.8707307608817,82.889553676959,40.3381967841066,45.0748620143359,3.43971770341867,TMM,BRAT1,7,BRCA1 associated ATM activator 1,8.68,No,No,3.43971770341867,25.075931200542,29.8562453011412
ENSG00000177595,22.7988566064776,61.4662738138597,31.5669058156608,33.2669533444621,2.62539553195728,TMM,PIDD1,11,p53-induced death domain protein 1,8.68,No,No,2.62539553195728,32.4034039565848,35.2247631972663
ENSG00000145214,11.3470631621119,80.5495474914334,28.5630423944458,34.8010069364803,1.30922672690472,TMM,DGKQ,4,diacylglycerol kinase theta,8.67,No,No,1.30922672690472,12.8908068571533,19.617265621625
ENSG00000125648,12.0629117635751,783.597116476527,88.1097553374881,175.484636891622,1.40443003961416,TMM,SLC25A23,19,solute carrier family 25 member 23,8.59,No,No,1.40443003961416,6.27007779904117,7.9227815775224
ENSG00000261236,19.6663629589931,109.283497575459,31.3058990945302,36.0419607628392,2.312392138989,TMM,BOP1,8,BOP1 ribosomal biogenesis factor,8.5,No,No,2.312392138989,47.562695780492,35.2748115410337
ENSG00000166165,7.60872761984787,1567.88086319674,216.138050568404,489.770822520247,0.895045842621862,TMM,CKB,14,creatine kinase B,8.5,No,No,0.895045842621862,5.04908981286666,5.10552176818805
ENSG00000229809,7.29633862209335,23.4398946425833,11.4507911825463,12.2363136378597,0.865914603667027,TMM,ZNF688,16,zinc finger protein 688,8.43,No,No,0.865914603667027,3.71809806349628,3.62456295373875
ENSG00000109107,3.6006245464684,888.320075611406,35.419125451403,202.202247292005,0.429042633076425,TMM,ALDOC,17,"aldolase, fructose-bisphosphate C",8.39,No,No,0.429042633076425,3.36792173650806,2.23126482916149
ENSG00000213563,10.4534536278179,64.1420262129083,19.3563738075826,20.2495437932307,1.24660514847271,TMM,C8orf82,8,chromosome 8 open reading frame 82,8.39,No,No,1.24660514847271,9.808029231012,9.9873298912636
ENSG00000130758,9.72642328605963,220.194864028783,20.7526472449317,50.4819742964464,1.1664323137957,TMM,MAP3K10,19,mitogen-activated protein kinase kinase kinase 10,8.34,No,No,1.1664323137957,5.66393101604299,8.74083766786659
ENSG00000173137,6.09748618025389,26.0531383286877,11.8046557178618,12.5276294315978,0.735339803237588,TMM,ADCK5,8,aarF domain containing kinase 5,8.29,No,No,0.735339803237588,5.59907537367001,6.57671915855871
ENSG00000151006,2.03595288465966,27.4839921195755,3.92785043686852,5.1094195078287,0.245810935163799,TMM,PRSS53,16,serine protease 53,8.28,No,No,0.245810935163799,2.69634710511351,2.78724718428562
ENSG00000167526,388.219588836593,2196.111603742,875.566356282485,953.662511546153,47.1034041571152,TMM,RPL13,16,ribosomal protein L13,8.24,No,No,47.1034041571152,508.007070803395,429.392610347149
ENSG00000133265,20.4412070821569,119.962822341222,32.4792409270678,40.5680559522886,2.48570940540211,TMM,HSPBP1,19,HSPA (Hsp70) binding protein 1,8.22,No,No,2.48570940540211,15.1153366000057,13.988784701019
ENSG00000277972,8.32886753229662,98.4938140564876,21.9763740552044,23.8323642876599,1.01377705262946,TMM,CISD3,17,CDGSH iron sulfur domain 3,8.22,No,No,1.01377705262946,4.87673742942903,6.3632177323845
ENSG00000146540,21.9890442690718,104.895502648063,47.068313008445,50.7178759501612,2.68007220726133,TMM,C7orf50,7,chromosome 7 open reading frame 50,8.2,No,No,2.68007220726133,18.6250857442555,20.836512263011
ENSG00000125520,20.6838225499457,208.791239069354,49.8206008240391,53.5153078196564,2.52608225193332,TMM,SLC2A4RG,20,SLC2A4 regulator,8.19,No,No,2.52608225193332,24.300730238956,33.1222124696335
ENSG00000162585,16.0010716457624,51.1801238536809,26.4059735485916,27.9127352908167,1.95767428177157,TMM,FAAP20,1,FA core complex associated protein 20,8.17,No,No,1.95767428177157,29.2575470980643,32.5444355626341
ENSG00000173581,5.89808848485412,72.4176931369226,17.9281904220276,24.9991583946745,0.721920284198367,TMM,CCDC106,19,coiled-coil domain containing 106,8.17,No,No,0.721920284198367,4.83888138776254,6.69165698501028
ENSG00000232434,4.3681104098186,173.027806892267,17.5795099242367,33.0101076795338,0.535042084113806,TMM,C9orf172,9,apical junction component 1 homolog,8.16,No,No,0.535042084113806,9.59536275265087,7.17007272535681
ENSG00000160221,1.40158724935001,10.1908747285305,2.22082504450788,2.78389242503397,0.172741342088581,TMM,C21orf33,21,glutamine amidotransferase like class 1 domain containing 3A,8.11,No,No,0.172741342088581,2.16818642084738,1.00915748713471
ENSG00000103260,3.23257491467109,250.496395121014,21.1354177583023,55.0926206990246,0.398464246410552,TMM,METRN,16,"meteorin, glial cell differentiation regulator",8.11,No,No,0.398464246410552,2.11281599993447,4.34591808160311
ENSG00000242612,5.65179337239636,186.988918471942,11.2121409047125,16.638031508168,0.697390870270391,TMM,DECR2,16,"2,4-dienoyl-CoA reductase 2",8.1,No,No,0.697390870270391,7.96231325357687,9.29211964685396
ENSG00000205309,1.0679303039822,21.1394928774094,3.81642014349573,5.95405043641883,0.132102344271341,TMM,NT5M,17,"5',3'-nucleotidase, mitochondrial",8.08,No,No,0.132102344271341,1.56140059601611,1.29368527733544
ENSG00000167487,8.81167606816599,74.9095838021646,17.3132336228751,20.2851900048349,1.09404053047081,TMM,KLHL26,19,kelch like family member 26,8.05,No,No,1.09404053047081,3.22167358174802,3.70681963366574
ENSG00000126215,7.71530652472278,36.3253279863738,16.5408060537599,16.6887832188073,0.961256120658488,TMM,XRCC3,14,X-ray repair cross complementing 3,8.03,No,No,0.961256120658488,24.9332343080649,23.7882817675365
ENSG00000183655,4.4259246798263,47.7538289034849,12.1974334038762,13.5345657042511,0.553269024057639,TMM,KLHL25,15,kelch like family member 25,8,No,No,0.553269024057639,3.57312988291568,3.34074438814287
ENSG00000197483,3.30132783298892,33.7493778474409,8.17579274761212,8.67638743643897,0.412774694935001,TMM,ZNF628,19,zinc finger protein 628,8,No,No,0.412774694935001,3.24464039646154,2.84836428667102
ENSG00000215375,5.88600388818819,23.4145891381317,12.4894883507748,13.1861566942151,0.739106931085199,TMM,MYL5,4,myosin light chain 5,7.96,No,No,0.739106931085199,9.6706775162958,10.5872719189217
ENSG00000187193,6.0997395412684,1169.83152208455,83.7917700796825,155.502561949517,0.771220754616677,TMM,MT1X,16,metallothionein 1X,7.91,No,No,0.771220754616677,7.87337219206604,5.5504568507116
ENSG00000163704,1.31355229622798,36.7450472000349,4.95828603748061,10.3939437818824,0.167067280025969,TMM,PRRT3,3,proline rich transmembrane protein 3,7.86,No,No,0.167067280025969,0.849963815434404,1.21635534172612
ENSG00000112667,3.87931895973369,50.1680815508011,15.70084294119,20.0249853815833,0.494278155883927,TMM,DNPH1,6,2'-deoxynucleoside 5'-phosphate N-hydrolase 1,7.85,No,No,0.494278155883927,6.07222035497354,7.27576238430538
ENSG00000008710,40.9593812870552,1995.83665096133,206.089459043532,316.162990047924,5.23351752604551,TMM,PKD1,16,"polycystin 1, transient receptor potential channel interacting",7.83,No,No,5.23351752604551,60.6695149389721,96.2648363731658
ENSG00000187051,34.8099361212504,82.1506950405876,53.3456555764776,54.1337211754618,4.45429311631508,TMM,RPS19BP1,22,ribosomal protein S19 binding protein 1,7.81,No,No,4.45429311631508,28.2520205229315,25.096342827111
ENSG00000095906,25.7290519002496,66.078670077498,36.3521984582707,37.6243109351602,3.30971715965442,TMM,NUBP2,16,nucleotide binding protein 2,7.77,No,No,3.30971715965442,28.2227145026163,29.1240407292104
ENSG00000116649,28.3500981085452,146.282704444612,49.9111212926491,54.8193229494909,3.65139892682236,TMM,SRM,1,spermidine synthase,7.76,No,No,3.65139892682236,29.3418878626691,25.8443297657683
ENSG00000198064,1.31524087699657,5.52548002580743,2.52536272623266,2.6516514838711,0.170316925461074,TMM,NPIPB13,16,"nuclear pore complex interacting protein family, member B13",7.72,No,No,0.170316925461074,1.3384183165476,1.24102165408042
ENSG00000122490,37.5232000953308,311.124269153491,70.2095224160162,85.5160557750066,4.91678776500497,TMM,PQLC1,18,solute carrier family 66 member 2,7.63,No,No,4.91678776500497,23.3165371171349,23.9523823465405
ENSG00000104524,4.21856953772698,25.0956609028444,8.91781739309149,10.9837269146649,0.553367018792746,TMM,PYCRL,8,pyrroline-5-carboxylate reductase 3,7.62,No,No,0.553367018792746,5.01919546117082,4.64322485201881
ENSG00000099821,36.4551469466843,133.789652632648,49.73775892038,53.0752542006417,4.7994441103708,TMM,POLRMT,19,RNA polymerase mitochondrial,7.6,No,No,4.7994441103708,33.7471347735666,27.9884574844028
ENSG00000162572,3.01474083068929,60.525938783824,12.8229487968324,17.4467956827098,0.39754433450801,TMM,SCNN1D,1,sodium channel epithelial 1 subunit delta,7.58,No,No,0.39754433450801,2.68544679142135,5.36162597663816
ENSG00000184967,9.93653040251844,40.433975919363,14.9568208802495,15.7995319571935,1.32857645868204,TMM,NOC4L,12,nucleolar complex associated 4 homolog,7.48,No,No,1.32857645868204,10.9384707589376,10.6714151346329
ENSG00000130511,19.7674749023947,129.001602845669,38.6750488729316,48.6983719615046,2.70007123383805,TMM,SSBP4,19,single stranded DNA binding protein 4,7.32,No,No,2.70007123383805,23.7216250916381,28.8905638482426
ENSG00000228300,10.3522104488774,51.9738104752304,16.2836870150119,18.5048524716641,1.42384121326479,TMM,C19orf24,19,family with sequence similarity 174 member C,7.27,No,No,1.42384121326479,21.3026354087812,18.3523353833421
ENSG00000065268,14.7648919314252,42.9398056652727,20.8544366337656,23.0964343448754,2.0369851780139,TMM,WDR18,19,WD repeat domain 18,7.25,No,No,2.0369851780139,25.6814517694389,27.4638769155853
ENSG00000160972,12.6873893243314,106.87425920437,39.5063412194301,43.8895115816902,1.75268903813875,TMM,PPP1R16A,8,protein phosphatase 1 regulatory subunit 16A,7.24,No,No,1.75268903813875,13.0596747560424,15.8538645015631
ENSG00000159069,64.8698919521666,367.744683247262,118.925043884181,140.201007547242,8.97515968849412,TMM,FBXW5,9,F-box and WD repeat domain containing 5,7.23,No,No,8.97515968849412,100.364966240108,77.2698327067205
ENSG00000108479,5.61974970157534,91.9063994860576,12.9970068266095,15.9252807550951,0.785028132430539,TMM,GALK1,17,galactokinase 1,7.16,No,No,0.785028132430539,21.8548272168072,14.5697728613395
ENSG00000144199,2.56019633794776,24.9398992178096,10.5688508909474,12.7294839175277,0.359251096943275,TMM,FAHD2B,2,fumarylacetoacetate hydrolase domain containing 2B,7.13,No,No,0.359251096943275,1.85994595944704,1.82379589385084
ENSG00000167799,1.32267219716823,30.7809235337137,3.28922858232054,5.93805558260128,0.186375904045018,TMM,NUDT8,11,nudix hydrolase 8,7.1,No,No,0.186375904045018,4.1526952561171,2.75377251779133
ENSG00000100258,37.8944011510633,315.879220302867,78.2098107075655,80.6138020402752,5.4146081998003,TMM,LMF2,22,lipase maturation factor 2,7,No,No,5.4146081998003,68.9551846291608,75.5385016903069
ENSG00000184897,26.5353398671594,237.414094817587,64.3553661619848,68.7547879590452,3.80177456026357,TMM,H1FX,3,H1.10 linker histone,6.98,No,No,3.80177456026357,36.0257315197856,39.8705465771229
ENSG00000179526,29.170407103621,172.712808413963,40.4855198568178,45.3854350439961,4.19087882790569,TMM,SHARPIN,8,SHANK associated RH domain interactor,6.96,No,No,4.19087882790569,26.1141693795577,26.8408651690935
ENSG00000179271,17.4943291280028,62.5107694038781,29.7687112871332,33.2229151246909,2.52363956666604,TMM,GADD45GIP1,19,GADD45G interacting protein 1,6.93,No,No,2.52363956666604,25.3387868595932,23.281137517615
ENSG00000110717,32.0703466077113,198.946496564395,50.4001731716592,60.5312741448581,4.62664805235159,TMM,NDUFS8,11,NADH:ubiquinone oxidoreductase core subunit S8,6.93,No,No,4.62664805235159,28.3576183730725,29.0248536304364
ENSG00000243509,1.64317473398762,41.1461961366958,14.942801897103,16.5495286067259,0.237534862750705,TMM,TNFRSF6B,20,TNF receptor superfamily member 6b,6.92,No,No,0.237534862750705,8.41321947187917,7.34027238565624
ENSG00000131591,5.30287770711331,37.9159078911229,16.4394094009801,16.3098065843326,0.773963770530011,TMM,C1orf159,1,chromosome 1 open reading frame 159,6.85,No,No,0.773963770530011,10.012905690555,11.0407568190569
ENSG00000169733,17.4441612660087,103.661733316163,36.8557324453404,38.7072056621292,2.55001080407194,TMM,RFNG,17,RFNG O-fucosylpeptide 3-beta-N-acetylglucosaminyltransferase,6.84,No,No,2.55001080407194,21.2556958181892,21.6954113829272
ENSG00000141577,8.75135984082325,34.8899714820308,14.1458761339109,15.5625717799359,1.27969029755931,TMM,CEP131,17,centrosomal protein 131,6.84,No,No,1.27969029755931,11.4929640438881,13.8978617793926
ENSG00000197530,25.5074065239253,172.099960635739,64.742381548038,69.0153723769836,3.73430263621432,TMM,MIB2,1,mindbomb E3 ubiquitin protein ligase 2,6.83,No,No,3.73430263621432,74.9294938060891,82.8465992824708
ENSG00000248487,4.45738634960219,64.4231594180933,12.1995587710047,19.2864366084193,0.653029655124164,TMM,ABHD14A,3,abhydrolase domain containing 14A,6.83,No,No,0.653029655124164,3.63895212343441,5.5364530667504
ENSG00000187961,3.84280134035807,28.0610676275431,12.9987202686165,13.0626141997104,0.569846658275604,TMM,KLHL17,1,kelch like family member 17,6.74,No,No,0.569846658275604,8.88281883554343,12.7555163645398
ENSG00000100726,30.8226203849462,68.9274466547972,39.9536563329373,40.3660940700862,4.61579272970546,TMM,TELO2,16,telomere maintenance 2,6.68,No,No,4.61579272970546,54.3937228937303,45.1605366707997
ENSG00000254206,1.60296028320864,7.56028181878607,3.61800395198838,3.74242846585473,0.248156069103133,TMM,NPIPB11,16,nuclear pore complex interacting protein family member B11,6.46,No,No,0.248156069103133,2.83820441960891,2.01570816737352
ENSG00000171045,7.41855570512754,38.00894598396,15.5673324071038,16.8444608022596,1.14906075855294,TMM,TSNARE1,8,t-SNARE domain containing 1,6.46,No,No,1.14906075855294,4.37192374220427,6.28118401820655
ENSG00000204536,13.0489875786662,165.099714266527,20.0482079693253,24.1844829743743,2.02133887830365,TMM,CCHCR1,6,coiled-coil alpha-helical rod protein 1,6.46,No,No,2.02133887830365,7.78200383661417,9.70863589871395
ENSG00000158716,5.54575235599245,81.7227943936214,16.9717111034634,21.0226734125336,0.87272601404503,TMM,DUSP23,1,dual specificity phosphatase 23,6.35,No,No,0.87272601404503,3.01177797671184,4.97429643737047
ENSG00000178814,2.68425530286579,110.258374354542,21.3722077759185,31.4971950120606,0.424429280149755,TMM,OPLAH,8,"5-oxoprolinase, ATP-hydrolysing",6.32,No,No,0.424429280149755,6.89503691788926,7.78588281076898
ENSG00000105701,162.026431578878,8664.896832279,251.305589877512,480.736429367263,25.7094836667654,TMM,FKBP8,19,FKBP prolyl isomerase 8,6.3,No,No,25.7094836667654,153.502942544764,125.688062052077
ENSG00000167967,22.6382528031916,54.0057502133298,28.4998093365221,30.598670608626,3.59441214829719,TMM,E4F1,16,E4F transcription factor 1,6.3,No,No,3.59441214829719,27.6573675570963,26.5695317502968
ENSG00000129932,8.55568274369266,61.380439307109,12.9242001396593,17.2547675468519,1.36759801329101,TMM,DOHH,19,deoxyhypusine hydroxylase,6.26,No,No,1.36759801329101,9.71240155597995,8.93779456557412
ENSG00000174177,8.28219084748731,19.2944256211438,11.7529816289111,11.9310525443213,1.33665792613941,TMM,CTU2,16,cytosolic thiouridylase subunit 2,6.2,No,No,1.33665792613941,9.56152007006387,7.71710564176232
ENSG00000160813,3.01635442920312,15.7516731710712,5.71845342750992,6.2890977653509,0.489913337626581,TMM,PPP1R35,7,protein phosphatase 1 regulatory subunit 35,6.16,No,No,0.489913337626581,11.8469072545181,10.1324150398408
ENSG00000167996,109.574045364689,3664.76172206028,453.373660109225,534.185091519195,17.8206760979566,TMM,FTH1,11,ferritin heavy chain 1,6.15,No,No,17.8206760979566,172.239517967419,206.322455726396
ENSG00000185504,20.3143247981248,95.2583508476529,36.8522196480284,39.378267066826,3.31433573832453,TMM,FAAP100,17,FA core complex associated protein 100,6.13,No,No,3.31433573832453,31.5245581965226,25.8989158566996
ENSG00000099795,31.3680121431794,167.445480086996,53.0703735308057,58.0198668777023,5.12478176616073,TMM,NDUFB7,19,NADH:ubiquinone oxidoreductase subunit B7,6.12,No,No,5.12478176616073,35.2718434535767,33.8075636669543
ENSG00000099904,29.6134284780798,131.003793015523,54.2913968602188,55.9860089854036,4.84170939120578,TMM,ZDHHC8,22,zinc finger DHHC-type palmitoyltransferase 8,6.12,No,No,4.84170939120578,27.9812991042963,35.2757163688948
ENSG00000159733,2.85303447520175,154.808949395308,16.4938536501655,23.9646050746299,0.472593781481269,TMM,ZFYVE28,4,zinc finger FYVE-type containing 28,6.04,Yes,No,0.472593781481269,0.63728102470267,0.987070431185708
ENSG00000125458,6.18315732117548,20.9473936306778,13.2080324150212,13.3844497149692,1.03481570585808,TMM,NT5C,17,"5', 3'-nucleotidase, cytosolic",5.98,No,No,1.03481570585808,9.39060016401469,9.81023476260427
ENSG00000103152,6.51771258899507,34.782436493973,15.4012583457756,15.9041782009792,1.09107057365075,TMM,MPG,16,N-methylpurine DNA glycosylase,5.97,No,No,1.09107057365075,12.7457524607755,13.369821294358
ENSG00000161249,2.19286649526947,2755.75204359676,8.95036445169583,131.606953590343,0.367768589501381,TMM,DMKN,19,dermokine,5.96,No,No,0.367768589501381,1.15516034311097,1.68080748892152
ENSG00000007520,17.4143634891019,47.5763001606791,29.9475036457815,29.495280863787,2.92260957947294,TMM,TSR3,16,TSR3 ribosome maturation factor,5.96,No,No,2.92260957947294,20.3473303185016,20.3083741485119
ENSG00000187609,8.79108905463682,39.2203921251145,23.3283058653759,24.0961038631699,1.48133068018505,TMM,EXD3,9,exonuclease 3'-5' domain containing 3,5.93,No,No,1.48133068018505,6.0533861340736,11.733288333371
ENSG00000238083,4.36622343773813,15.0437152455243,7.38977217557804,8.22156674475867,0.736000308146567,TMM,LRRC37A2,17,leucine rich repeat containing 37 member A2,5.93,No,No,0.736000308146567,5.58915816002333,4.80719958071934
ENSG00000242802,21.6482521493779,128.060176652875,34.8205908484413,37.3044937612394,3.66939566330783,TMM,AP5Z1,7,adaptor related protein complex 5 subunit zeta 1,5.9,No,No,3.66939566330783,30.5201391823859,27.1586018200251
ENSG00000103326,19.3166399221757,118.518710039703,44.6774863403488,51.4670279384705,3.2816819326774,TMM,CAPN15,16,calpain 15,5.89,No,No,3.2816819326774,37.0333003166446,40.5931416161621
ENSG00000181638,6.00216929917848,25.2047336864659,12.3608978609918,13.451050547848,1.02640688831012,TMM,ZFP41,8,ZFP41 zinc finger protein,5.85,No,No,1.02640688831012,5.04405946309232,5.29418547904096
ENSG00000085644,7.68195764204095,53.510107547244,18.8795263816143,20.6490348350543,1.3229699708837,TMM,ZNF213,16,zinc finger protein 213,5.81,No,No,1.3229699708837,7.63867545176974,7.25656731070574
ENSG00000108557,16.2490182453403,73.6716157604371,45.6579206683127,45.3002618094499,2.80119861675723,TMM,RAI1,17,retinoic acid induced 1,5.8,No,No,2.80119861675723,12.1181411712685,19.3988020218716
ENSG00000140263,3.75221780021695,273.72598949389,7.8221685361871,24.4107339535901,0.648230856052682,TMM,SORD,15,sorbitol dehydrogenase,5.79,No,No,0.648230856052682,1.67783049327572,2.54341008725693
ENSG00000133275,50.8127521909672,312.290567107653,70.7588829143661,80.6872776235823,8.80955147172666,TMM,CSNK1G2,19,casein kinase 1 gamma 2,5.77,No,No,8.80955147172666,57.4327319100513,53.1237099348618
ENSG00000170638,15.9766726711633,288.540783143627,36.6032987763352,46.1743555116954,2.7761175360338,TMM,TRABD,22,TraB domain containing,5.76,No,No,2.7761175360338,35.6996670628698,32.833394176146
ENSG00000168765,15.316974732418,71.6307677788102,29.4854500668472,30.7663978082013,2.66355130004827,TMM,GSTM4,1,glutathione S-transferase mu 4,5.75,No,No,2.66355130004827,8.46066961374988,8.65895264677626
ENSG00000126243,4.23992085781508,24.9852975356394,13.7058216659773,14.4020228749719,0.73886820752586,TMM,LRFN3,19,leucine rich repeat and fibronectin type III domain containing 3,5.74,No,No,0.73886820752586,2.65367494950868,3.83813983487874
ENSG00000162526,2.02296138699971,22.1747546534743,5.68400959578131,6.06375991826266,0.353656754683887,TMM,TSSK3,1,testis specific serine kinase 3,5.72,No,No,0.353656754683887,5.21746919292346,5.06912545065776
ENSG00000197982,13.6015891744144,124.329948139829,33.4721410343224,42.818637225407,2.38568100904676,TMM,C1orf122,1,chromosome 1 open reading frame 122,5.7,No,No,2.38568100904676,29.4703328973177,24.5686537487661
ENSG00000131697,9.0707245571144,47.2249367830351,15.1335852153593,16.6188932447033,1.59340859781133,TMM,NPHP4,1,nephrocystin 4,5.69,No,No,1.59340859781133,5.88037096592855,8.42482553928259
ENSG00000127586,7.84245113887158,44.7839854489951,12.8906550878238,15.3142070000397,1.3780004821413,TMM,CHTF18,16,chromosome transmission fidelity factor 18,5.69,No,No,1.3780004821413,31.8871189345704,30.9633077831573
ENSG00000135617,6.98793532028824,64.9227030146283,15.2650050325725,18.2831799666472,1.22924565154114,TMM,PRADC1,2,protease associated domain containing 1,5.68,No,No,1.22924565154114,6.83743260672466,7.56820125941434
ENSG00000111674,11.3057902701776,1368.46708321907,63.8650261876751,202.607202910744,2.0127171928306,TMM,ENO2,12,enolase 2,5.62,No,No,2.0127171928306,3.66101713994007,4.37768076901227
ENSG00000133243,38.657531815146,281.824002732094,83.1893022436424,104.237197254576,6.89921820464561,TMM,BTBD2,19,BTB domain containing 2,5.6,No,No,6.89921820464561,53.6627232135864,56.6742102028665
ENSG00000132382,28.5534044406228,101.885214255507,50.2644061327214,54.7893919741169,5.12462327780125,TMM,MYBBP1A,17,MYB binding protein 1a,5.57,No,No,5.12462327780125,18.5205527056234,18.8068318253021
ENSG00000127445,25.4875510279929,164.877254992346,46.0796687319309,61.1769116069541,4.57706750399486,TMM,PIN1,19,"peptidylprolyl cis/trans isomerase, NIMA-interacting 1",5.57,No,No,4.57706750399486,22.4513865783371,25.200429571579
ENSG00000183751,23.1115039449492,70.3862600157699,31.5913961315634,34.6480041954623,4.16490879785605,TMM,TBL3,16,transducin beta like 3,5.55,No,No,4.16490879785605,25.3323957565621,20.8289924054994
ENSG00000166166,11.9113144050554,53.7741296152144,23.3024655494017,25.9583888542011,2.1521733142002,TMM,TRMT61A,14,tRNA methyltransferase 61A,5.53,No,No,2.1521733142002,8.87567200303609,8.82960552744511
ENSG00000103145,15.7820229360219,140.537500313909,41.5378705261641,50.6520930714083,2.88652099932595,TMM,HCFC1R1,16,host cell factor C1 regulator 1,5.47,No,No,2.88652099932595,17.5759894914298,21.0660842906686
ENSG00000125912,36.9577177373178,181.20605656942,51.6857657012102,61.8611662596814,6.76563391763312,TMM,NCLN,19,nicalin,5.46,No,No,6.76563391763312,55.5504453234415,43.6177379547353
ENSG00000103202,21.5803945118368,138.62983449958,55.6354025444086,60.7927242059754,3.97071858547814,TMM,NME4,16,NME/NM23 nucleoside diphosphate kinase 4,5.43,No,No,3.97071858547814,24.8020666492128,38.1441506348242
ENSG00000139190,13.289461971872,161.977628353175,33.5967801888962,42.9839161350147,2.44570346933294,TMM,VAMP1,12,vesicle associated membrane protein 1,5.43,Yes,No,2.44570346933294,4.24341138526528,7.01522791252376
ENSG00000126934,67.4450117870829,332.256448991853,109.422033607974,111.905127388097,12.4642931277564,TMM,MAP2K2,19,mitogen-activated protein kinase kinase 2,5.41,No,No,12.4642931277564,62.2131943909789,61.0059200980431
ENSG00000148343,26.7715745769527,81.5224101775836,42.9478870049384,45.3969522419329,4.95284168557553,TMM,MIGA2,9,mitoguardin 2,5.41,No,No,4.95284168557553,20.3530567233285,19.3911269541563
ENSG00000187630,3.99686345385056,56.2660922523183,12.1356128577054,13.561497185126,0.741152794038371,TMM,DHRS4L2,14,dehydrogenase/reductase 4 like 2,5.39,No,No,0.741152794038371,4.98566891021762,5.16606459461285
ENSG00000205138,6.8400129877942,21.2719020519965,11.7214618674464,11.7871732536585,1.27072469364287,TMM,SDHAF1,19,succinate dehydrogenase complex assembly factor 1,5.38,No,No,1.27072469364287,7.5561729140967,6.24706281172953
ENSG00000176715,10.8889576221616,33.4662740766839,15.8604460196324,17.1451721139191,2.0244677922224,TMM,ACSF3,16,acyl-CoA synthetase family member 3,5.38,No,No,2.0244677922224,7.62257330221476,8.37219749192193
ENSG00000197785,13.4301480499042,38.7453328911946,17.6387886597675,19.9542339154502,2.50581516680159,TMM,ATAD3A,1,ATPase family AAA domain containing 3A,5.36,No,No,2.50581516680159,31.5386820909377,19.6743422466989
ENSG00000108106,4.32936846546849,85.0551563812159,11.4209072998906,17.7694950275386,0.810384462697204,TMM,UBE2S,19,ubiquitin conjugating enzyme E2 S,5.34,No,No,0.810384462697204,20.9188782647268,19.7221957234898
ENSG00000213999,2.22690508505349,44.696686423693,6.19814047400517,7.52124929755457,0.419572264400957,TMM,MEF2B,19,myocyte enhancer factor 2B,5.31,No,No,0.419572264400957,1.7640493072453,2.26818977716047
ENSG00000167969,12.1553395815969,129.493632678434,30.5995059474519,38.1406833802546,2.29520733684616,TMM,ECI1,16,enoyl-CoA delta isomerase 1,5.3,No,No,2.29520733684616,32.4412174575712,24.9494779785267
ENSG00000138834,80.7294381668435,668.08412340174,137.048460619362,186.224233762435,15.2999714971459,TMM,MAPK8IP3,16,mitogen-activated protein kinase 8 interacting protein 3,5.28,No,No,15.2999714971459,120.644631909473,122.472397685728
ENSG00000160226,6.08028051800686,22.6713979590198,13.1193885269955,14.5161446347146,1.16031722357616,TMM,C21orf2,21,cilia and flagella associated protein 410,5.24,No,No,1.16031722357616,13.4594015931917,15.0071042333126
ENSG00000112139,2.63044139762675,704.987368122706,15.6238498697241,42.8980862266688,0.502050164712292,TMM,MDGA1,6,MAM domain containing glycosylphosphatidylinositol anchor 1,5.24,No,No,0.502050164712292,4.33484000504713,2.58928194236448
ENSG00000083807,1.91849102477304,676.008017031327,3.74713888927369,19.536470697239,0.367523911573046,TMM,SLC27A5,19,solute carrier family 27 member 5,5.22,No,No,0.367523911573046,1.55798424740954,1.94875459300096
ENSG00000007541,22.6634980806672,113.912562499685,48.9611953494665,52.8016524796715,4.34789156909005,TMM,PIGQ,16,phosphatidylinositol glycan anchor biosynthesis class Q,5.21,No,No,4.34789156909005,25.2460542753928,27.2055764980875
ENSG00000132330,5.83957630711808,57.2179743925545,10.496750808944,12.6901197879391,1.12583231320853,TMM,SCLY,2,selenocysteine lyase,5.19,No,No,1.12583231320853,2.68294227121138,3.23070819301414
ENSG00000167700,6.61420044240694,43.0652344500485,17.6164576115341,16.849661325194,1.27558078855973,TMM,MFSD3,8,major facilitator superfamily domain containing 3,5.19,No,No,1.27558078855973,11.4053449259202,7.82608560572827
ENSG00000160326,1.74286443879302,46.7321799499151,6.65941621060929,12.1736828545365,0.336779941301436,TMM,SLC2A6,9,solute carrier family 2 member 6,5.18,No,No,0.336779941301436,2.42508268229189,5.2610721989044
ENSG00000198720,2.15140712250036,104.827490444819,15.5985628313117,24.5266934243026,0.41606141975666,TMM,ANKRD13B,17,ankyrin repeat domain 13B,5.17,No,No,0.41606141975666,4.62664621309975,4.37867739785377
ENSG00000133250,8.45667690476711,21.2170022762281,14.3507956464742,14.6521337868284,1.63918781722669,TMM,ZNF414,19,zinc finger protein 414,5.16,No,No,1.63918781722669,7.05339272865065,8.80073563762015
ENSG00000185838,2.39761681048608,8.02658666087571,3.90371749079074,4.23030352243906,0.465492396368224,TMM,GNB1L,22,G protein subunit beta 1 like,5.15,No,No,0.465492396368224,4.0451666344152,3.68862841812066
ENSG00000233276,39.6372193769096,1194.69540475234,100.982758765041,143.043667593842,7.70984530271423,TMM,GPX1,3,glutathione peroxidase 1,5.14,No,No,7.70984530271423,66.2646886559922,90.422431167043
ENSG00000213347,2.96417728664442,95.4094043302505,6.64448524729021,9.24221758943277,0.576678204145582,TMM,MXD3,5,MAX dimerization protein 3,5.14,No,No,0.576678204145582,11.4665215923216,11.1194978620165
ENSG00000065057,4.9066968439825,25.7219884152504,7.8886655766477,9.02808478394291,0.957460806990554,TMM,NTHL1,16,nth like DNA glycosylase 1,5.12,No,No,0.957460806990554,3.14279062853942,3.68137496911915
ENSG00000006282,28.0763373428238,195.434422406265,66.7663697496435,70.9656034019743,5.49582772775846,TMM,SPATA20,17,spermatogenesis associated 20,5.11,No,No,5.49582772775846,18.1393157445801,29.3969636148905
ENSG00000187024,2.97398307063966,17.7828433081793,7.24924578148901,7.6344925814342,0.582317992433113,TMM,PTRH1,9,peptidyl-tRNA hydrolase 1 homolog,5.11,No,No,0.582317992433113,3.35553955846735,3.56669560988117
ENSG00000105364,14.0106042099838,58.4511363987157,23.4445863082581,25.7675942731722,2.7644942386354,TMM,MRPL4,19,mitochondrial ribosomal protein L4,5.07,No,No,2.7644942386354,26.3681495332229,26.8454871166786
ENSG00000169031,1.2493651594673,149.116188277012,6.67175870627936,21.0499333438437,0.246836215401497,TMM,COL4A3,2,collagen type IV alpha 3 chain,5.06,Yes,Yes,0.246836215401497,0.161972405458223,0.382348170886652
ENSG00000141971,8.98839374002123,41.2572045089484,20.0316603928642,20.599738250178,1.77679556485232,TMM,MVB12A,19,multivesicular body subunit 12A,5.06,No,No,1.77679556485232,12.9682035186377,15.77002606396
ENSG00000141504,23.3480042934196,189.926430412742,51.2983759024928,54.7786238584037,4.62220766834292,TMM,SAT2,17,spermidine/spermine N1-acetyltransferase family member 2,5.05,No,No,4.62220766834292,14.4372295653257,17.4913199294316
ENSG00000079432,82.3209002637944,320.95654767926,127.039361350898,139.187651710082,16.3354519685604,TMM,CIC,19,capicua transcriptional repressor,5.04,No,No,16.3354519685604,50.9402059889098,55.3173347873792
ENSG00000175756,32.6642511977018,140.71126276828,54.9567339045979,65.0760514568925,6.56962271715605,TMM,AURKAIP1,1,aurora kinase A interacting protein 1,4.97,No,No,6.56962271715605,50.2716323121724,42.3511291966541
ENSG00000185803,14.4134148132987,57.4141866823386,26.2643785313368,28.316557009361,2.89960381034354,TMM,SLC52A2,8,solute carrier family 52 member 2,4.97,No,No,2.89960381034354,43.8492125245827,37.5468376203625
ENSG00000161036,9.48584630187197,297.439898890043,14.3851763170772,23.5307750057169,1.91133680788347,TMM,LRWD1,7,leucine rich repeats and WD repeat domain containing 1,4.96,No,No,1.91133680788347,8.36808840612546,8.31971621917097
ENSG00000174516,4.41204963040245,61.6444997091396,15.0163572675556,20.6881800917232,0.889573761563325,TMM,PELI3,11,pellino E3 ubiquitin protein ligase family member 3,4.96,No,No,0.889573761563325,3.48692236925009,4.38194032989845
ENSG00000089486,21.3870044161193,236.825860755464,40.4443066723899,77.886886106403,4.32345981915918,TMM,CDIP1,16,cell death inducing p53 target 1,4.95,No,No,4.32345981915918,7.66541295079482,10.1123718198907
ENSG00000136840,7.34974482099645,102.33937652098,17.5006123143119,22.2572829674479,1.48686962188634,TMM,ST6GALNAC4,9,"ST6 N-acetylgalactosaminide alpha-2,6-sialyltransferase 4",4.94,No,No,1.48686962188634,15.4345420795562,8.58475656454716
ENSG00000178057,18.7374621136655,161.231792875197,42.2722806761911,48.8165834001469,3.79873214623762,TMM,NDUFAF3,3,NADH:ubiquinone oxidoreductase complex assembly factor 3,4.93,No,No,3.79873214623762,20.7434323874004,20.6829461923515
ENSG00000170604,13.3423895878108,50.7384188795413,25.3405007076263,26.3080953990357,2.72438507870164,TMM,IRF2BP1,19,interferon regulatory factor 2 binding protein 1,4.9,No,No,2.72438507870164,14.2076023700663,12.559576061005
ENSG00000115268,111.791891252812,664.829646304309,262.029279461558,289.948044165003,22.9333955039304,TMM,RPS15,19,ribosomal protein S15,4.87,No,No,22.9333955039304,162.150338217384,156.130037591796
ENSG00000172731,3.89218788172021,322.187958506678,11.9217882342424,27.023584813864,0.799626576754607,TMM,LRRC20,10,leucine rich repeat containing 20,4.87,Yes,No,0.799626576754607,1.04451112209729,2.27278085463101
ENSG00000258315,2.73374098817707,16.718639135459,3.64004161004865,4.34718543129268,0.564372833878206,TMM,C17orf49,17,chromosome 17 open reading frame 49,4.84,No,No,0.564372833878206,13.7490428455997,9.7127460591719
ENSG00000133027,6.61532025309898,156.076280106871,14.3906232428859,18.8434937052413,1.36697391039607,TMM,PEMT,17,phosphatidylethanolamine N-methyltransferase,4.84,No,No,1.36697391039607,5.35616421717948,5.15822256850517
ENSG00000149823,45.3536375165287,195.081667736494,78.4260485424765,82.5290937203692,9.38154043008217,TMM,VPS51,11,VPS51 subunit of GARP complex,4.83,No,No,9.38154043008217,63.8981503488138,49.3336176756997
ENSG00000213339,15.825100417797,115.787394971021,43.042928048534,46.7492551423855,3.27728141286707,TMM,QTRT1,19,queuine tRNA-ribosyltransferase catalytic subunit 1,4.83,No,No,3.27728141286707,18.7671799492591,23.4796127386493
ENSG00000140691,10.7144361034686,45.7659796465745,17.3095282704753,18.3278260534719,2.21944272282736,TMM,ARMC5,16,armadillo repeat containing 5,4.83,No,No,2.21944272282736,10.0857535728161,11.027665453804
ENSG00000175221,34.3218121029663,165.252543326835,52.7066017496931,53.8339155283798,7.13137232628729,TMM,MED16,19,mediator complex subunit 16,4.81,No,No,7.13137232628729,45.3211877632684,45.5543342641236
ENSG00000171130,6.04020431363244,289.738153576676,22.7794617758066,80.4363680472632,1.25548374286617,TMM,ATP6V0E2,7,ATPase H+ transporting V0 subunit e2,4.81,No,No,1.25548374286617,6.4046446366519,8.2998122622722
ENSG00000178605,26.7720166537804,93.2037072469811,49.6161743414639,50.3902909329583,5.56555082926261,TMM,GTPBP6,X,GTP binding protein 6 (putative),4.81,No,No,5.56555082926261,35.6079652285182,32.8767997078986
ENSG00000179085,7.09449230119841,22.0593126304372,12.6574473836986,12.7963607542452,1.4760470427894,TMM,DPM3,1,"dolichyl-phosphate mannosyltransferase subunit 3, regulatory",4.81,No,No,1.4760470427894,6.02765657342706,5.92813300543651
ENSG00000172663,12.4886722647886,68.1720223921335,20.8810653176359,25.0818893243173,2.61221323700439,TMM,TMEM134,11,transmembrane protein 134,4.78,No,No,2.61221323700439,24.9962386555591,18.5556763483672
ENSG00000160072,12.7724292738787,36.0228623164005,22.489518814105,22.4075256058274,2.67288840245993,TMM,ATAD3B,1,ATPase family AAA domain containing 3B,4.78,No,No,2.67288840245993,37.6949828928896,30.7342835941597
ENSG00000103227,5.05749041895681,27.8036925813493,17.1857459950963,17.3439894039256,1.05867117883598,TMM,LMF1,16,lipase maturation factor 1,4.78,No,No,1.05867117883598,6.07530507329047,5.79686377388102
ENSG00000158717,9.74755573049879,359.378824479037,19.3799549415089,28.8178435255081,2.04283948778013,TMM,RNF166,16,ring finger protein 166,4.77,No,No,2.04283948778013,11.4675379577536,18.3355391024435
ENSG00000169972,5.37734680318317,16.2239689913749,7.12321525979317,7.9222433154397,1.12821389069203,TMM,PUSL1,1,pseudouridine synthase like 1,4.77,No,No,1.12821389069203,13.4562568070592,8.62690919501843
ENSG00000185507,7.07262513739274,256.32552683318,15.8904561901253,27.211256580873,1.4846840845962,TMM,IRF7,11,interferon regulatory factor 7,4.76,No,No,1.4846840845962,12.3838837170431,9.1879007597344
ENSG00000165886,1.47602362301235,66.4656394210145,15.5575752651941,19.1507358855145,0.309902364180155,TMM,UBTD1,10,ubiquitin domain containing 1,4.76,No,No,0.309902364180155,3.3697397054842,4.84741525681009
ENSG00000204316,31.5013078311913,117.916721393554,41.5329033840954,44.583490032543,6.61480505844513,TMM,MRPL38,17,mitochondrial ribosomal protein L38,4.76,No,No,6.61480505844513,27.6150067185757,27.3663600303262
ENSG00000204149,12.2589859204654,40.7280929237293,20.9657239301805,21.9272936812509,2.57903047183589,TMM,AGAP6,10,"ArfGAP with GTPase domain, ankyrin repeat and PH domain 6",4.75,No,No,2.57903047183589,20.6705724268524,21.8715291676191
ENSG00000011451,37.9612080262635,104.799888521685,66.1295286747064,66.8496230219614,7.98829786278599,TMM,WIZ,19,WIZ zinc finger,4.75,No,No,7.98829786278599,35.5356605706871,37.3814475202298
ENSG00000162910,16.6206133772111,47.9452497389517,22.6017569217996,24.2132977935975,3.5034232327556,TMM,MRPL55,1,mitochondrial ribosomal protein L55,4.74,No,No,3.5034232327556,20.8777860185383,16.9299045645567
ENSG00000169738,21.9884167171763,988.762222194445,55.0279863714497,73.22256810736,4.63534329314015,TMM,DCXR,17,dicarbonyl and L-xylulose reductase,4.74,No,No,4.63534329314015,49.9504418013213,43.1210423198303
ENSG00000164077,6.88461338523343,25.8521479306365,11.0889918555411,12.8166940386982,1.46243241342897,TMM,MON1A,3,"MON1 homolog A, secretory trafficking associated",4.71,No,No,1.46243241342897,4.46078129168516,4.84056063802165
ENSG00000074071,17.1364915625457,63.2230722344998,33.7523599956278,35.9033372975946,3.64540241453437,TMM,MRPS34,16,mitochondrial ribosomal protein S34,4.7,No,No,3.64540241453437,25.8530844614492,25.0838200421139
ENSG00000104866,20.7070036600127,91.2374002775083,37.7874425390313,41.7433175467168,4.4058832601588,TMM,PPP1R37,19,protein phosphatase 1 regulatory subunit 37,4.7,No,No,4.4058832601588,29.9373397461914,27.0213789115638
ENSG00000145945,3.99008978078127,28.0457034661812,11.2675974952197,13.2471997068942,0.849566094360541,TMM,FAM50B,6,family with sequence similarity 50 member B,4.7,No,No,0.849566094360541,2.31837013222185,2.745734909479
ENSG00000100304,18.8189438091037,243.157403491931,37.6526082336106,49.5259416454336,4.02602834016856,TMM,TTLL12,22,tubulin tyrosine ligase like 12,4.67,No,No,4.02602834016856,25.8644437238628,22.9405976446749
ENSG00000100300,4.37246202011117,1263.82826185543,50.2192773744838,94.5528987813495,0.938361915602395,TMM,TSPO,22,translocator protein,4.66,No,No,0.938361915602395,13.0921251106706,28.7641415168313
ENSG00000198546,8.30924533315998,27.7824147702158,12.3372873282879,13.7404898731696,1.78516158112321,TMM,ZNF511,10,zinc finger protein 511,4.65,No,No,1.78516158112321,10.4065382220238,11.6079168234576
ENSG00000136877,20.3949792408669,127.009956666087,47.5715655505958,48.3846141114652,4.38318999448253,TMM,FPGS,9,folylpolyglutamate synthase,4.65,No,No,4.38318999448253,20.4393550528455,18.5789913672563
ENSG00000168569,4.82396786012849,19.1215608749604,8.85352060059364,9.3513247473647,1.03813452289893,TMM,TMEM223,11,transmembrane protein 223,4.65,No,No,1.03813452289893,7.36211900892424,7.53858489054249
ENSG00000156990,13.6160833100935,50.9524480279467,20.3396870021559,20.9912431154832,2.93135746112879,TMM,RPUSD3,3,RNA pseudouridine synthase D3,4.64,No,No,2.93135746112879,10.0364081263075,13.8079733145706
ENSG00000130653,4.76453632097041,97.0482896770717,38.4548249770594,41.3602134391952,1.02916087384104,TMM,PNPLA7,9,patatin like phospholipase domain containing 7,4.63,No,No,1.02916087384104,2.81133595737665,7.34050938926901
ENSG00000114631,2.29521646429195,151.309040468887,9.94442249546689,33.0256169881049,0.49829182059763,TMM,PODXL2,3,podocalyxin like 2,4.61,No,No,0.49829182059763,2.09742017701526,3.1128431517332
ENSG00000062582,22.8754224464093,132.025888736043,36.2505834855775,40.3614687836692,5.01582204386142,TMM,MRPS24,7,mitochondrial ribosomal protein S24,4.56,No,No,5.01582204386142,27.1605356223743,25.074988205863
ENSG00000184436,11.3086230379816,40.2173137259677,18.47073258102,19.5579900253349,2.49352178295088,TMM,THAP7,22,THAP domain containing 7,4.54,No,No,2.49352178295088,12.2292132741074,10.0210178689388
ENSG00000196498,99.5667361411234,348.068081671795,192.172898092611,184.88156542901,21.9653100609093,TMM,NCOR2,12,nuclear receptor corepressor 2,4.53,No,No,21.9653100609093,150.872950461171,113.563806689703
ENSG00000247596,18.3158375038609,281.113999750274,36.9068814054646,47.0016454607138,4.07289121037209,TMM,TWF2,3,twinfilin actin binding protein 2,4.5,No,No,4.07289121037209,22.1874057956683,26.4649392633487
ENSG00000224051,11.4362033317656,131.041601950291,25.108450442427,32.295443730204,2.54492387493706,TMM,CPTP,1,ceramide-1-phosphate transfer protein,4.49,No,No,2.54492387493706,13.4000327962871,12.9871597628851
ENSG00000005075,17.197314851121,67.2510380887805,22.3786896682774,26.3687068580583,3.83525387086724,TMM,POLR2J,7,RNA polymerase II subunit J,4.48,No,No,3.83525387086724,21.6383976445306,19.5210380694175
ENSG00000204498,12.6640681034172,31.6317053929765,15.6115572667225,16.5510522893983,2.83150401918652,TMM,NFKBIL1,6,NFKB inhibitor like 1,4.47,No,No,2.83150401918652,9.55882632057579,9.80138878543382
ENSG00000182325,8.15849919627778,49.5864150659134,13.779410723743,16.0605925909969,1.82417663376731,TMM,FBXL6,8,F-box and leucine rich repeat protein 6,4.47,No,No,1.82417663376731,14.0606379577087,17.2069353949229
ENSG00000141858,16.8797670810566,58.1973284525602,33.190358588095,34.4202517164636,3.77638902980601,TMM,SAMD1,19,sterile alpha motif domain containing 1,4.47,No,No,3.77638902980601,12.448398600205,14.1732924201208
ENSG00000105373,94.7261262608171,820.10397834919,284.095152797141,293.599026650347,21.2104145697881,TMM,GLTSCR2,19,NOP53 ribosome biogenesis factor,4.47,No,No,21.2104145697881,129.656972106677,124.894259948817
ENSG00000090097,13.646269118178,342.25596848347,53.2434552436824,79.3716074841625,3.06477038626073,TMM,PCBP4,3,poly(rC) binding protein 4,4.45,No,No,3.06477038626073,7.41810909516513,11.2062723374841
ENSG00000181035,8.26192672991374,157.790122046152,21.1569922619751,27.9797314603216,1.85557318182817,TMM,SLC25A42,19,solute carrier family 25 member 42,4.45,No,No,1.85557318182817,8.25664809294672,9.88017292808229
ENSG00000139405,7.40518090548319,31.0698929802187,12.2796513192471,14.3119252238746,1.67275897649249,TMM,RITA1,12,RBPJ interacting and tubulin associated 1,4.43,No,No,1.67275897649249,7.82919680720397,6.94986801997512
ENSG00000185883,86.3974838264209,1010.49120153434,141.785842360939,190.755855297474,19.5279583808447,TMM,ATP6V0C,16,ATPase H+ transporting V0 subunit c,4.42,No,No,19.5279583808447,170.396359975214,92.9194326982327
ENSG00000185163,24.6999332966189,61.7567966035265,32.2445785147069,34.6849312794485,5.60765441020127,TMM,DDX51,12,DEAD-box helicase 51,4.4,No,No,5.60765441020127,19.0171768348552,19.3227958594333
ENSG00000185122,47.2728204797211,179.859871387286,73.0965126835649,78.9322019520281,10.7356896085347,TMM,HSF1,8,heat shock transcription factor 1,4.4,No,No,10.7356896085347,56.7237809007685,48.38336073861
ENSG00000104976,7.93903273282412,46.6266433041667,18.0883208474118,20.5563120002609,1.80781346667733,TMM,SNAPC2,19,small nuclear RNA activating complex polypeptide 2,4.39,No,No,1.80781346667733,6.55415924925961,7.16962414954574
ENSG00000130159,17.8014983201622,147.268335472166,34.1355205420262,40.1326679133942,4.0553920965405,TMM,ECSIT,19,ECSIT signaling integrator,4.39,No,No,4.0553920965405,11.4840892741515,10.8508424019008
ENSG00000215252,32.1532388321202,565.780822435486,75.9994099396506,96.2613224807825,7.32880537548439,TMM,GOLGA8B,15,golgin A8 family member B,4.39,No,No,7.32880537548439,25.1243118192913,40.2685997166315
ENSG00000168061,2.85437178187669,31.6789840370695,6.27472090713658,7.10429238467892,0.651941471473534,TMM,SAC3D1,11,SAC3 domain containing 1,4.38,No,No,0.651941471473534,4.84728352205653,5.23897212674644
ENSG00000165233,12.3430323116975,330.356494204158,26.1695020997211,34.6682685728079,2.82931961322579,TMM,CARD19,9,caspase recruitment domain family member 19,4.36,No,No,2.82931961322579,14.8960145683001,14.7367478974454
ENSG00000123815,19.3550970626376,90.7641233497844,27.1614339020164,30.0670120493238,4.43911195214773,TMM,COQ8B,19,coenzyme Q8B,4.36,No,No,4.43911195214773,10.1024216902774,13.5169648758942
ENSG00000184990,17.2158878890245,79.4129823987981,35.9537654714429,36.9558113430063,3.95019208487369,TMM,SIVA1,14,SIVA1 apoptosis inducing factor,4.36,No,No,3.95019208487369,41.3625740463744,30.8051164059656
ENSG00000162804,4.77079170453168,126.734784932681,32.7872704891425,42.2886390087361,1.09801403552465,TMM,SNED1,2,"sushi, nidogen and EGF like domains 1",4.34,No,No,1.09801403552465,2.5861614264381,4.76865583022801
ENSG00000063245,69.3099633379784,306.596428821124,139.38711333753,149.709095220812,15.9570999591142,TMM,EPN1,19,epsin 1,4.34,No,No,15.9570999591142,56.3749574601108,55.9113302985189
ENSG00000161179,4.07137585062371,31.2256590047949,12.1891539735244,12.975952596472,0.939039082144232,TMM,YDJC,22,YdjC chitooligosaccharide deacetylase homolog,4.34,No,No,0.939039082144232,11.172076368823,10.7821859584422
ENSG00000165644,3.18446188974235,90.9790755779928,9.53067239452189,14.223112041815,0.736141348608251,TMM,COMTD1,10,catechol-O-methyltransferase domain containing 1,4.33,No,No,0.736141348608251,17.9673789456791,13.6068282885804
ENSG00000172922,18.6703964701504,60.6873802246105,33.7744351096802,36.6761419522379,4.32160095081833,TMM,RNASEH2C,11,ribonuclease H2 subunit C,4.32,No,No,4.32160095081833,31.0967866759939,23.5957963380625
ENSG00000180900,50.4756350371702,245.505961002648,75.4334949368543,87.2143285849063,11.7418209099111,TMM,SCRIB,8,scribble planar cell polarity protein,4.3,No,No,11.7418209099111,81.8873064569918,78.0597400523498
ENSG00000007047,20.4108887824742,102.411968370755,37.796296601447,46.8835607967977,4.74986082888529,TMM,MARK4,19,microtubule affinity regulating kinase 4,4.3,No,No,4.74986082888529,11.3860484205119,14.3609797421656
ENSG00000198816,6.4191484488067,154.866410019732,62.7679473121112,68.1321360920763,1.49479241658811,TMM,ZNF358,19,zinc finger protein 358,4.29,No,No,1.49479241658811,9.63148542104246,13.7955864311634
ENSG00000235173,10.1602850428466,34.8117122067349,14.2087217254426,16.0310730733762,2.36987325911295,TMM,HGH1,8,HGH1 homolog,4.29,No,No,2.36987325911295,10.5986421536482,12.0015828938677
ENSG00000143774,84.8245558966631,1385.77457126931,171.799383874975,223.089794356446,19.8159365856204,TMM,GUK1,1,guanylate kinase 1,4.28,No,No,19.8159365856204,102.192209372912,82.1977755611703
ENSG00000220201,1.30621769312575,16.841741461207,2.99150995874101,5.36489315332409,0.307603184572943,TMM,ZGLP1,19,zinc finger GATA like protein 1,4.25,No,No,0.307603184572943,1.79021255351235,2.61861349210324
ENSG00000186364,1.05951430026529,4.27297814574043,1.67712481848645,1.91428761220657,0.24964929744008,TMM,NUDT17,1,nudix hydrolase 17,4.24,No,No,0.24964929744008,1.09305259824312,1.08199206961931
ENSG00000167397,13.5130034818936,198.951246624769,34.4264579267229,39.1879938791838,3.18445052771908,TMM,VKORC1,16,vitamin K epoxide reductase complex subunit 1,4.24,No,No,3.18445052771908,22.4956446184166,19.7013836752761
ENSG00000205593,2.08696084209807,74.97017431304,12.8652242661248,21.2123355679939,0.495485544063543,TMM,DENND6B,22,DENN domain containing 6B,4.21,No,No,0.495485544063543,2.25769394853059,4.35532424723054
ENSG00000159335,63.2611771002877,772.541332120766,205.869523666077,226.964329758451,15.0364195788597,TMM,PTMS,12,parathymosin,4.21,No,No,15.0364195788597,67.872845088858,110.897045885756
ENSG00000148384,14.0586273278192,53.2013248855275,29.4593469305422,30.6921559425018,3.34215127571586,TMM,INPP5E,9,inositol polyphosphate-5-phosphatase E,4.21,No,No,3.34215127571586,14.2096533613996,19.190699686463
ENSG00000168060,1.06810071103567,165.233929143103,4.47946865999014,8.85069490944533,0.253922385374786,TMM,NAALADL1,11,N-acetylated alpha-linked acidic dipeptidase like 1,4.21,No,No,0.253922385374786,0.435736334703648,0.719427760476901
ENSG00000139637,16.1287644360723,51.3351394021493,24.4830893493621,26.1254586776153,3.86702766890937,TMM,C12orf10,12,MYG1 exonuclease,4.17,No,No,3.86702766890937,11.7323667921633,14.4007132500071
ENSG00000105738,11.1163462660555,82.8671674045918,20.4954962206681,26.7598698832516,2.66618978686012,TMM,SIPA1L3,19,signal induced proliferation associated 1 like 3,4.17,No,No,2.66618978686012,10.7605974294639,11.1932434182138
ENSG00000198931,15.5137048822332,110.68772773281,39.1129834901987,46.3025603730902,3.72629663740333,TMM,APRT,16,adenine phosphoribosyltransferase,4.16,No,No,3.72629663740333,28.5175662378468,26.8348341588515
ENSG00000121410,1.05641385814812,975.904046999881,4.28661486989554,24.566093415465,0.255855218118993,TMM,A1BG,19,alpha-1-B glycoprotein,4.13,No,No,0.255855218118993,1.12604359507367,1.35586313325602
ENSG00000179886,5.29391021153949,18.9361233879896,9.2924390775464,9.55083034183314,1.28439827626774,TMM,TIGD5,8,tigger transposable element derived 5,4.12,No,No,1.28439827626774,4.90474734838656,5.94986871952644
ENSG00000105298,14.0110474076385,29.0253919815498,18.7094276775045,19.1601887800612,3.41933844491799,TMM,CACTIN,19,"cactin, spliceosome C complex subunit",4.1,No,No,3.41933844491799,17.8305381596203,18.0070503686294
ENSG00000126464,23.460490922812,95.530681224578,44.7335386746326,46.1062564757677,5.75859467611608,TMM,PRR12,19,proline rich 12,4.07,No,No,5.75859467611608,27.6104117134635,33.9739024574478
ENSG00000160256,5.60101856464954,50.8023037195502,10.3482045150201,12.6457718447476,1.37777139414312,TMM,FAM207A,21,family with sequence similarity 207 member A,4.07,No,No,1.37777139414312,7.4046806658389,7.24563112620144
ENSG00000167685,16.2821270029728,79.3749911780823,29.5196053457685,34.2461514021889,4.01171313453816,TMM,ZNF444,19,zinc finger protein 444,4.06,No,No,4.01171313453816,8.54310548502132,11.8703816543361
ENSG00000168159,52.7573234923944,286.124408763843,95.8881531832765,121.159577553921,13.0104359534103,TMM,RNF187,1,ring finger protein 187,4.06,No,No,13.0104359534103,39.8380827315819,34.5573027730603
ENSG00000119559,13.0494800827942,42.1154518613191,19.5691832102076,23.4390663918857,3.22003577575946,TMM,C19orf25,19,chromosome 19 open reading frame 25,4.05,No,No,3.22003577575946,15.0677137881592,15.9117293070515
ENSG00000122515,67.6834295233325,249.301178832311,127.7031575027,136.476151983039,16.7933272288424,TMM,ZMIZ2,7,zinc finger MIZ-type containing 2,4.03,No,No,16.7933272288424,45.8756871265825,72.6823133171844
ENSG00000224877,6.5453981589994,37.5707036211836,12.7324419378444,16.5964721846982,1.62828367220525,TMM,NDUFAF8,17,NADH:ubiquinone oxidoreductase complex assembly factor 8,4.02,No,No,1.62828367220525,8.47331371741596,8.52481321853382
ENSG00000127419,17.9023426239735,80.5913227766565,30.9683719477998,36.3000820811124,4.45693996955353,TMM,TMEM175,4,transmembrane protein 175,4.02,No,No,4.45693996955353,15.0085153593088,18.4244255858015
ENSG00000132361,34.9529328018527,444.684419155816,89.6119008925629,114.00007211611,8.71320529272682,TMM,CLUH,17,clustered mitochondria homolog,4.01,No,No,8.71320529272682,58.8230082189571,52.5496412954489
ENSG00000161558,6.29617030136558,87.484848453885,8.71515530762382,12.6180304802672,1.57066043437813,TMM,TMEM143,19,transmembrane protein 143,4.01,No,No,1.57066043437813,5.02345809248474,5.51001793726274
ENSG00000196976,5.3865597631532,29.0790963263727,9.92920078446878,12.3376404895148,1.34800844346834,TMM,LAGE3,X,L antigen family member 3,4,No,No,1.34800844346834,10.1776372367783,7.82860902950062
ENSG00000126249,2.68710569130227,16.7678288042003,4.30502307810784,4.9865815576572,0.673948216801517,TMM,PDCD2L,19,programmed cell death 2 like,3.99,No,No,0.673948216801517,2.32817538296111,2.06306763949102
ENSG00000176182,6.35111845529853,35.7394544017088,9.27235437880853,12.5927922421579,1.59407649633104,TMM,MYPOP,19,"Myb related transcription factor, partner of profilin",3.98,No,No,1.59407649633104,5.24080578919874,5.39530622627442
ENSG00000204172,3.33991118823414,30.438529962413,10.4278995874942,11.6319622107787,0.838690495254529,TMM,AGAP9,10,"ArfGAP with GTPase domain, ankyrin repeat and PH domain 9",3.98,No,No,0.838690495254529,10.2931601395524,9.09532494621622
ENSG00000103148,24.1451341441109,371.349813715031,40.5065696637997,46.8163097272755,6.06651021090817,TMM,NPRL3,16,"NPR3 like, GATOR1 complex subunit",3.98,No,No,6.06651021090817,28.705081161055,24.5457334990136
ENSG00000169955,12.0901716494329,22.5591757500784,16.1839530388803,16.3273896533671,3.04913140332649,TMM,ZNF747,16,zinc finger protein 747,3.97,No,No,3.04913140332649,5.07558909396387,6.25597123383049
ENSG00000129158,8.44520313772892,59.6251000321883,17.8638067534922,24.360951982493,2.14095518280587,TMM,SERGEF,11,secretion regulating guanine nucleotide exchange factor,3.94,No,No,2.14095518280587,2.7586260998652,3.56974893757837
ENSG00000127580,11.3545557098245,27.274529186883,16.1532342179611,16.7061679445778,2.8786534756612,TMM,WDR24,16,WD repeat domain 24,3.94,No,No,2.8786534756612,16.3009530663529,13.4110764205404
ENSG00000169683,5.0461071481345,44.6029005071533,11.8960711334194,14.663277039539,1.28048937311693,TMM,LRRC45,17,leucine rich repeat containing 45,3.94,No,No,1.28048937311693,16.7268657405016,20.2239411214598
ENSG00000196456,2.13716848218747,19.2032369079183,7.10572659159749,7.41616837813995,0.543201625418941,TMM,ZNF775,7,zinc finger protein 775,3.93,No,No,0.543201625418941,1.84136477629303,2.58511647732749
ENSG00000119574,7.38546209140402,23.5168837705242,14.1873405451551,14.1747827588228,1.88649027248715,TMM,ZBTB45,19,zinc finger and BTB domain containing 45,3.91,No,No,1.88649027248715,8.88720509803922,7.42170439372771
ENSG00000158715,1.68282196171271,518.635837896579,6.50661787693405,23.1104090821039,0.430676198204073,TMM,SLC45A3,1,solute carrier family 45 member 3,3.91,No,No,0.430676198204073,1.67341982170117,3.39758100750572
ENSG00000011132,6.97500855262604,31.7420075499432,12.3525965129584,12.7182820040485,1.78540028024518,TMM,APBA3,19,amyloid beta precursor protein binding family A member 3,3.91,No,No,1.78540028024518,16.8899319763055,12.4913542609546
ENSG00000102977,10.2446601349026,51.8338274901602,18.1867969934233,20.2405487282335,2.62575294535828,TMM,ACD,16,ACD shelterin complex subunit and telomerase recruitment factor,3.9,No,No,2.62575294535828,9.60041199768645,11.4732691883351
ENSG00000123689,1.63254917843971,423.798837019387,11.4114856685093,57.7440174295777,0.41962918557015,TMM,G0S2,1,G0/G1 switch 2,3.89,No,No,0.41962918557015,1.01168093684677,5.13252401955973
ENSG00000059915,1.06272362417185,873.627930360231,10.6695651124249,149.388746621959,0.273500226891268,TMM,PSD,10,pleckstrin and Sec7 domain containing,3.89,No,No,0.273500226891268,3.61164629694076,3.9899092582675
ENSG00000211450,26.6312873357912,126.004452765547,47.4779346357056,48.655602296317,6.85461162273623,TMM,SELENOH,11,selenoprotein H,3.89,No,No,6.85461162273623,33.7572599396733,35.9519666226284
ENSG00000115042,12.1220667603259,99.9244494316834,24.5474636564951,26.8928340741639,3.12301837009704,TMM,FAHD2A,2,fumarylacetoacetate hydrolase domain containing 2A,3.88,No,No,3.12301837009704,12.9356364860584,13.9807133252142
ENSG00000086504,22.1176180007744,90.0635378627515,35.2276230689814,42.1558878050214,5.70433477035435,TMM,MRPL28,16,mitochondrial ribosomal protein L28,3.88,No,No,5.70433477035435,22.4132804920854,22.5567139016659
ENSG00000158887,2.29574447654321,3065.40888008488,5.80227785866422,72.7557382272158,0.592781371029428,TMM,MPZ,1,myelin protein zero,3.87,No,No,0.592781371029428,0.937890708252438,1.05970262331334
ENSG00000168096,10.5891882942049,46.4691495752398,23.4873230047952,23.3481355564381,2.74318432485758,TMM,ANKS3,16,ankyrin repeat and sterile alpha motif domain containing 3,3.86,No,No,2.74318432485758,13.1072975598285,13.0339978660835
ENSG00000186577,9.39768794945774,83.6174684715773,18.0968623226602,26.9759082945848,2.43633326533631,TMM,C6orf1,6,small integral membrane protein 29,3.86,No,No,2.43633326533631,8.48052624664149,7.77317271559835
ENSG00000133315,3.28749956130654,195.965764446588,12.2711849762478,19.298187530001,0.854869434636356,TMM,MACROD1,11,mono-ADP ribosylhydrolase 1,3.85,No,No,0.854869434636356,9.05212530550409,6.35918832962538
ENSG00000083838,4.13142079817791,11.6142110141812,6.19552943961194,6.69933470284621,1.07466331591024,TMM,ZNF446,19,zinc finger protein 446,3.84,No,No,1.07466331591024,3.9202498979963,4.81986290019363
ENSG00000267368,6.98284242773903,62.1110548934292,15.3706522787704,17.117065061217,1.81641640632979,TMM,UPK3BL,7,uroplakin 3B like 1,3.84,No,No,1.81641640632979,9.75544257270937,12.3565728205284
ENSG00000142330,11.8134818885808,48.4723141107223,24.6374697998898,26.3953733938425,3.07322128078235,TMM,CAPN10,2,calpain 10,3.84,No,No,3.07322128078235,15.9984321906202,19.8815253330646
ENSG00000132819,7.41496644591885,870.475287520454,23.6556374049926,60.7926282162039,1.93482133857682,TMM,RBM38,20,RNA binding motif protein 38,3.83,No,No,1.93482133857682,14.5112473723042,11.7219229423874
ENSG00000148291,6.58310171434451,40.0031160628181,9.705299486027,11.4484142859803,1.71865017343887,TMM,SURF2,9,surfeit 2,3.83,No,No,1.71865017343887,5.47539784170582,5.02913099119456
ENSG00000125901,15.8610998120105,65.9524042710702,32.0977865125399,33.450266416275,4.1427598352777,TMM,MRPS26,20,mitochondrial ribosomal protein S26,3.83,No,No,4.1427598352777,27.7314260965459,26.27443142459
ENSG00000163975,1.73152696548043,36.2808184104784,8.03268990017527,10.7818675510065,0.456325445854976,TMM,MELTF,3,melanotransferrin,3.79,No,No,0.456325445854976,3.6376643721193,3.16877482326577
ENSG00000104886,20.6192936004778,83.5413896940778,35.3382642695625,40.4138377834986,5.44135092714057,TMM,PLEKHJ1,19,pleckstrin homology domain containing J1,3.79,No,No,5.44135092714057,27.4237289751283,29.1284083104501
ENSG00000128311,6.38400211222427,366.761228437109,20.8266835774152,36.283057610689,1.68811410464239,TMM,TST,22,thiosulfate sulfurtransferase,3.78,No,No,1.68811410464239,11.5273195557752,9.21069304279004
ENSG00000060491,35.1927227964912,301.052843548105,53.2213766783161,61.7794161193603,9.35320400952683,TMM,OGFR,20,opioid growth factor receptor,3.76,No,No,9.35320400952683,39.3798798062755,45.0046873275999
ENSG00000267673,4.83559067982909,33.6662450009783,9.01115969488232,12.5790909071615,1.28576094844514,TMM,FDX2,19,ferredoxin 2,3.76,No,No,1.28576094844514,4.81545517503401,5.09734428248284
ENSG00000141873,12.2270502267588,64.5315242750487,18.1888251811393,20.2470835472114,3.25226860705731,TMM,SLC39A3,19,solute carrier family 39 member 3,3.76,No,No,3.25226860705731,17.3750786537279,13.709117561454
ENSG00000167674,34.245167007684,91.048776178616,45.7118691196556,49.3309078276643,9.10955877381232,TMM,CTB-50L17.10,19,HDGF like 2,3.76,No,No,9.10955877381232,38.7052278899293,45.3258229670943
ENSG00000262814,15.1524201200257,127.000471511512,31.5861569963866,37.4518489473822,4.03294443391819,TMM,MRPL12,17,mitochondrial ribosomal protein L12,3.76,No,No,4.03294443391819,29.4292362319441,25.0598217897764
ENSG00000005206,44.5346353064724,174.641018788866,66.59488532438,79.0662518016667,11.8561101682899,TMM,SPPL2B,19,signal peptide peptidase like 2B,3.76,No,No,11.8561101682899,72.2973895692212,78.8235332518324
ENSG00000149743,10.4242909190957,79.6024865184556,16.8594833334639,19.0423397623236,2.78097137401011,TMM,TRPT1,11,tRNA phosphotransferase 1,3.75,No,No,2.78097137401011,13.9330299864706,13.7731431726625
ENSG00000140983,52.8503612667306,191.975316340525,98.9923352138964,106.115012149727,14.1036714582272,TMM,RHOT2,16,ras homolog family member T2,3.75,No,No,14.1036714582272,85.6315599733157,84.0060855191917
ENSG00000116663,4.00814462850622,34.5988671836693,8.60975930164709,9.34683408231165,1.07407140022298,TMM,FBXO6,1,F-box protein 6,3.73,No,No,1.07407140022298,2.39557649223719,2.7147268714529
ENSG00000188878,8.60238568866419,81.8776863611377,17.9242914980545,20.6023965061808,2.30732890263408,TMM,FBF1,17,Fas binding factor 1,3.73,No,No,2.30732890263408,14.5238879656219,14.1190639314294
ENSG00000100294,5.94423914991821,20.7734344336587,11.1261385009622,11.6618373559014,1.59487053912724,TMM,MCAT,22,malonyl-CoA-acyl carrier protein transacylase,3.73,No,No,1.59487053912724,5.02867780436208,5.57399173217172
ENSG00000105220,118.76940465384,714.444001620551,251.179884974635,287.333828610047,31.9459420048364,TMM,GPI,19,glucose-6-phosphate isomerase,3.72,No,No,31.9459420048364,98.7488847729653,82.0248483788924
ENSG00000007080,25.5915578467551,107.887135609233,47.6502761339589,51.0690650082571,6.88764655280441,TMM,CCDC124,19,coiled-coil domain containing 124,3.72,No,No,6.88764655280441,27.3197117073662,24.3390820824896
ENSG00000161010,23.4158089340595,101.105873555469,39.6957766654078,41.6100481291496,6.30302603416531,TMM,MRNIP,5,MRN complex interacting protein,3.72,No,No,6.30302603416531,57.7636353067949,40.4986823226448
ENSG00000158792,1.74542596294966,40.6420902984433,8.80517022740257,10.7271898967101,0.470327749842409,TMM,SPATA2L,16,spermatogenesis associated 2 like,3.71,No,No,0.470327749842409,6.15806682576501,5.31699237057593
ENSG00000068438,16.8165880474412,48.927383178732,25.3336592863183,24.5595127141534,4.53396309350024,TMM,FTSJ1,X,FtsJ RNA 2'-O-methyltransferase 1,3.71,No,No,4.53396309350024,16.5061617009879,12.1732138397407
ENSG00000067191,2.09776133717755,348.177264394013,15.6184162065121,34.4977229858552,0.567048027447069,TMM,CACNB1,17,calcium voltage-gated channel auxiliary subunit beta 1,3.7,No,No,0.567048027447069,2.45854871495587,5.41659883961244
ENSG00000176248,28.047724643616,57.1947028476428,38.2756474331311,39.9944233623769,7.58846940965754,TMM,ANAPC2,9,anaphase promoting complex subunit 2,3.7,No,No,7.58846940965754,31.5594041359692,33.3632709565809
ENSG00000116691,13.1100410476746,168.072525137038,23.7054844699974,27.6201658719638,3.55207105254618,TMM,MIIP,1,migration and invasion inhibitory protein,3.69,No,No,3.55207105254618,31.1205960125709,29.4694064242634
ENSG00000069424,8.66209224639131,563.645075371629,28.3871901137271,113.781204913256,2.34923201890414,TMM,KCNAB2,1,potassium voltage-gated channel subfamily A regulatory beta subunit 2,3.69,No,No,2.34923201890414,4.79801950438078,15.0666997239018
ENSG00000132004,2.35545031251853,12.2445803411323,4.70429069668959,5.19584370636236,0.6388197941951,TMM,FBXW9,19,F-box and WD repeat domain containing 9,3.69,No,No,0.6388197941951,3.9833322818025,4.70070373476939
ENSG00000166925,35.2582718414148,540.906794886019,66.1232130012569,137.08500023484,9.59297825742927,TMM,TSC22D4,7,TSC22 domain family member 4,3.68,No,No,9.59297825742927,30.2878394787941,39.1890996127172
ENSG00000183207,32.2656550812425,196.273944237717,40.8870343939707,47.2624267967004,8.78128315712396,TMM,RUVBL2,19,RuvB like AAA ATPase 2,3.67,No,No,8.78128315712396,44.0322767227927,36.0205118900027
ENSG00000167965,17.4058448024682,70.1251237392255,31.5932909934199,35.7106412554309,4.77622330432969,TMM,MLST8,16,"MTOR associated protein, LST8 homolog",3.64,No,No,4.77622330432969,24.906314009757,25.2636711589937
ENSG00000100908,6.71480159040881,23.4980933246746,10.2750104881591,11.3765984524333,1.84450422899857,TMM,EMC9,14,ER membrane protein complex subunit 9,3.64,No,No,1.84450422899857,8.85010101920822,8.08391106060414
ENSG00000113758,7.81691570776598,216.741924691666,75.0279010712383,86.6965999768085,2.15465235448748,TMM,DBN1,5,drebrin 1,3.63,No,No,2.15465235448748,14.6911352786549,14.7247240870481
ENSG00000101473,8.69070461150423,32.3592973882068,14.7483485794352,16.089647916433,2.4049177522544,TMM,ACOT8,20,acyl-CoA thioesterase 8,3.61,No,No,2.4049177522544,10.1669315868758,8.71562624845847
ENSG00000116857,27.5359002313586,114.083060005438,48.2353472696972,58.9647480597612,7.62940094390091,TMM,TMEM9,1,transmembrane protein 9,3.61,No,No,7.62940094390091,18.2384425247309,22.6726618803829
ENSG00000126005,13.9162435191519,69.8148712491862,34.8210039108689,36.393853420912,3.88130785216775,TMM,MMP24-AS1,20,MMP24 opposite strand,3.59,No,No,3.88130785216775,13.1988439643965,15.3519564470334
ENSG00000172590,14.8793109221355,41.461108582049,21.9292819970139,24.0211172329779,4.1547187918759,TMM,MRPL52,14,mitochondrial ribosomal protein L52,3.58,No,No,4.1547187918759,18.8743559500872,16.9466726562151
ENSG00000188986,42.5933899287301,100.607858559401,60.1391345959861,64.5944860523763,11.9011964712264,TMM,NELFB,9,negative elongation factor complex member B,3.58,No,No,11.9011964712264,40.951425821247,41.0398510169
ENSG00000170835,1.78436597952388,34545.6318663932,3.0897079004112,714.027918120705,0.498745139572764,TMM,CEL,9,carboxyl ester lipase,3.58,No,No,0.498745139572764,4.06901448341491,2.33236254053369
ENSG00000183048,2.04625216765247,209.714548254731,11.6618768850061,20.6318294831038,0.572229137585335,TMM,SLC25A10,17,solute carrier family 25 member 10,3.58,No,No,0.572229137585335,8.07567981436149,8.09654216420668
ENSG00000142544,2.43522111745183,8.27969225324216,4.10152723942675,4.28270591093366,0.682075638848617,TMM,CTU1,19,cytosolic thiouridylase subunit 1,3.57,No,No,0.682075638848617,3.23659573125301,3.29825767930638
ENSG00000114023,19.5251047144976,112.839002811184,51.4165033130567,55.8429006466484,5.48305182024726,TMM,FAM162A,3,family with sequence similarity 162 member A,3.56,No,No,5.48305182024726,8.76614742041432,6.28680041999614
ENSG00000171443,5.58904564005808,52.4071635342707,13.4124829651722,15.1483687503481,1.57072793915746,TMM,ZNF524,19,zinc finger protein 524,3.56,No,No,1.57072793915746,5.68334817366627,5.72427006961546
ENSG00000102312,3.6339862931065,76.1864895216453,11.8148883458939,15.0699038130126,1.02261141537387,TMM,PORCN,X,porcupine O-acyltransferase,3.55,No,No,1.02261141537387,135.79112185464,18.4051422056212
ENSG00000167702,7.56238059431696,285.268838670379,37.6202044320611,69.448175427051,2.13035709815209,TMM,KIFC2,8,kinesin family member C2,3.55,No,No,2.13035709815209,16.0431568376903,17.9513280059629
ENSG00000178896,5.7082324165263,58.9449004304319,8.44449231734768,10.2704498676581,1.61476050641073,TMM,EXOSC4,8,exosome component 4,3.54,No,No,1.61476050641073,10.4323480702035,7.69509842270179
ENSG00000180035,4.82893032535594,18.6805803085324,9.13967057243102,9.5644796925397,1.3669027743549,TMM,ZNF48,16,zinc finger protein 48,3.53,No,No,1.3669027743549,2.89897703419823,3.25294507369605
ENSG00000185049,20.8442728185452,50.1572213871401,28.2747624103696,30.7115051885675,5.92313362752324,TMM,NELFA,4,negative elongation factor complex member A,3.52,No,No,5.92313362752324,29.2811330012596,25.7901567273832
ENSG00000103126,22.078921286441,109.264146042089,31.2367131270239,33.7233096283618,6.28800420947598,TMM,AXIN1,16,axin 1,3.51,No,No,6.28800420947598,30.5161868012759,26.0722628435302
ENSG00000144134,3.95244193770854,28.202845312995,12.0285663435527,13.5371747857595,1.12990688203547,TMM,RABL2A,2,"RAB, member of RAS oncogene family like 2A",3.5,No,No,1.12990688203547,3.70649316863535,4.69584588299767
ENSG00000169718,38.3731212254471,164.053530549543,70.2725934459275,74.6037155978964,10.9894906206138,TMM,DUS1L,17,dihydrouridine synthase 1 like,3.49,No,No,10.9894906206138,59.6401401134024,52.3699982434077
ENSG00000154277,1.20289265955517,928.962663217602,30.6465894977266,168.516622419314,0.345347085112249,TMM,UCHL1,4,ubiquitin C-terminal hydrolase L1,3.48,No,No,0.345347085112249,2.4623791780885,2.98564029470307
ENSG00000139579,14.7652861740538,46.4616908193024,22.1363481889933,26.1333425367256,4.2530624942573,TMM,NABP2,12,nucleic acid binding protein 2,3.47,No,No,4.2530624942573,9.73340567582899,9.51009450820054
ENSG00000143793,11.7878786969782,40.4027326591364,17.7450730035125,18.6750229974973,3.40127269037631,TMM,C1orf35,1,chromosome 1 open reading frame 35,3.47,No,No,3.40127269037631,16.5159043020623,15.0296848304013
ENSG00000164896,42.4305207732865,163.438322962107,66.236002503256,68.9061238345908,12.2434669186824,TMM,FASTK,7,Fas activated serine/threonine kinase,3.47,No,No,12.2434669186824,65.4095640014656,59.6361669537678
ENSG00000178685,18.532237192988,213.386291629831,53.2545924074218,58.4213872245167,5.36218029821016,TMM,PARP10,8,poly(ADP-ribose) polymerase family member 10,3.46,No,No,5.36218029821016,10.8868539310011,21.6172231320349
ENSG00000160323,1.86077562363145,89.1650943811144,9.12658763799977,12.9297054540538,0.538718802863246,TMM,ADAMTS13,9,ADAM metallopeptidase with thrombospondin type 1 motif 13,3.45,No,No,0.538718802863246,5.31209734098581,5.902887609141
ENSG00000099977,4.41724055777968,100.102718688597,11.6405358038973,14.5673051032089,1.28065075272024,TMM,DDT,22,D-dopachrome tautomerase,3.45,No,No,1.28065075272024,12.6063380715811,9.35085383058472
ENSG00000171823,4.63029690160153,27.1040837271961,8.50616022460513,9.47404550755997,1.34414575039682,TMM,FBXL14,12,F-box and leucine rich repeat protein 14,3.44,No,No,1.34414575039682,4.17482925951477,6.19177479442912
ENSG00000176058,6.03613177042547,148.698628397673,15.2647563941326,27.5092209137393,1.76129253262629,TMM,TPRN,9,taperin,3.43,No,No,1.76129253262629,7.82155461298208,9.09902823726871
ENSG00000130956,7.16490136445115,145.625712160107,27.8857644323407,46.4691163820713,2.09074819211975,TMM,HABP4,9,hyaluronan binding protein 4,3.43,No,No,2.09074819211975,4.30365988079462,6.29337465541418
ENSG00000137166,14.023842564613,143.094379883078,43.4985670823462,49.5760615911429,4.09689910778692,TMM,FOXP4,6,forkhead box P4,3.42,No,No,4.09689910778692,16.081169660575,12.3462476329618
ENSG00000182196,55.6456778093937,143.955602281574,90.7830781746454,90.355293462755,16.2735464890361,TMM,ARL6IP4,12,ADP ribosylation factor like GTPase 6 interacting protein 4,3.42,No,No,16.2735464890361,58.701961920522,56.0237396448623
ENSG00000105677,26.2532518147354,79.1950189191237,39.9579564991324,42.4852044332871,7.71072196181743,TMM,TMEM147,19,transmembrane protein 147,3.4,No,No,7.71072196181743,37.5129808544793,27.6619371110808
ENSG00000145912,17.2577498135209,53.0072043930187,26.521485120682,27.9513252392866,5.1041909235059,TMM,NHP2,5,NHP2 ribonucleoprotein,3.38,No,No,5.1041909235059,25.2442892226676,20.2896823556153
ENSG00000130312,17.3606766880494,79.9613390068541,30.0548643546125,33.3831732429722,5.14444967897828,TMM,MRPL34,19,mitochondrial ribosomal protein L34,3.37,No,No,5.14444967897828,21.5874542953712,17.8173180697731
ENSG00000069998,14.6477065663153,57.7860349383332,25.2009695233135,26.9536940184954,4.35777011507436,TMM,HDHD5,22,haloacid dehalogenase like hydrolase domain containing 5,3.36,No,No,4.35777011507436,15.5729092701005,12.2662152949227
ENSG00000130479,15.8504598416124,92.0937927585242,31.5579000035923,34.2978879673239,4.72159940510011,TMM,MAP1S,19,microtubule associated protein 1S,3.36,No,No,4.72159940510011,26.4029055976961,23.5898892735335
ENSG00000179091,38.1705600887074,411.032270045663,80.4747785907514,96.7226148617144,11.4310857739618,TMM,CYC1,8,cytochrome c1,3.34,No,No,11.4310857739618,48.4905808493163,42.8501732437163
ENSG00000020129,18.2488486355495,2257.79431856745,38.9879746682678,238.716110229488,5.4955508099158,TMM,NCDN,1,neurochondrin,3.32,No,No,5.4955508099158,16.1090396551468,18.5493005849876
ENSG00000161277,3.3960298611038,13.5426196254648,5.71406759564295,6.27815478882849,1.02325952124403,TMM,THAP8,19,THAP domain containing 8,3.32,No,No,1.02325952124403,5.17652658233776,4.00787629670018
ENSG00000161981,7.46781749160028,70.8375580476923,18.8027331677571,26.6659134715353,2.25051840044904,TMM,SNRNP25,16,small nuclear ribonucleoprotein U11/U12 subunit 25,3.32,No,No,2.25051840044904,8.59606054402597,10.2480886811746
ENSG00000160959,18.2210882111005,40.498016699518,26.8859625125446,27.5763332431416,5.49662343130599,TMM,LRRC14,8,leucine rich repeat containing 14,3.31,No,No,5.49662343130599,18.1571850627428,19.2243370257733
ENSG00000171853,29.8805539420405,72.2119365576393,36.9906074152458,39.4079344535611,9.10775026808341,TMM,TRAPPC12,2,trafficking protein particle complex 12,3.28,No,No,9.10775026808341,20.5110073053491,25.0972007217503
ENSG00000213672,19.3877293310307,100.143560458089,34.7016378033142,39.2738010641,5.91319702304341,TMM,NCKIPSD,3,NCK interacting protein with SH3 domain,3.28,No,No,5.91319702304341,26.5501074787711,16.9271225313218
ENSG00000126970,2.32106454725426,15.9513951436049,9.63907281034484,9.4282521043361,0.707927925254283,TMM,ZC4H2,X,zinc finger C4H2-type containing,3.28,No,No,0.707927925254283,1.26048015514732,0.877904204988871
ENSG00000059122,18.9890865523712,153.384075790638,78.9480465538494,78.2498613104429,5.8078318160859,TMM,FLYWCH1,16,FLYWCH-type zinc finger 1,3.27,No,No,5.8078318160859,34.6538157928196,43.8687129981975
ENSG00000104907,29.1170186009969,67.0701767714709,38.014931315779,40.322443178347,8.91572697642389,TMM,TRMT1,19,tRNA methyltransferase 1,3.27,No,No,8.91572697642389,23.7041992931398,27.2360092453869
ENSG00000154146,1.70056102980983,1624.32814347464,7.89940813461943,198.654402876746,0.522123423663342,TMM,NRGN,11,neurogranin,3.26,No,No,0.522123423663342,2.05718647994059,3.6501043834951
ENSG00000164880,76.9714856935444,251.134438055857,115.93453794197,120.597445194377,23.6702224103319,TMM,INTS1,7,integrator complex subunit 1,3.25,No,No,23.6702224103319,143.047539074649,109.885115826522
ENSG00000175701,5.27089508335352,89.1913153650105,10.864219698468,13.1440123335587,1.62608803093232,TMM,LINC00116,2,mitoregulin,3.24,No,No,1.62608803093232,4.69320125486454,4.2847625427553
ENSG00000006062,9.27809929902285,81.5734848278526,21.4581081130965,24.6359848992052,2.8623616193838,TMM,MAP3K14,17,mitogen-activated protein kinase kinase kinase 14,3.24,No,No,2.8623616193838,6.45245196147357,9.09455464371343
ENSG00000130810,12.7585454209458,101.005397440687,20.6055362809342,22.8731463416076,3.94958267040351,TMM,PPAN,19,peter pan homolog,3.23,No,No,3.94958267040351,15.8464208224399,14.7186501379572
ENSG00000179965,1.41437328684956,24.1414968853903,7.88966843639428,9.8805235648444,0.437950759610494,TMM,ZNF771,16,zinc finger protein 771,3.23,No,No,0.437950759610494,1.31502883682573,1.31102260084755
ENSG00000128626,8.39603135965488,41.4023467031738,14.2397809141304,17.5060696793952,2.60353236744713,TMM,MRPS12,19,mitochondrial ribosomal protein S12,3.22,No,No,2.60353236744713,13.7428814869131,11.1367244846041
ENSG00000176101,19.6895457622335,64.0196491487987,31.5725644541484,34.1895990492478,6.12225636496545,TMM,SSNA1,9,SS nuclear autoantigen 1,3.22,No,No,6.12225636496545,26.0433467237129,23.0513056015823
ENSG00000160767,20.1903411757485,49.4632816029154,29.7674744749443,31.3475581969509,6.28715625095525,TMM,FAM189B,1,family with sequence similarity 189 member B,3.21,No,No,6.28715625095525,20.1448429044929,20.2067964008469
ENSG00000110921,9.39003324725675,92.8048216950718,15.4426608018848,20.6759524710726,2.93003468918335,TMM,MVK,12,mevalonate kinase,3.2,No,No,2.93003468918335,14.1075421126657,12.5853716852635
ENSG00000169692,3.23741076766324,387.82666005778,35.0167072980372,63.9411921021802,1.01544621908938,TMM,AGPAT2,9,1-acylglycerol-3-phosphate O-acyltransferase 2,3.19,No,No,1.01544621908938,7.40190393921693,10.8963418155128
ENSG00000032444,47.8097224969101,340.32575432842,74.794042020294,79.7896219978397,15.0010193143498,TMM,PNPLA6,19,patatin like phospholipase domain containing 6,3.19,No,No,15.0010193143498,49.8530321310483,46.1511939005153
ENSG00000135940,40.7520013450833,436.456639419118,88.9333173479424,116.007783077376,12.903201892113,TMM,COX5B,2,cytochrome c oxidase subunit 5B,3.16,No,No,12.903201892113,52.6604970970923,46.0336659520236
ENSG00000165684,13.5082000592095,56.8180997579026,22.9012963943698,25.9625110011744,4.28191912343593,TMM,SNAPC4,9,small nuclear RNA activating complex polypeptide 4,3.15,No,No,4.28191912343593,17.0739583828374,17.7697326784402
ENSG00000198695,377.68229735911,7129.5304711883,1832.55907349934,2266.23241287287,120.013290774686,TMM,MT-ND6,MT,mitochondrially encoded NADH:ubiquinone oxidoreductase core subunit 6,3.15,No,No,120.013290774686,2270.16317866919,3040.26633861889
ENSG00000118894,2.53833031685579,10.0673531897097,4.41674070969256,4.61691749189912,0.808974055125922,TMM,EEF2KMT,16,eukaryotic elongation factor 2 lysine methyltransferase,3.14,No,No,0.808974055125922,3.48739997755464,3.44742090840885
ENSG00000169093,16.8377739089198,55.0049269988771,30.9418046410052,31.3609566635903,5.37920738006945,TMM,ASMTL,X,acetylserotonin O-methyltransferase like,3.13,No,No,5.37920738006945,24.0720831286208,22.2706620815494
ENSG00000141569,9.45682141030028,41.0781087559931,23.8823391395919,23.9587135882718,3.02127754699072,TMM,TRIM65,17,tripartite motif containing 65,3.13,No,No,3.02127754699072,8.15679041893557,12.0985475528934
ENSG00000160213,40.3790309819384,6122.59907454969,76.4522537027731,256.486766867231,12.9573995943545,TMM,CSTB,21,cystatin B,3.12,No,No,12.9573995943545,60.3997495101688,52.8138183653089
ENSG00000147804,1.42916193929143,162.70746021204,6.43905991349453,11.8329660779416,0.459625845626815,TMM,SLC39A4,8,solute carrier family 39 member 4,3.11,No,No,0.459625845626815,4.9715678514383,9.36132037498508
ENSG00000076928,37.3766165950306,1128.38641131561,93.6093476497081,120.080349603201,12.0716279805058,TMM,ARHGEF1,19,Rho guanine nucleotide exchange factor 1,3.1,No,No,12.0716279805058,53.1247500759126,69.7034631873274
ENSG00000170430,5.97872482513415,88.0941577871432,14.7355649000643,16.2839139558804,1.93946730335464,TMM,MGMT,10,O-6-methylguanine-DNA methyltransferase,3.08,No,No,1.93946730335464,7.10843234501864,7.48620974255397
ENSG00000214309,1.09403611347526,6.01266350697326,2.19883969885901,2.60134958230676,0.356380086693905,TMM,MBLAC1,7,metallo-beta-lactamase domain containing 1,3.07,No,No,0.356380086693905,1.03268348775075,1.11344340483368
ENSG00000176894,4.78611595565807,159.742089141439,10.4791470397697,15.8872582213909,1.56986388356485,TMM,PXMP2,12,peroxisomal membrane protein 2,3.05,No,No,1.56986388356485,7.45489596557519,8.2303048080247
ENSG00000171425,5.9538523219235,44.6959845936548,11.9293418116676,13.2348920621098,1.95425641997073,TMM,ZNF581,19,zinc finger protein 581,3.05,No,No,1.95425641997073,6.89617850312081,6.94685096090505
ENSG00000126254,37.0751194843038,109.218873087908,53.1886507685724,54.2576964112712,12.276866705322,TMM,RBM42,19,RNA binding motif protein 42,3.02,No,No,12.276866705322,73.6798624994805,56.3234376118393
ENSG00000122140,12.4321169355024,51.5463815079371,21.2756954070761,23.5902921292078,4.12049854445367,TMM,MRPS2,9,mitochondrial ribosomal protein S2,3.02,No,No,4.12049854445367,23.1742871247573,21.5675101593747
ENSG00000118046,39.5725931985829,199.552392247732,67.0766130889447,75.3872833094002,13.1730158476574,TMM,STK11,19,serine/threonine kinase 11,3,No,No,13.1730158476574,53.038850896526,54.5207343391496
